8 13 7 251 9 241 9 144 0 0
8 9 7 251 9 243 9 144 0 0
8 11 7 251 9 246 9 144 0 0
8 10 7 251 9 238 9 144 0 0
8 14 7 251 9 242 9 144 0 0
8 11 7 251 9 245 9 150 0 0
8 9 8 0 9 246 9 152 0 0
8 9 8 0 9 245 9 153 0 0
8 8 8 0 9 237 9 153 0 0
8 11 8 0 9 243 9 152 0 0
8 12 8 0 9 246 9 150 0 0
8 9 8 0 9 248 9 149 0 0
8 13 7 255 9 250 9 152 0 0
8 9 7 255 9 241 9 152 0 0
8 11 7 255 9 242 9 150 0 0
8 10 7 255 9 243 9 149 0 0
8 11 7 255 9 243 9 150 0 0
8 11 7 255 9 236 9 151 0 0
8 11 7 255 9 240 9 152 0 0
8 12 7 254 9 242 9 151 0 0
8 10 7 255 9 239 9 151 0 0
8 9 7 254 9 239 9 151 0 0
8 7 7 255 9 245 9 149 0 0
8 10 7 254 9 243 9 150 0 0
8 12 7 255 9 241 9 150 0 0
8 9 7 254 9 244 9 151 0 0
8 8 7 254 9 245 9 152 0 0
8 8 7 254 9 245 9 154 0 0
8 11 7 254 9 244 9 153 0 0
8 10 7 254 9 239 9 152 0 0
8 12 7 254 9 230 9 151 0 0
8 7 7 254 9 240 9 149 0 0
8 9 7 254 9 243 9 151 0 0
8 6 7 254 9 243 9 152 0 0
8 13 7 254 9 243 9 152 0 0
8 11 7 253 9 243 9 152 0 0
8 10 7 254 9 249 9 150 0 0
8 12 7 253 9 241 9 150 0 0
8 7 7 253 9 243 9 153 0 0
8 12 7 253 9 240 9 151 0 0
8 11 7 253 9 245 9 151 0 0
8 10 7 253 9 241 9 152 0 0
8 9 7 253 9 240 9 152 0 0
8 8 7 253 9 237 9 152 0 0
8 7 7 253 9 239 9 153 0 0
8 7 7 253 9 245 9 152 0 0
8 8 7 253 9 241 9 150 0 0
8 17 7 253 9 240 9 163 0 0
8 14 7 253 9 244 9 166 0 0
8 23 7 253 9 236 9 168 0 0
8 39 7 253 9 240 9 172 0 0
7 248 7 254 9 250 9 208 0 0
7 245 7 253 9 244 9 203 0 0
7 242 7 253 9 243 9 199 0 0
7 246 7 253 9 245 9 194 0 0
7 252 7 251 9 242 9 193 0 0
7 255 7 251 9 239 9 197 0 0
7 255 7 251 9 244 9 197 0 0
8 5 7 251 9 238 9 196 0 0
8 7 7 252 9 237 9 196 0 0
7 236 7 244 9 241 9 162 0 0
7 241 7 244 9 242 9 160 0 0
7 232 7 244 9 235 9 158 0 0
7 238 7 244 9 254 9 157 0 0
7 242 7 244 9 249 9 159 0 0
7 229 7 242 9 249 9 160 0 0
7 227 7 242 9 243 9 158 0 0
7 233 7 242 9 241 9 154 0 0
7 239 7 242 9 242 9 154 0 0
8 21 7 241 9 231 9 98 0 0
8 47 7 241 9 237 9 98 0 0
8 26 7 241 9 235 9 100 0 0
8 12 7 241 9 231 9 103 0 0
7 197 7 238 9 224 9 91 0 0
7 193 7 238 9 225 9 79 0 0
8 7 7 238 10 11 9 69 0 0
8 15 7 238 9 234 9 62 0 0
7 167 7 235 9 240 9 96 0 0
7 247 7 235 10 24 9 86 0 0
7 218 7 235 9 196 9 80 0 0
7 235 7 234 9 252 9 77 0 0
7 246 7 232 10 21 9 81 0 0
8 8 7 231 9 212 9 85 0 0
8 32 7 232 9 238 9 90 0 0
7 234 7 231 9 234 9 95 0 0
7 221 7 231 9 230 9 94 0 0
7 234 7 232 9 233 9 88 0 0
8 48 7 233 9 232 9 98 0 0
8 4 7 233 9 225 9 99 0 0
8 14 7 233 10 13 9 103 0 0
7 247 7 234 9 228 9 148 0 0
7 174 7 234 9 184 9 153 0 0
7 149 7 234 10 0 9 151 0 0
7 170 7 233 9 210 9 144 0 0
7 152 7 233 9 184 9 137 0 0
7 154 7 233 10 8 9 132 0 0
8 15 7 233 10 41 9 125 0 0
8 29 7 233 9 173 9 117 0 0
8 26 7 234 10 24 9 95 0 0
8 71 7 234 10 25 9 95 0 0
7 242 7 234 9 171 9 99 0 0
7 166 7 234 9 192 9 99 0 0
8 75 7 234 10 27 9 72 0 0
8 28 7 234 9 236 9 77 0 0
8 84 7 234 10 47 9 83 0 0
8 92 7 235 10 43 9 96 0 0
7 238 7 235 9 190 9 103 0 0
8 66 7 235 9 218 9 67 0 0
8 32 7 234 9 202 9 64 0 0
8 19 7 235 9 231 9 62 0 0
8 43 7 235 10 14 9 66 0 0
7 224 7 235 9 179 9 73 0 0
7 192 7 234 9 145 9 44 0 0
7 225 7 234 9 235 9 32 0 0
8 12 7 234 10 22 9 24 0 0
7 181 7 233 9 235 9 25 0 0
8 70 7 235 9 241 9 17 0 0
8 139 7 236 10 54 9 28 0 0
7 254 7 235 9 236 9 48 0 0
7 175 7 240 9 242 9 74 0 0
8 47 7 239 10 36 9 72 0 0
8 63 7 244 9 230 9 67 0 0
8 58 7 245 9 240 9 66 0 0
8 42 7 248 9 242 9 86 0 0
7 244 7 247 9 198 9 90 0 0
8 7 7 247 9 248 9 89 0 0
7 245 7 247 9 228 9 93 0 0
7 208 7 249 9 149 9 91 0 0
8 103 7 249 10 65 9 99 0 0
8 39 7 250 9 253 9 104 0 0
7 219 7 250 9 227 9 109 0 0
7 235 7 249 9 244 9 109 0 0
7 236 7 250 10 0 9 149 0 0
7 220 7 250 9 237 9 150 0 0
7 216 7 250 9 213 9 145 0 0
7 130 7 249 9 221 9 145 0 0
7 175 7 249 10 16 9 138 0 0
7 243 7 248 9 241 9 112 0 0
8 5 7 248 9 234 9 108 0 0
7 240 7 248 9 208 9 109 0 0
7 182 7 245 9 252 9 46 0 0
8 5 7 245 10 2 9 33 0 0
8 38 7 245 9 187 9 40 0 0
8 101 7 246 10 25 9 55 0 0
7 243 7 246 10 68 9 87 0 0
8 11 7 246 9 200 9 80 0 0
7 208 7 246 9 236 9 78 0 0
7 226 7 246 10 35 9 80 0 0
8 31 7 248 9 246 9 156 0 0
7 224 7 248 9 196 9 169 0 0
7 171 7 247 9 223 9 165 0 0
7 100 7 247 10 27 9 147 0 0
8 13 7 246 10 9 9 130 0 0
7 233 7 246 9 206 9 102 0 0
7 165 7 246 9 225 9 94 0 0
7 171 7 245 10 28 9 96 0 0
8 51 7 245 9 236 9 104 0 0
8 30 7 245 9 215 9 109 0 0
7 153 7 244 9 193 9 78 0 0
8 12 7 244 10 49 9 80 0 0
8 74 7 244 9 249 9 84 0 0
8 15 7 244 9 194 9 81 0 0
7 212 7 244 10 24 9 77 0 0
8 70 7 244 10 25 9 77 0 0
8 46 7 244 9 135 9 79 0 0
7 175 7 244 9 232 9 76 0 0
8 142 7 244 10 62 9 75 0 0
7 239 7 244 9 127 9 77 0 0
8 25 7 244 10 38 9 75 0 0
8 41 7 244 10 17 9 72 0 0
8 0 7 246 10 11 9 81 0 0
8 26 7 246 9 253 9 74 0 0
8 58 7 246 10 6 9 63 0 0
8 76 7 246 9 250 9 60 0 0
7 243 7 249 10 47 9 87 0 0
8 87 7 249 10 36 9 82 0 0
8 76 7 250 10 31 9 87 0 0
8 28 7 250 9 213 9 95 0 0
7 244 7 248 9 218 9 93 0 0
8 13 7 247 9 253 9 84 0 0
8 18 7 248 9 215 9 70 0 0
8 8 7 248 9 176 9 61 0 0
8 9 7 248 9 206 9 60 0 0
8 23 7 252 10 11 9 60 0 0
8 24 7 252 9 244 9 51 0 0
7 255 7 252 9 178 9 42 0 0
8 102 7 253 10 23 9 38 0 0
7 217 8 1 9 229 9 64 0 0
7 233 8 1 10 28 9 48 0 0
8 47 8 2 9 241 9 41 0 0
8 34 8 2 9 177 9 33 0 0
8 109 8 8 9 247 9 76 0 0
8 119 8 9 9 253 9 92 0 0
8 90 8 9 9 227 9 103 0 0
8 62 8 9 9 242 9 107 0 0
8 117 8 15 10 20 9 116 0 0
8 116 8 15 10 9 9 120 0 0
8 49 8 16 9 243 9 118 0 0
7 236 8 15 9 217 9 114 0 0
8 76 8 22 9 231 9 133 0 0
8 76 8 22 9 231 9 133 0 0
8 64 8 22 9 241 9 132 0 0
8 52 8 22 9 227 9 129 0 0
8 55 8 22 9 246 9 125 0 0
8 16 8 22 10 16 9 123 0 0
8 18 8 24 9 249 9 138 0 0
8 22 8 24 10 4 9 139 0 0
8 9 8 24 9 210 9 138 0 0
8 45 8 24 10 1 9 137 0 0
8 97 8 28 9 251 9 132 0 0
8 105 8 28 9 242 9 132 0 0
8 99 8 28 9 236 9 134 0 0
8 106 8 28 9 233 9 139 0 0
8 10 8 27 9 237 9 150 0 0
8 19 8 27 9 232 9 144 0 0
8 49 8 26 9 240 9 138 0 0
8 47 8 26 9 230 9 136 0 0
8 66 8 27 9 248 9 140 0 0
8 47 8 27 9 252 9 140 0 0
8 41 8 27 9 251 9 137 0 0
8 42 8 27 9 243 9 135 0 0
8 40 8 27 9 236 9 135 0 0
8 38 8 27 9 233 9 137 0 0
8 41 8 26 9 237 9 137 0 0
8 38 8 27 9 247 9 139 0 0
8 38 8 27 9 250 9 138 0 0
8 43 8 26 9 244 9 143 0 0
8 45 8 25 9 248 9 142 0 0
8 44 8 26 9 241 9 141 0 0
8 39 8 26 9 248 9 141 0 0
8 41 8 25 9 245 9 141 0 0
8 21 8 25 9 237 9 145 0 0
8 21 8 24 9 238 9 147 0 0
8 23 8 24 9 240 9 146 0 0
8 24 8 24 9 240 9 148 0 0
8 25 8 22 9 244 9 148 0 0
8 22 8 22 9 247 9 146 0 0
8 23 8 22 9 245 9 144 0 0
8 31 8 21 9 241 9 141 0 0
8 41 8 21 9 253 9 142 0 0
8 29 8 21 9 241 9 145 0 0
8 31 8 24 9 241 9 149 0 0
8 26 8 24 9 239 9 150 0 0
8 26 8 24 9 233 9 150 0 0
8 28 8 23 9 239 9 149 0 0
8 26 8 22 9 246 9 154 0 0
8 29 8 22 9 233 9 153 0 0
8 31 8 22 9 240 9 152 0 0
8 31 8 22 9 246 9 153 0 0
8 33 8 22 9 236 9 152 0 0
8 27 8 21 9 243 9 161 0 0
8 27 8 21 9 246 9 158 0 0
8 26 8 21 9 242 9 156 0 0
8 26 8 21 9 247 9 156 0 0
8 25 8 21 9 251 9 157 0 0
8 29 8 20 9 241 9 151 0 0
8 29 8 20 9 243 9 152 0 0
8 28 8 20 9 244 9 151 0 0
8 29 8 20 9 242 9 151 0 0
8 27 8 20 9 238 9 150 0 0
8 26 8 19 9 241 9 150 0 0
8 27 8 19 9 243 9 151 0 0
8 25 8 19 9 240 9 150 0 0
8 30 8 19 9 244 9 151 0 0
8 26 8 19 9 245 9 150 0 0
8 25 8 19 9 247 9 149 0 0
8 27 8 19 9 247 9 149 0 0
8 30 8 18 9 247 9 153 0 0
8 29 8 18 9 243 9 152 0 0
8 27 8 18 9 237 9 151 0 0
8 25 8 18 9 240 9 151 0 0
8 31 8 17 9 243 9 150 0 0
8 32 8 17 9 242 9 151 0 0
8 27 8 18 9 240 9 150 0 0
8 26 8 17 9 241 9 150 0 0
8 26 8 17 9 244 9 151 0 0
8 29 8 17 9 241 9 154 0 0
8 33 8 17 9 243 9 146 0 0
8 50 8 17 9 233 9 145 0 0
8 76 8 17 9 218 9 142 0 0
8 93 8 17 9 207 9 136 0 0
8 37 8 18 9 251 9 155 0 0
8 37 8 18 9 249 9 156 0 0
8 33 8 18 9 240 9 157 0 0
8 37 8 18 9 243 9 159 0 0
8 39 8 18 9 243 9 135 0 0
8 47 8 18 9 244 9 135 0 0
8 52 8 19 9 240 9 134 0 0
8 51 8 19 9 245 9 133 0 0
8 56 8 19 9 231 9 118 0 0
8 59 8 20 9 228 9 114 0 0
8 76 8 20 9 234 9 112 0 0
8 81 8 20 9 225 9 110 0 0
8 37 8 24 9 240 9 105 0 0
8 52 8 24 9 245 9 101 0 0
8 42 8 24 10 12 9 99 0 0
8 28 8 24 9 230 9 96 0 0
8 28 8 24 10 1 9 91 0 0
8 109 8 31 9 236 9 180 0 0
8 93 8 31 9 244 9 189 0 0
8 11 8 31 9 186 9 191 0 0
7 236 8 31 9 251 9 186 0 0
7 227 8 30 9 240 9 181 0 0
7 252 8 31 9 230 9 178 0 0
8 3 8 31 10 0 9 173 0 0
8 74 8 31 10 22 9 173 0 0
8 74 8 32 9 227 9 176 0 0
8 86 8 33 9 238 9 181 0 0
8 85 8 33 10 17 9 186 0 0
8 50 8 33 9 242 9 191 0 0
8 28 8 34 10 37 9 196 0 0
8 128 8 35 10 9 9 177 0 0
7 255 8 35 9 216 9 168 0 0
8 4 8 35 10 10 9 149 0 0
8 34 8 35 9 232 9 137 0 0
7 231 8 37 9 228 9 206 0 0
8 97 8 38 9 194 9 206 0 0
8 112 8 38 10 39 9 213 0 0
8 26 8 38 10 36 9 213 0 0
8 89 8 37 9 240 9 249 0 0
7 211 8 37 9 246 9 249 0 0
7 207 8 37 9 221 9 245 0 0
7 255 8 36 10 26 9 237 0 0
8 69 8 37 9 185 9 230 0 0
8 81 8 31 9 218 9 225 0 0
8 99 8 31 9 226 9 211 0 0
8 3 8 31 9 224 9 223 0 0
7 120 8 30 10 3 9 223 0 0
7 140 8 29 10 44 9 212 0 0
7 172 8 24 10 7 9 185 0 0
8 52 8 25 10 7 9 177 0 0
8 118 8 25 9 248 9 180 0 0
8 49 8 25 9 242 9 192 0 0
7 186 8 20 10 38 9 202 0 0
7 207 8 20 10 7 9 183 0 0
8 17 8 20 9 209 9 171 0 0
8 38 8 20 9 185 9 170 0 0
7 165 8 16 10 25 9 237 0 0
7 183 8 15 10 44 9 232 0 0
7 223 8 15 9 222 9 220 0 0
7 205 8 15 9 163 9 216 0 0
7 180 8 9 9 189 9 199 0 0
7 239 8 9 10 15 9 187 0 0
8 56 8 9 10 78 9 183 0 0
8 59 8 9 9 201 9 185 0 0
8 67 8 9 10 8 9 183 0 0
8 62 8 9 9 239 9 192 0 0
8 99 8 9 9 245 9 187 0 0
8 63 8 9 9 250 9 182 0 0
8 97 8 10 9 255 9 185 0 0
8 78 8 10 9 234 9 192 0 0
8 3 8 10 9 219 9 238 0 0
8 47 8 10 10 45 9 238 0 0
7 248 8 10 9 226 9 237 0 0
7 114 8 9 10 24 9 232 0 0
8 105 8 7 10 22 9 189 0 0
7 224 8 7 9 245 9 206 0 0
7 182 8 6 9 234 9 214 0 0
8 36 8 8 10 17 10 2 0 0
8 52 8 8 9 199 9 251 0 0
8 6 8 8 9 249 9 240 0 0
7 175 8 7 9 225 9 235 0 0
8 154 8 12 9 184 9 250 0 0
8 80 8 11 9 235 10 9 0 0
7 235 8 12 9 226 10 20 0 0
7 208 8 12 10 53 10 18 0 0
7 131 8 7 10 28 9 238 0 0
7 195 8 6 9 166 9 218 0 0
8 69 8 7 10 12 9 198 0 0
7 252 8 6 9 246 9 200 0 0
8 37 8 7 10 7 9 246 0 0
7 233 8 7 10 111 9 238 0 0
8 106 8 7 9 146 9 231 0 0
8 141 8 8 9 205 9 225 0 0
8 151 8 11 9 173 10 13 0 0
8 129 8 11 9 224 10 30 0 0
8 65 8 11 10 35 10 40 0 0
7 205 8 11 9 250 10 41 0 0
8 25 8 10 9 159 9 249 0 0
8 189 8 10 10 1 9 247 0 0
8 63 8 11 9 226 9 251 0 0
8 10 8 11 9 253 9 252 0 0
7 232 8 8 10 30 10 8 0 0
8 42 8 8 10 78 10 16 0 0
8 27 8 8 9 235 10 23 0 0
7 176 8 8 9 246 10 27 0 0
8 73 8 7 9 202 9 246 0 0
7 179 8 6 10 47 9 251 0 0
7 133 8 5 10 30 9 242 0 0
7 179 8 4 9 243 9 225 0 0
7 154 8 0 10 70 9 218 0 0
7 233 8 0 10 44 10 14 0 0
7 236 8 0 9 235 10 6 0 0
7 237 8 0 9 231 10 3 0 0
8 23 8 0 9 225 9 255 0 0
7 186 8 0 9 222 10 1 0 0
7 170 7 248 9 195 9 219 0 0
7 167 7 248 10 54 9 219 0 0
7 150 7 247 10 14 9 210 0 0
7 96 7 247 9 254 9 196 0 0
7 252 7 238 9 223 9 125 0 0
8 8 7 239 9 245 9 137 0 0
7 200 7 239 9 240 9 147 0 0
7 187 7 238 9 251 9 151 0 0
7 210 7 233 10 8 9 131 0 0
7 229 7 233 9 230 9 128 0 0
7 208 7 233 9 235 9 121 0 0
7 218 7 233 10 2 9 114 0 0
7 219 7 233 10 18 9 153 0 0
8 21 7 233 9 237 9 153 0 0
8 27 7 233 9 255 9 160 0 0
8 21 7 234 9 250 9 166 0 0
8 90 7 236 9 247 9 186 0 0
8 90 7 236 10 1 9 191 0 0
8 81 7 236 9 232 9 196 0 0
8 72 7 237 9 225 9 200 0 0
8 72 7 237 9 240 9 204 0 0
8 20 7 237 9 218 9 186 0 0
8 24 7 237 10 0 9 186 0 0
7 249 7 236 9 254 9 189 0 0
7 235 7 237 10 6 9 195 0 0
7 175 7 236 9 222 9 200 0 0
7 254 7 234 9 243 9 162 0 0
8 6 7 234 9 255 9 166 0 0
7 252 7 234 9 246 9 167 0 0
7 232 7 234 9 221 9 166 0 0
7 219 7 230 9 243 9 142 0 0
7 236 7 230 10 7 9 143 0 0
7 236 7 231 9 232 9 142 0 0
7 236 7 230 9 225 9 144 0 0
7 240 7 231 9 239 9 138 0 0
7 238 7 231 9 229 9 139 0 0
7 252 7 231 9 237 9 140 0 0
7 250 7 231 9 251 9 140 0 0
8 8 7 231 9 245 9 134 0 0
8 11 7 231 9 244 9 135 0 0
8 2 7 231 9 251 9 139 0 0
8 4 7 235 10 2 9 140 0 0
7 254 7 235 9 251 9 105 0 0
8 5 7 235 9 249 9 111 0 0
8 21 7 235 10 1 9 117 0 0
8 21 7 235 9 250 9 120 0 0
8 24 7 236 9 244 9 126 0 0
8 17 7 238 9 237 9 136 0 0
7 246 7 237 9 239 9 137 0 0
7 233 7 237 9 236 9 138 0 0
7 243 7 237 9 250 9 139 0 0
7 208 7 233 9 245 9 148 0 0
7 208 7 234 9 247 9 150 0 0
7 212 7 233 9 247 9 152 0 0
7 212 7 233 9 249 9 154 0 0
7 253 7 234 9 240 9 146 0 0
8 4 7 234 9 242 9 145 0 0
8 9 7 234 9 245 9 146 0 0
8 10 7 234 9 242 9 145 0 0
8 36 7 238 9 245 9 159 0 0
8 43 7 238 9 248 9 160 0 0
8 42 7 239 9 254 9 160 0 0
8 40 7 239 9 248 9 162 0 0
8 4 7 239 9 243 9 171 0 0
8 10 7 238 9 242 9 171 0 0
8 18 7 239 9 234 9 173 0 0
8 23 7 238 9 240 9 176 0 0
8 27 7 239 9 239 9 179 0 0
7 251 7 238 9 239 9 149 0 0
7 254 7 237 9 239 9 146 0 0
8 0 7 237 9 244 9 147 0 0
7 254 7 237 9 238 9 145 0 0
8 0 7 238 9 243 9 146 0 0
8 6 7 239 9 245 9 145 0 0
8 7 7 239 9 249 9 144 0 0
8 6 7 239 9 243 9 147 0 0
8 5 7 239 9 244 9 148 0 0
8 7 7 240 9 238 9 145 0 0
8 7 7 240 9 243 9 145 0 0
8 5 7 240 9 243 9 144 0 0
8 5 7 240 9 240 9 145 0 0
8 2 7 241 9 246 9 146 0 0
8 6 7 241 9 243 9 145 0 0
8 7 7 241 9 237 9 146 0 0
8 5 7 241 9 241 9 146 0 0
8 10 7 246 9 247 9 148 0 0
8 8 7 246 9 247 9 149 0 0
8 8 7 246 9 242 9 151 0 0
8 8 7 247 9 240 9 150 0 0
8 5 7 246 9 246 9 148 0 0
8 4 7 247 9 245 9 148 0 0
8 7 7 247 9 240 9 149 0 0
8 6 7 246 9 244 9 150 0 0
8 6 7 246 9 238 9 150 0 0
8 6 7 247 9 245 9 150 0 0
8 6 7 247 9 245 9 151 0 0
8 8 7 247 9 246 9 150 0 0
8 7 7 247 9 240 9 150 0 0
8 8 7 247 9 247 9 151 0 0
8 8 7 247 9 242 9 152 0 0
8 9 7 247 9 247 9 152 0 0
8 3 7 247 9 245 9 151 0 0
8 9 7 247 9 241 9 156 0 0
8 10 7 247 9 242 9 154 0 0
8 7 7 247 9 243 9 154 0 0
8 11 7 247 9 244 9 153 0 0
8 6 7 247 9 243 9 151 0 0
8 7 7 247 9 243 9 150 0 0
8 6 7 248 9 245 9 149 0 0
8 5 7 247 9 244 9 152 0 0
8 7 7 248 9 246 9 153 0 0
8 8 7 248 9 243 9 154 0 0
8 9 7 247 9 243 9 154 0 0
8 6 7 248 9 243 9 151 0 0
8 7 7 247 9 245 9 153 0 0
8 7 7 247 9 238 9 150 0 0
8 9 7 248 9 235 9 150 0 0
8 5 7 247 9 242 9 150 0 0
8 6 7 248 9 238 9 150 0 0
8 8 7 248 9 240 9 150 0 0
8 4 7 248 9 243 9 150 0 0
8 5 7 248 9 239 9 149 0 0
8 3 7 248 9 239 9 149 0 0
8 9 7 248 9 239 9 150 0 0
8 7 7 248 9 241 9 151 0 0
8 7 7 248 9 240 9 150 0 0
8 4 7 248 9 237 9 150 0 0
8 5 7 248 9 242 9 151 0 0
8 3 7 248 9 246 9 149 0 0
8 5 7 248 9 242 9 150 0 0
8 4 7 248 9 243 9 151 0 0
8 6 7 248 9 238 9 150 0 0
8 7 7 248 9 238 9 152 0 0
8 4 7 248 9 237 9 151 0 0
8 7 7 248 9 240 9 153 0 0
8 7 7 248 9 240 9 152 0 0
8 5 7 248 9 245 9 149 0 0
8 5 7 248 9 236 9 150 0 0
8 9 7 248 9 244 9 151 0 0
8 7 7 248 9 244 9 152 0 0
8 6 7 248 9 247 9 152 0 0
8 6 7 243 9 247 9 147 0 0
8 3 7 243 9 245 9 147 0 0
8 7 7 243 9 238 9 146 0 0
8 5 7 243 9 239 9 145 0 0
8 7 7 243 9 246 9 146 0 0
8 7 7 244 9 244 9 145 0 0
8 4 7 244 9 243 9 145 0 0
8 5 7 244 9 243 9 146 0 0
8 5 7 244 9 241 9 146 0 0
8 7 7 244 9 243 9 147 0 0
8 6 7 244 9 248 9 146 0 0
8 6 7 244 9 243 9 146 0 0
8 6 7 245 9 244 9 146 0 0
8 5 7 245 9 244 9 142 0 0
8 5 7 245 9 241 9 143 0 0
8 6 7 245 9 246 9 144 0 0
8 6 7 245 9 244 9 142 0 0
8 8 7 245 9 244 9 146 0 0
8 6 7 245 9 240 9 144 0 0
8 6 7 245 9 242 9 143 0 0
8 7 7 245 9 244 9 146 0 0
8 4 7 246 9 236 9 145 0 0
8 7 7 245 9 237 9 145 0 0
8 3 7 245 9 245 9 145 0 0
8 5 7 245 9 244 9 145 0 0
8 7 7 245 9 240 9 146 0 0
8 7 7 246 9 241 9 145 0 0
8 8 7 246 9 241 9 143 0 0
8 7 7 246 9 238 9 144 0 0
8 5 7 246 9 241 9 143 0 0
8 7 7 246 9 243 9 142 0 0
8 8 7 246 9 238 9 143 0 0
8 5 7 246 9 238 9 145 0 0
8 5 7 246 9 242 9 146 0 0
8 3 7 246 9 241 9 146 0 0
8 1 7 246 9 244 9 144 0 0
8 4 7 247 9 243 9 143 0 0
8 7 7 246 9 241 9 145 0 0
8 5 7 247 9 245 9 145 0 0
8 6 7 247 9 240 9 145 0 0
8 6 7 247 9 241 9 144 0 0
8 4 7 247 9 245 9 145 0 0
8 6 7 247 9 243 9 144 0 0
8 8 7 246 9 244 9 143 0 0
8 4 7 246 9 239 9 142 0 0
8 5 7 247 9 238 9 144 0 0
8 11 7 247 9 238 9 145 0 0
8 5 7 247 9 240 9 146 0 0
8 4 7 247 9 243 9 146 0 0
8 5 7 247 9 244 9 146 0 0
8 6 7 247 9 245 9 146 0 0
8 5 7 247 9 244 9 146 0 0
8 7 7 247 9 242 9 144 0 0
8 6 7 247 9 240 9 144 0 0
8 8 7 247 9 244 9 147 0 0
8 2 7 247 9 247 9 145 0 0
8 4 7 247 9 238 9 145 0 0
8 7 7 247 9 238 9 147 0 0
8 5 7 247 9 245 9 146 0 0
8 6 7 247 9 242 9 146 0 0
8 6 7 248 9 243 9 147 0 0
8 9 7 247 9 243 9 147 0 0
8 5 7 247 9 242 9 147 0 0
8 7 7 252 9 243 9 152 0 0
8 4 7 252 9 247 9 151 0 0
8 5 7 252 9 241 9 148 0 0
8 6 7 251 9 240 9 148 0 0
8 9 7 252 9 239 9 152 0 0
8 4 7 251 9 244 9 154 0 0
8 6 7 251 9 241 9 152 0 0
8 5 7 251 9 243 9 151 0 0
8 7 7 251 9 242 9 151 0 0