6 128 6 95 8 13 6 180 237 191
6 131 6 96 8 13 6 170 237 193
6 128 6 95 8 17 6 173 237 194
6 125 6 96 8 0 6 176 237 195
6 129 6 96 7 247 6 184 237 196
6 126 6 96 8 17 6 175 237 197
6 120 6 96 8 23 6 175 237 198
6 121 6 96 8 15 6 165 237 200
6 123 6 96 8 25 6 177 237 201
6 130 6 96 8 12 6 182 237 202
6 126 6 96 8 5 6 180 237 203
6 128 6 96 8 18 6 164 237 204
6 124 6 96 8 19 6 174 237 205
6 125 6 96 8 8 6 169 237 206
6 126 6 96 8 14 6 172 237 207
6 128 6 96 8 26 6 170 237 208
6 128 6 96 8 20 6 178 237 209
6 127 6 96 8 35 6 172 237 210
6 131 6 96 8 10 6 175 237 211
6 125 6 96 8 20 6 176 237 212
6 131 6 96 8 18 6 167 237 214
6 133 6 96 8 14 6 159 237 215
6 129 6 96 8 25 6 163 237 216
6 126 6 96 8 22 6 174 237 217
6 128 6 96 8 18 6 194 237 218
6 129 6 96 8 24 6 183 237 223
6 126 6 95 8 12 6 170 237 224
6 124 6 96 8 10 6 171 237 225
6 122 6 95 8 10 6 173 237 226
6 124 6 96 8 14 6 185 237 227
6 126 6 96 8 18 6 178 237 229
6 131 6 96 8 16 6 188 237 230
6 132 6 96 8 7 6 169 237 232
6 133 6 96 8 3 6 163 237 232
6 126 6 96 8 15 6 166 237 234
6 138 6 96 8 14 6 174 237 235
6 131 6 95 8 12 6 188 237 236
6 126 6 96 8 17 6 168 237 237
6 118 6 96 8 20 6 167 237 238
6 137 6 96 8 8 6 168 237 239
6 123 6 96 8 18 6 176 237 240
6 125 6 96 8 19 6 184 237 241
6 129 6 95 8 13 6 182 237 242
6 129 6 96 8 16 6 175 237 243
6 128 6 96 8 7 6 171 237 244
6 126 6 96 8 23 6 166 237 245
6 127 6 96 8 15 6 164 237 246
6 127 6 96 8 8 6 171 237 248
6 122 6 96 8 16 6 167 237 249
6 126 6 96 8 21 6 177 237 250
6 128 6 96 8 20 6 165 237 251
6 122 6 96 8 39 6 167 237 252
6 127 6 97 7 254 6 180 237 253
6 127 6 95 8 22 6 169 237 254
6 130 6 96 8 14 6 183 237 255
6 132 6 96 8 18 6 175 238 1
6 127 6 96 8 17 6 173 238 2
6 133 6 96 8 11 6 176 238 3
6 132 6 96 8 8 6 187 238 4
6 131 6 96 8 16 6 175 238 5
6 126 6 96 8 1 6 183 238 6
6 129 6 96 8 16 6 188 238 8
6 122 6 96 8 8 6 179 238 9
6 129 6 96 8 24 6 187 238 10
6 125 6 96 8 23 6 171 238 11
6 124 6 96 8 25 6 175 238 12
6 128 6 96 8 20 6 171 238 13
6 130 6 96 8 45 6 174 238 14
6 128 6 96 8 14 6 171 238 15
6 126 6 96 8 14 6 171 238 16
6 129 6 96 8 13 6 164 238 17
6 120 6 96 8 13 6 161 238 18
6 126 6 96 8 21 6 170 238 20
6 125 6 96 7 254 6 191 238 21
6 123 6 96 7 253 6 186 238 22
6 132 6 96 7 254 6 171 238 23
6 132 6 96 7 251 6 167 238 24
6 128 6 96 8 12 6 164 238 25
6 130 6 96 8 8 6 169 238 26
6 130 6 96 8 14 6 168 238 27
6 132 6 96 8 4 6 173 238 28
6 134 6 96 8 13 6 165 238 29
6 127 6 96 8 31 6 152 238 30
6 133 6 96 8 14 6 168 238 31
6 124 6 96 8 23 6 154 238 32
6 127 6 96 8 10 6 161 238 33
6 128 6 96 8 21 6 157 238 34
6 128 6 96 8 6 6 161 238 35
6 126 6 96 8 14 6 153 238 36
6 128 6 96 8 17 6 182 238 44
6 121 6 96 8 13 6 170 238 45
6 125 6 96 8 19 6 158 238 46
6 127 6 96 8 14 6 148 238 47
6 123 6 97 8 23 6 166 238 48
6 124 6 96 8 21 6 173 238 50
6 116 6 96 8 24 6 173 238 51
6 122 6 96 8 4 6 174 238 51
6 115 6 96 8 16 6 177 238 53
6 131 6 96 8 12 6 176 238 54
6 126 6 96 8 19 6 164 238 55
6 126 6 96 8 21 6 154 238 56
6 126 6 96 8 20 6 152 238 57
6 129 6 96 8 19 6 166 238 58
6 128 6 96 8 17 6 181 238 59
6 125 6 95 8 18 6 180 238 60
6 116 6 96 8 13 6 166 238 61
6 117 6 96 8 20 6 153 238 62
6 120 6 96 8 11 6 138 238 63
6 135 6 96 8 2 6 138 238 64
6 132 6 96 8 22 6 143 238 64
6 121 6 96 8 23 6 157 238 65
6 123 6 96 8 8 6 153 238 66
6 126 6 96 8 8 6 151 238 67
6 120 6 96 8 14 6 155 238 68
6 125 6 96 8 21 6 156 238 69
6 126 6 96 8 21 6 147 238 70
6 124 6 96 8 16 6 152 238 71
6 127 6 97 8 17 6 150 238 72
6 129 6 97 8 12 6 147 238 73
6 132 6 96 8 22 6 153 238 74
6 127 6 96 8 17 6 166 238 75
6 124 6 96 8 25 6 172 238 76
6 122 6 96 8 5 6 169 238 77
6 132 6 96 8 22 6 173 238 78
6 133 6 96 8 9 6 170 238 79
6 123 6 96 8 17 6 161 238 80
6 127 6 96 8 10 6 158 238 81
6 119 6 96 8 13 6 152 238 82
6 115 6 95 7 13 6 157 238 83
6 106 6 96 7 252 6 148 238 85
6 80 6 95 8 12 6 151 238 86
6 94 6 96 8 27 6 156 238 87
6 112 6 95 8 48 6 145 238 88
6 151 6 96 8 6 6 153 238 89
6 152 6 96 8 2 6 149 238 90
6 151 6 96 7 249 6 135 238 91
6 143 6 96 8 26 6 137 238 92
6 142 6 96 8 20 6 152 238 93
6 133 6 96 8 16 6 155 238 94
6 130 6 96 7 245 6 171 238 95
6 120 6 96 8 9 6 190 238 97
6 117 6 96 8 8 6 167 238 98
6 118 6 96 8 11 6 167 238 99
6 116 6 96 8 14 6 147 238 100
6 127 6 96 8 3 6 175 238 101
6 133 6 96 8 16 6 195 238 102
6 130 6 96 8 12 6 185 238 103
6 141 6 96 8 7 6 167 238 105
6 126 6 96 8 1 6 180 238 106
6 128 6 96 7 244 6 192 238 107
6 126 6 96 8 1 6 187 238 108
6 127 6 96 8 38 6 191 238 109
6 134 6 95 8 13 6 181 238 110
6 133 6 96 8 18 6 168 238 112
6 123 6 96 8 12 6 160 238 113
6 122 6 96 8 31 6 174 238 114
6 128 6 96 7 252 6 192 238 115
6 130 6 96 8 18 6 190 238 116
6 133 6 96 7 242 6 161 238 117
6 124 6 96 8 14 6 170 238 118
6 130 6 97 8 14 6 188 238 119
6 110 6 96 8 15 6 183 238 121
6 127 6 96 8 18 6 176 238 122
6 126 6 96 7 252 6 158 238 123
6 126 6 96 8 39 6 151 238 124
6 125 6 96 8 22 6 156 238 125
6 124 6 96 8 30 6 168 238 126
6 120 6 95 8 13 6 189 238 127
6 121 6 95 8 11 6 191 238 128
6 133 6 96 8 22 6 164 238 129
6 112 6 96 8 18 6 176 238 131
6 124 6 96 8 33 6 165 238 132
6 128 6 96 8 12 6 151 238 133
6 127 6 96 7 239 6 158 238 134
6 122 6 96 8 18 6 173 238 135
6 123 6 96 8 30 6 181 238 136
6 122 6 96 8 10 6 192 238 137
6 116 6 96 8 19 6 182 238 138
6 126 6 96 8 16 6 170 238 139
6 130 6 96 8 8 6 192 238 141
6 143 6 96 8 8 6 195 238 142
6 125 6 96 8 8 6 187 238 143
6 129 6 95 7 253 6 167 238 144
6 125 6 96 8 4 6 183 238 145
6 130 6 96 7 236 6 190 238 146
6 127 6 96 8 32 6 177 238 147
6 121 6 96 8 7 6 182 238 148
6 123 6 96 8 11 6 188 238 149
6 128 6 96 8 8 6 183 238 151
6 132 6 96 8 19 6 185 238 152
6 121 6 96 8 9 6 182 238 153
6 122 6 96 8 34 6 179 238 154
6 127 6 96 8 9 6 169 238 155
6 126 6 96 8 12 6 158 238 156
6 134 6 95 8 5 6 151 238 157
6 130 6 96 8 10 6 176 238 158
6 133 6 95 8 8 6 189 238 159
6 124 6 96 8 21 6 166 238 161
6 120 6 96 8 27 6 174 238 162
6 124 6 96 8 8 6 182 238 163
6 127 6 97 7 244 6 185 238 164
6 128 6 96 8 13 6 184 238 165
6 126 6 96 8 14 6 169 238 166
6 113 6 96 8 24 6 185 238 168
6 134 6 96 8 19 6 203 238 169
6 128 6 96 7 248 6 186 238 170
6 132 6 96 8 16 6 170 238 171
6 126 6 96 8 16 6 180 238 172
6 133 6 96 8 13 6 201 238 173
6 130 6 96 8 15 6 167 238 175
6 113 6 96 8 25 6 162 238 176
6 131 6 96 8 19 6 168 238 177
6 132 6 96 8 28 6 178 238 178
6 123 6 96 7 255 6 199 238 179
6 129 6 95 7 245 6 198 238 180
6 129 6 96 8 18 6 193 238 181
6 133 6 96 8 11 6 205 238 182
6 126 6 96 8 28 6 198 238 183
6 129 6 96 8 43 6 171 238 184
6 129 6 96 8 32 6 176 238 185
6 129 6 96 8 21 6 188 238 186
6 134 6 96 8 19 6 179 238 187
6 124 6 96 8 29 6 174 238 188
6 117 6 97 8 23 6 192 238 189
6 121 6 96 8 27 6 184 238 190
6 124 6 96 8 14 6 181 238 191
6 127 6 96 8 9 6 185 238 192
6 125 6 96 8 24 6 190 238 193
6 130 6 96 8 16 6 190 238 193
6 125 6 96 8 12 6 193 238 195
6 117 6 96 8 21 6 173 238 196
6 113 6 96 8 16 6 173 238 197
6 141 6 96 8 8 6 191 238 198
6 144 6 96 8 9 6 178 238 199
6 131 6 96 8 16 6 165 238 200
6 127 6 96 8 10 6 185 238 201
6 126 6 96 8 17 6 208 238 202
6 119 6 96 8 10 6 170 238 204
6 124 6 96 8 14 6 175 238 205
6 114 6 96 8 23 6 160 238 206
6 126 6 96 8 7 6 155 238 207
6 125 6 96 8 17 6 162 238 208
6 124 6 96 7 252 6 178 238 209
6 126 6 96 8 32 6 182 238 210
6 126 6 96 8 42 6 178 238 211
6 125 6 96 8 41 6 189 238 212
6 129 6 96 8 41 6 190 238 213
6 125 6 96 8 19 6 194 238 214
6 118 6 96 8 13 6 170 238 215
6 124 6 96 8 11 6 179 238 216
6 112 6 96 8 23 6 176 238 217
6 131 6 96 8 15 6 165 238 218
6 123 6 96 8 15 6 169 238 219
6 128 6 96 8 21 6 174 238 220
6 125 6 96 8 12 6 177 238 221
6 125 6 96 8 18 6 182 238 222
6 127 6 96 8 43 6 184 238 223
6 126 6 96 8 45 6 180 238 224
6 130 6 96 8 30 6 173 238 225
6 124 6 96 8 12 6 189 238 226
6 133 6 96 8 12 6 164 238 228
6 133 6 96 8 1 6 182 238 229
6 128 6 96 7 253 6 197 238 230
6 127 6 96 8 27 6 184 238 231
6 125 6 96 8 39 6 167 238 232
6 124 6 96 8 15 6 170 238 233
6 126 6 96 7 246 6 162 238 234
6 132 6 96 8 2 6 158 238 235
6 126 6 96 8 9 6 158 238 236
6 125 6 96 8 4 6 166 238 236
6 136 6 96 8 22 6 166 238 237
6 115 6 96 8 23 6 161 238 238
6 121 6 96 8 23 6 180 238 239
6 126 6 96 8 20 6 182 238 240
6 122 6 96 8 5 6 177 238 241
6 122 6 96 8 5 6 188 238 242
6 121 6 96 8 15 6 190 238 243
6 120 6 96 8 21 6 168 238 244
6 131 6 96 8 14 6 166 238 245
6 125 6 96 8 23 6 178 238 246
6 131 6 96 8 9 6 177 238 247
6 130 6 96 8 2 6 176 238 248
6 121 6 96 8 14 6 163 238 249
6 122 6 96 8 20 6 161 238 250
6 123 6 96 8 21 6 176 238 251
6 126 6 95 8 12 6 195 238 252
6 123 6 96 8 17 6 184 238 253
6 130 6 96 7 245 6 171 238 254
6 124 6 96 8 17 6 182 238 255
6 126 6 96 8 28 6 180 239 0
6 131 6 96 8 10 6 169 239 1
6 132 6 96 8 4 6 177 239 2
6 129 6 96 8 7 6 200 239 3
6 129 6 96 8 5 6 208 239 4
6 131 6 96 8 21 6 199 239 5
6 123 6 96 8 13 6 175 239 6
6 130 6 96 8 23 6 163 239 7
6 127 6 96 8 17 6 166 239 8
6 126 6 96 8 24 6 180 239 9
6 127 6 96 8 47 6 169 239 10
6 124 6 96 8 13 6 184 239 11
6 130 6 96 8 47 6 186 239 12
6 130 6 96 8 33 6 173 239 13
6 120 6 96 8 13 6 175 239 14
6 127 6 96 8 34 6 183 239 15
6 136 6 96 8 8 6 183 239 15
6 119 6 96 8 8 6 186 239 16
6 125 6 96 8 8 6 197 239 17
6 127 6 96 8 12 6 187 239 18
6 127 6 95 8 14 6 190 239 19
6 124 6 96 7 254 6 199 239 20
6 129 6 96 8 10 6 208 239 21
6 129 6 96 8 16 6 208 239 21
6 119 6 96 8 16 6 202 239 22
6 126 6 96 7 250 6 189 239 23
6 126 6 96 8 37 6 186 239 24
6 121 6 96 8 33 6 179 239 25
6 127 6 96 8 11 6 195 239 26
6 110 6 96 8 9 6 195 239 26
6 116 6 96 8 15 6 180 239 28
6 125 6 96 8 9 6 206 239 30
6 121 6 96 8 14 6 223 239 31
6 122 6 95 8 14 6 219 239 32
6 117 6 96 8 25 6 191 239 34
6 141 6 96 8 9 6 181 239 35
6 126 6 96 8 15 6 184 239 36
6 127 6 96 8 13 6 183 239 37
6 125 6 96 8 0 6 194 239 38
6 128 6 96 8 24 6 187 239 39
6 127 6 96 8 16 6 170 239 40
6 136 6 97 7 254 6 183 239 41
6 111 6 95 8 10 6 182 239 42
6 130 6 96 8 16 6 179 239 43
6 125 6 96 8 48 6 194 239 44
6 128 6 96 8 29 6 204 239 45
6 129 6 96 8 14 6 196 239 46
6 129 6 96 8 4 6 182 239 47
6 129 6 96 8 6 6 168 239 48
6 129 6 96 8 29 6 161 239 49
6 124 6 96 8 24 6 168 239 50
6 125 6 96 8 27 6 191 239 51
6 126 6 96 8 12 6 195 239 52
6 128 6 96 8 36 6 173 239 53
6 124 6 96 7 251 6 168 239 54
6 126 6 96 8 11 6 187 239 55
6 132 6 96 8 33 6 200 239 56
6 122 6 96 7 253 6 184 239 57
6 125 6 96 8 18 6 192 239 58
6 126 6 96 8 48 6 188 239 59
6 131 6 96 8 5 6 177 239 60
6 133 6 96 7 240 6 178 239 61
6 132 6 96 7 241 6 184 239 62
6 125 6 96 8 39 6 200 239 63
6 126 6 96 8 21 6 203 239 64
6 125 6 96 8 32 6 194 239 65
6 125 6 96 8 33 6 193 239 66
6 130 6 96 8 13 6 203 239 67
6 123 6 96 8 29 6 180 239 68
6 127 6 96 8 10 6 175 239 69
6 122 6 96 8 37 6 190 239 70
6 123 6 96 8 38 6 193 239 71
6 123 6 96 7 247 6 175 239 72
6 123 6 96 8 28 6 179 239 73
6 122 6 96 8 24 6 194 239 74
6 121 6 96 8 23 6 193 239 75
6 123 6 96 8 4 6 194 239 76
6 116 6 95 8 11 6 186 239 77
6 125 6 96 8 8 6 186 239 77
6 107 6 96 8 21 6 179 239 78
6 118 6 96 8 13 6 198 239 79
6 119 6 96 8 13 6 194 239 80
6 115 6 96 8 20 6 194 239 81
6 120 6 96 8 17 6 203 239 82
6 125 6 96 7 246 6 191 239 83
6 119 6 97 8 10 6 186 239 84
6 121 6 96 8 39 6 204 239 85
6 117 6 96 7 232 6 199 239 86
6 119 6 96 8 6 6 202 239 87
6 124 6 96 8 14 6 205 239 88
6 124 6 95 7 249 6 206 239 89
6 125 6 96 8 7 6 214 239 90
6 121 6 96 8 0 6 224 239 91
6 120 6 96 8 5 6 212 239 92
6 114 6 97 8 16 6 193 239 93
6 123 6 96 8 25 6 187 239 94
6 135 6 96 8 26 6 205 239 95
6 136 6 96 8 10 6 195 239 96
6 138 6 96 8 5 6 195 239 96
6 140 6 96 8 12 6 199 239 98
6 123 6 96 8 28 6 192 239 99
6 120 6 96 8 4 6 198 239 100
6 92 6 95 7 208 6 223 239 101
6 68 6 96 7 245 6 234 239 102
6 89 6 96 8 33 6 225 239 103
6 91 6 96 8 44 6 203 239 104
6 102 6 96 8 28 6 192 239 105
6 116 6 96 8 14 6 192 239 105
6 124 6 96 8 13 6 204 239 106
6 125 6 96 7 252 6 220 239 107
6 75 6 95 8 4 6 215 239 108
6 75 6 96 8 4 6 220 239 109
6 90 6 96 8 15 6 222 239 110
6 99 6 95 8 21 6 216 239 111
6 99 6 95 8 17 6 202 239 112
6 117 6 96 8 10 6 203 239 113
6 119 6 95 8 25 6 203 239 113
6 109 6 96 8 25 6 201 239 114
6 98 6 96 8 7 6 217 239 115
6 98 6 96 8 0 6 224 239 116
6 95 6 96 8 16 6 214 239 117
6 96 6 95 8 17 6 214 239 117
6 79 6 95 8 15 6 199 239 118
6 71 6 95 8 15 6 202 239 119
6 78 6 95 8 8 6 200 239 120
6 93 6 95 8 17 6 201 239 121
6 93 6 95 8 50 6 199 239 122
6 85 6 95 8 37 6 195 239 123
6 106 6 95 8 7 6 195 239 123
6 86 6 95 8 7 6 204 239 124
6 102 6 95 8 15 6 194 239 125
6 94 6 95 7 253 6 205 239 126
6 84 6 95 8 33 6 219 239 127
6 84 6 95 8 55 6 237 239 128
6 74 6 95 8 6 6 223 239 129
6 56 6 95 8 15 6 217 239 130
6 44 6 95 8 45 6 204 239 131
6 53 6 95 7 255 6 189 239 132
6 61 6 95 8 18 6 183 239 133
6 69 6 95 8 7 6 188 239 134
6 83 6 95 8 27 6 210 239 135
6 83 6 95 8 22 6 202 239 136
6 57 6 95 8 16 6 185 239 137
6 49 6 95 8 7 6 201 239 138
6 39 6 94 7 253 6 209 239 139
6 67 6 94 8 9 6 198 239 140
6 64 6 94 8 17 6 207 239 141
6 55 6 94 8 14 6 212 239 142
6 62 6 94 8 33 6 192 239 143
6 69 6 94 8 10 6 179 239 144
6 38 6 94 8 10 6 171 239 145
6 65 6 93 8 28 6 162 239 146
6 45 6 94 7 246 6 157 239 147
6 44 6 93 7 249 6 168 239 148
6 34 6 93 7 249 6 191 239 149
6 36 6 94 8 11 6 183 239 150
6 48 6 93 8 22 6 163 239 151
6 39 6 93 8 14 6 168 239 152
6 34 6 93 7 244 6 162 239 153
6 36 6 93 8 55 6 168 239 154
6 49 6 93 8 42 6 171 239 155
6 45 6 93 8 52 6 154 239 156
6 47 6 93 7 226 6 138 239 157
6 47 6 93 8 34 6 135 239 158
6 47 6 93 8 25 6 143 239 159
6 53 6 93 8 6 6 163 239 160
6 45 6 93 7 239 6 164 239 161
6 41 6 93 7 239 6 164 239 161
6 88 6 92 8 74 6 133 239 162
6 75 6 92 8 29 6 119 239 163
6 81 6 92 7 244 6 133 239 164
6 88 6 92 7 244 6 123 239 165
6 81 6 93 8 3 6 128 239 166
6 62 6 93 8 19 6 126 239 167
6 75 6 93 8 1 6 115 239 168
6 85 6 92 8 3 6 121 239 169
6 89 6 92 8 3 6 112 239 170
6 95 6 93 8 32 6 106 239 171
6 91 6 92 8 54 6 105 239 172
6 98 6 92 8 14 6 96 239 173
6 108 6 92 7 214 6 119 239 174
6 120 6 92 8 4 6 125 239 175
6 104 6 92 7 249 6 132 239 176
6 104 6 92 7 247 6 121 239 177
6 98 6 92 7 217 6 128 239 178
6 100 6 92 8 36 6 126 239 179
6 118 6 92 8 83 6 133 239 180
6 100 6 92 8 27 6 126 239 181
6 88 6 92 7 226 6 137 239 182
6 71 6 92 7 237 6 119 239 183
6 97 6 92 7 229 6 129 239 184
6 99 6 92 8 36 6 137 239 185
6 98 6 92 8 22 6 134 239 186
6 116 6 92 8 16 6 141 239 187
6 92 6 92 7 232 6 127 239 188
6 96 6 92 7 232 6 116 239 189
6 124 6 92 8 33 6 130 239 190
6 108 6 92 8 76 6 134 239 191
6 117 6 92 8 26 6 125 239 192
6 116 6 92 8 6 6 139 239 193
6 107 6 92 7 246 6 158 239 194
6 104 6 92 8 4 6 153 239 195
6 101 6 92 8 23 6 132 239 196
6 90 6 92 8 13 6 141 239 197
6 101 6 92 7 227 6 154 239 198
6 115 6 92 8 82 6 157 239 199
6 102 6 92 8 23 6 168 239 200
6 89 6 92 7 242 6 153 239 201
6 94 6 92 8 76 6 150 239 202
6 94 6 92 8 83 6 156 239 203
6 105 6 91 7 255 6 156 239 204
6 96 6 91 7 220 6 156 239 204
6 94 6 91 7 1 6 161 239 205
6 87 6 91 8 1 6 166 239 206
6 89 6 91 8 38 6 152 239 207
6 89 6 92 7 219 6 160 239 208
6 93 6 91 8 21 6 154 239 209
6 84 6 91 7 237 6 162 239 210
6 103 6 91 8 48 6 169 239 211
6 88 6 91 7 232 6 169 239 211
6 84 6 91 8 42 6 168 239 212
6 96 6 92 7 253 6 167 239 213
6 85 6 91 8 15 6 150 239 214
6 90 6 91 8 15 6 151 239 215
6 77 6 91 8 40 6 171 239 216
6 120 6 92 8 14 6 163 239 217
6 120 6 91 8 85 6 155 239 218
6 108 6 91 8 13 6 150 239 219
6 122 6 91 7 208 6 166 239 220
6 136 6 91 7 247 6 192 239 221
6 88 6 91 7 229 6 206 239 222
6 71 6 91 7 248 6 194 239 223
6 36 6 91 7 251 6 171 239 224
6 61 6 91 8 87 6 159 239 225
6 47 6 91 8 35 6 162 239 226
6 62 6 91 7 207 6 148 239 227
6 35 6 91 7 246 6 149 239 228
6 49 6 91 8 38 6 165 239 229
6 88 6 90 8 11 6 158 239 230
6 91 6 91 8 85 6 139 239 231
6 73 6 91 7 237 6 132 239 232
6 53 6 90 7 230 6 134 239 233
6 79 6 91 7 208 6 147 239 234
6 50 6 90 8 67 6 144 239 235
6 95 6 91 8 71 6 147 239 236
6 52 6 91 8 24 6 144 239 238
6 109 6 90 8 38 6 146 239 239
6 78 6 90 7 247 6 146 239 239
6 91 6 90 8 53 6 151 239 240
6 97 6 90 8 6 6 158 239 241
6 101 6 90 8 7 6 147 239 242
6 81 6 90 7 215 6 130 239 243
6 90 6 90 8 57 6 142 239 244
6 92 6 90 8 13 6 153 239 245
6 94 6 90 8 60 6 152 239 246
6 111 6 90 8 60 6 142 239 247
6 95 6 90 7 251 6 151 239 248
6 79 6 90 8 38 6 165 239 249
6 90 6 90 7 204 6 175 239 250
6 50 6 90 7 209 6 177 239 251
6 81 6 90 8 18 6 152 239 252
6 60 6 90 8 64 6 126 239 253
6 78 6 90 7 221 6 122 239 254
6 85 6 90 8 27 6 131 239 255
6 89 6 90 8 50 6 142 240 0
6 90 6 90 7 247 6 144 240 1
6 85 6 90 7 221 6 147 240 2
6 85 6 90 8 120 6 132 240 3
6 74 6 90 8 6 6 129 240 4
6 127 6 90 8 26 6 135 240 5
6 103 6 90 8 9 6 124 240 6
6 65 6 89 7 252 6 120 240 7
6 61 6 89 7 216 6 120 240 7
6 72 6 89 7 253 6 118 240 8
6 74 6 89 8 117 6 123 240 9
6 64 6 89 8 14 6 130 240 10
6 65 6 89 8 14 6 124 240 11
6 68 6 89 7 244 6 115 240 12
6 85 6 89 7 240 6 112 240 13
6 99 6 89 8 62 6 107 240 14
6 93 6 89 8 46 6 116 240 15
6 98 6 89 7 241 6 103 240 16
6 87 6 90 7 245 6 106 240 17
6 61 6 90 7 231 6 104 240 18
6 95 6 89 7 189 6 109 240 19
6 74 6 89 8 60 6 112 240 20
6 89 6 89 8 22 6 101 240 21
6 89 6 89 8 3 6 84 240 22
6 90 6 89 7 166 6 70 240 23
6 113 6 89 8 95 6 79 240 24
6 127 6 88 8 15 6 88 240 25
6 83 6 89 7 217 6 101 240 26
6 101 6 89 8 56 6 101 240 26
6 121 6 89 8 29 6 95 240 27
6 98 6 89 7 252 6 91 240 28
6 148 6 89 7 231 6 81 240 29
6 141 6 89 8 129 6 73 240 30
6 149 6 89 8 35 6 80 240 31
6 125 6 89 8 35 6 84 240 32
6 109 6 89 7 226 6 80 240 33
6 109 6 89 7 179 6 96 240 34
6 109 6 89 7 163 6 102 240 35
6 121 6 89 8 196 6 116 240 36
6 96 6 89 7 134 6 116 240 36
6 103 6 89 7 134 6 118 240 37
6 115 6 89 8 53 6 92 240 38
6 115 6 89 7 218 6 70 240 39
6 139 6 88 8 68 6 85 240 40
6 111 6 89 8 12 6 85 240 40
6 128 6 88 8 12 6 106 240 41
6 72 6 89 8 15 6 119 240 42
6 109 6 89 8 37 6 107 240 43
6 109 6 89 8 58 6 117 240 44
6 98 6 89 7 144 6 104 240 45
6 101 6 88 8 26 6 104 240 45
6 133 6 89 8 26 6 101 240 46
6 114 6 89 8 19 6 99 240 47
6 114 6 89 8 25 6 93 240 48
6 114 6 89 7 168 6 87 240 49
6 181 6 89 8 108 6 87 240 49
6 143 6 89 7 219 6 105 240 50
6 94 6 88 8 147 6 123 240 51
6 136 6 89 8 147 6 127 240 52
6 89 6 89 7 224 6 128 240 53
6 105 6 89 7 94 6 133 240 54
6 85 6 89 7 116 6 128 240 55
6 94 6 88 8 57 6 114 240 56
6 100 6 89 8 57 6 103 240 57
6 106 6 89 8 129 6 108 240 59
6 105 6 88 7 133 6 128 240 60
6 110 6 89 8 137 6 121 240 61
6 122 6 89 7 212 6 132 240 62
6 133 6 88 8 59 6 132 240 62
6 108 6 89 8 102 6 129 240 63
6 123 6 88 7 204 6 120 240 64
6 146 6 88 7 165 6 125 240 65
6 163 6 88 7 165 6 110 240 66
6 117 6 89 7 191 6 116 240 67
6 111 6 88 8 32 6 116 240 68
6 109 6 88 7 229 6 110 240 69
6 137 6 89 8 26 6 99 240 70
6 130 6 89 8 54 6 117 240 71
6 165 6 89 7 237 6 116 240 72
6 155 6 89 7 81 6 132 240 76
6 156 6 89 7 219 6 123 240 77
6 196 6 89 8 117 6 105 240 78
6 110 6 89 7 209 6 114 240 79
6 146 6 89 8 23 6 110 240 80
6 125 6 89 8 4 6 100 240 81
6 141 6 89 8 61 6 107 240 82
6 154 6 89 7 242 6 97 240 83
6 192 6 89 8 2 6 111 240 84
6 179 6 89 7 233 6 112 240 85
6 135 6 89 8 53 6 112 240 85
6 118 6 89 7 177 6 131 240 86
6 175 6 89 7 236 6 143 240 87
6 151 6 89 7 200 6 152 240 88
6 169 6 89 8 200 6 160 240 89
6 76 6 89 8 55 6 148 240 90
6 122 6 89 8 12 6 128 240 91
6 143 6 89 7 216 6 133 240 92
6 171 6 89 7 103 6 137 240 93
6 50 6 89 8 245 6 150 240 94
6 101 6 88 7 218 6 145 240 95
6 154 6 89 7 201 6 125 240 96
6 218 6 89 8 137 6 124 240 97
6 183 6 89 7 241 6 130 240 98
6 103 6 90 7 216 6 132 240 100
6 139 6 89 8 44 6 122 240 101
6 153 6 89 7 229 6 113 240 102
6 171 6 89 8 101 6 131 240 103
6 170 6 90 8 84 6 132 240 104
6 197 6 89 7 136 6 140 240 106
6 190 6 90 8 14 6 147 240 107
6 192 6 89 7 196 6 139 240 108
6 171 6 89 8 128 6 150 240 109
6 144 6 90 7 184 6 142 240 110
6 235 6 90 8 135 6 140 240 111
6 128 6 90 7 233 6 163 240 112
6 145 6 90 8 19 6 153 240 114
6 139 6 90 8 54 6 170 240 115
6 138 6 90 8 9 6 175 240 116
6 174 6 90 7 239 6 174 240 117
6 183 6 90 7 178 6 161 240 118
6 139 6 90 7 190 6 150 240 119
6 162 6 90 8 65 6 156 240 120
6 111 6 90 7 90 6 168 240 121
6 139 6 90 8 104 6 176 240 122
6 118 6 90 8 38 6 174 240 123
6 89 6 90 8 38 6 174 240 124
6 156 6 91 8 131 6 173 240 125
6 170 6 91 8 25 6 179 240 126
6 170 6 90 8 22 6 165 240 127
6 180 6 90 8 6 6 165 240 128
6 187 6 91 8 7 6 165 240 128
6 159 6 91 8 7 6 164 240 129
6 145 6 90 7 189 6 170 240 130
6 147 6 90 7 198 6 187 240 131
6 147 6 90 7 237 6 190 240 132
6 176 6 91 8 240 6 196 240 133
6 123 6 91 8 49 6 188 240 134
6 150 6 91 7 81 6 188 240 134
6 172 6 91 7 81 6 204 240 135
6 121 6 91 7 219 6 197 240 136
6 121 6 91 8 26 6 192 240 137
6 121 6 90 8 146 6 188 240 138
6 97 6 90 7 232 6 188 240 138
6 155 6 91 7 232 6 185 240 139
6 142 6 91 7 203 6 197 240 140
6 151 6 91 7 219 6 198 240 141
6 200 6 91 7 233 6 197 240 142
6 148 6 91 8 215 6 198 240 143
6 148 6 91 7 246 6 190 240 144
6 159 6 91 8 3 6 190 240 145
6 163 6 91 7 231 6 190 240 145
6 141 6 90 8 51 6 196 240 146
6 134 6 91 7 237 6 202 240 147
6 107 6 91 8 2 6 194 240 148
6 104 6 91 8 5 6 190 240 150
6 125 6 91 8 245 6 190 240 150
6 122 6 91 7 224 6 186 240 152
6 132 6 91 7 232 6 190 240 153
6 140 6 90 7 170 6 179 240 154
6 186 6 91 8 48 6 181 240 155
6 202 6 91 7 179 6 177 240 156
6 109 6 91 7 215 6 188 240 158
6 112 6 91 7 233 6 181 240 159
6 136 6 91 8 8 6 178 240 160
6 135 6 91 8 51 6 181 240 161
6 71 6 91 8 53 6 187 240 163
6 149 6 91 8 108 6 157 240 164
6 121 6 91 7 253 6 144 240 165
6 124 6 91 8 8 6 139 240 166
6 136 6 91 7 238 6 163 240 167
6 100 6 91 8 27 6 166 240 168
6 135 6 91 8 146 6 161 240 170
6 134 6 91 8 46 6 171 240 171
6 118 6 91 7 223 6 174 240 172
6 139 6 91 8 3 6 160 240 173
6 168 6 91 7 243 6 154 240 174
6 199 6 91 8 112 6 154 240 175
6 113 6 91 8 65 6 148 240 176
6 130 6 91 7 189 6 173 240 177
6 153 6 92 7 210 6 175 240 178
6 138 6 90 7 224 6 164 240 179
6 163 6 91 7 248 6 159 240 180
6 126 6 91 8 89 6 181 240 181
6 144 6 91 8 17 6 180 240 182
6 118 6 91 8 31 6 179 240 184
6 112 6 91 8 38 6 164 240 185
6 120 6 91 8 3 6 155 240 186
6 156 6 91 8 30 6 161 240 187
6 118 6 91 7 242 6 173 240 188
6 132 6 91 7 218 6 169 240 189
6 166 6 91 8 11 6 168 240 190
6 159 6 91 8 42 6 175 240 192
6 161 6 91 8 57 6 161 240 193
6 128 6 91 8 17 6 152 240 194
6 110 6 91 7 217 6 154 240 195
6 149 6 91 7 244 6 169 240 196
6 111 6 91 8 94 6 182 240 197
6 122 6 91 7 195 6 166 240 198
6 116 6 91 7 249 6 174 240 199
6 104 6 91 8 34 6 162 240 200
6 86 6 91 8 37 6 143 240 202
6 93 6 91 8 12 6 151 240 203
6 95 6 91 7 253 6 154 240 204
6 101 6 91 8 30 6 168 240 205
6 98 6 91 8 56 6 171 240 206
6 110 6 91 7 247 6 153 240 207
6 111 6 91 8 10 6 151 240 208
6 156 6 91 7 197 6 162 240 209
6 121 6 92 7 204 6 158 240 210
6 79 6 91 8 5 6 148 240 212
6 108 6 91 8 13 6 147 240 213
6 75 6 92 8 58 6 147 240 213
6 69 6 91 8 58 6 134 240 214
6 108 6 91 8 27 6 125 240 215
6 86 6 91 8 125 6 122 240 216
6 118 6 91 7 198 6 128 240 217
6 114 6 91 7 211 6 139 240 218
6 146 6 92 8 13 6 126 240 219
6 109 6 91 8 35 6 106 240 220
6 101 6 91 8 56 6 110 240 221
6 55 6 91 7 215 6 103 240 222
6 51 6 91 8 0 6 122 240 223
6 28 6 91 8 2 6 150 240 224
6 28 6 91 8 36 6 140 240 225
6 71 6 91 7 212 6 157 240 226
6 64 6 90 8 10 6 128 240 227
6 89 6 91 8 75 6 128 240 228
6 75 6 91 7 215 6 113 240 228
6 83 6 91 7 215 6 131 240 229
6 109 6 91 8 4 6 136 240 230
6 82 6 91 7 241 6 141 240 231
6 82 6 91 7 237 6 143 240 232
6 55 6 90 8 154 6 143 240 233
6 84 6 91 7 249 6 125 240 234
6 77 6 91 7 216 6 115 240 235
6 91 6 91 8 22 6 105 240 236
6 88 6 90 7 243 6 95 240 237
6 129 6 91 7 217 6 101 240 238
6 125 6 90 8 49 6 98 240 239
6 116 6 90 8 121 6 81 240 240
6 191 6 91 8 65 6 83 240 241
6 161 6 91 7 151 6 84 240 242
6 168 6 91 7 218 6 113 240 243
6 149 6 90 7 250 6 111 240 244
6 168 6 91 8 8 6 105 240 245
6 43 6 91 7 235 6 96 240 246
6 97 6 91 7 209 6 112 240 247
6 114 6 91 7 228 6 121 240 248
6 106 6 91 7 189 6 116 240 249
6 94 6 91 8 73 6 99 240 250
6 125 6 91 8 153 6 100 240 251
6 103 6 90 7 254 6 106 240 252
6 104 6 91 7 126 6 102 240 253
6 114 6 91 8 16 6 103 240 254
6 102 6 91 8 38 6 105 240 255
6 101 6 90 8 27 6 99 241 0
6 101 6 91 8 16 6 108 241 1
6 105 6 90 7 182 6 111 241 2
6 130 6 91 8 70 6 125 241 3
6 176 6 91 8 114 6 133 241 4
6 100 6 91 8 98 6 125 241 5
6 58 6 91 7 209 6 112 241 6
6 120 6 91 7 89 6 108 241 7
6 199 6 91 8 36 6 121 241 10
6 165 6 91 8 97 6 111 241 11
6 175 6 91 7 255 6 113 241 12
6 116 6 91 7 236 6 134 241 13
6 125 6 91 8 216 6 127 241 14
6 145 6 90 8 21 6 127 241 14
6 138 6 90 8 37 6 131 241 15
6 140 6 91 7 135 6 131 241 16
6 82 6 91 7 98 6 130 241 17
6 145 6 90 8 96 6 120 241 18
6 148 6 91 8 96 6 122 241 19
6 128 6 91 8 177 6 131 241 20
6 131 6 91 7 185 6 129 241 21
6 84 6 91 7 163 6 129 241 22
6 153 6 91 7 163 6 129 241 23
6 154 6 91 8 22 6 128 241 24
6 167 6 91 8 181 6 149 241 25
6 202 6 91 8 2 6 150 241 26
6 135 6 91 7 29 6 157 241 28
6 158 6 91 8 61 6 150 241 29
6 152 6 91 8 62 6 141 241 30
6 152 6 91 8 83 6 123 241 31
6 136 6 91 8 113 6 139 241 32
6 215 6 91 7 138 6 138 241 33
6 135 6 91 7 134 6 139 241 35
6 139 6 91 7 139 6 137 241 36
6 136 6 91 8 110 6 137 241 37
6 142 6 91 8 245 6 130 241 38
6 140 6 91 7 241 6 128 241 39
6 127 6 91 7 125 6 135 241 40
6 126 6 92 7 113 6 128 241 41
6 127 6 92 8 25 6 142 241 42
6 124 6 91 8 27 6 141 241 43
6 155 6 92 8 188 6 164 241 45
6 123 6 92 8 245 6 170 241 46
6 80 6 91 7 182 6 169 241 47
6 95 6 92 7 223 6 155 241 48
6 130 6 92 8 109 6 164 241 49
6 152 6 91 8 12 6 169 241 50
6 147 6 92 7 198 6 143 241 51
6 152 6 91 7 192 6 139 241 52
6 121 6 91 7 192 6 144 241 53
6 143 6 91 8 120 6 169 241 54
6 143 6 92 8 71 6 167 241 55
6 106 6 91 8 34 6 156 241 56
6 115 6 92 7 175 6 159 241 57
6 163 6 92 8 64 6 159 241 57
6 147 6 92 8 64 6 143 241 58
6 126 6 92 8 38 6 145 241 59
6 156 6 91 7 244 6 142 241 60
6 133 6 91 8 35 6 161 241 61
6 133 6 92 8 138 6 158 241 62
6 102 6 92 8 117 6 155 241 63
6 119 6 91 7 174 6 125 241 64
6 136 6 91 7 136 6 125 241 64
6 115 6 91 7 136 6 120 241 65
6 74 6 92 7 141 6 122 241 66
6 127 6 92 8 151 6 111 241 67
6 123 6 92 8 25 6 118 241 68
6 183 6 92 7 198 6 110 241 69
6 168 6 91 7 154 6 114 241 70
6 117 6 92 8 19 6 103 241 71
6 140 6 91 8 98 6 105 241 72
6 114 6 92 8 43 6 99 241 73
6 149 6 92 8 45 6 99 241 74
6 167 6 92 7 247 6 100 241 75
6 122 6 92 7 214 6 87 241 76
6 127 6 92 8 85 6 104 241 77
6 185 6 92 8 33 6 112 241 78
6 175 6 92 7 93 6 128 241 79
6 166 6 92 8 15 6 122 241 80
6 150 6 93 8 61 6 111 241 81
6 95 6 92 8 39 6 107 241 82
6 113 6 92 8 93 6 111 241 83
6 145 6 92 7 246 6 106 241 85
6 176 6 92 8 34 6 105 241 86
6 203 6 92 7 158 6 110 241 87
6 144 6 93 8 18 6 91 241 89
6 144 6 92 7 228 6 89 241 90
6 159 6 93 7 172 6 87 241 92
6 184 6 93 7 145 6 91 241 94
6 192 6 93 8 30 6 90 241 95
6 137 6 92 8 132 6 87 241 96
6 197 6 93 8 65 6 109 241 97
6 223 6 93 8 97 6 113 241 98
6 215 6 93 7 182 6 119 241 99
7 29 6 93 8 0 6 102 241 100
6 125 6 93 8 29 6 100 241 102
6 166 6 93 7 162 6 112 241 103
6 161 6 93 8 2 6 118 241 104
6 179 6 93 8 92 6 118 241 105
6 184 6 93 7 240 6 116 241 106
6 201 6 93 8 22 6 111 241 108
6 228 6 93 8 245 6 113 241 109
6 206 6 94 7 161 6 103 241 110
6 209 6 93 7 212 6 111 241 111
6 210 6 93 8 55 6 131 241 112
6 169 6 94 7 163 6 142 241 113
6 159 6 94 7 129 6 136 241 115
6 148 6 94 8 64 6 113 241 116
6 197 6 93 8 17 6 112 241 117
6 144 6 94 8 109 6 128 241 118
6 226 6 93 7 174 6 135 241 119
6 174 6 94 8 245 6 138 241 120
6 136 6 94 7 200 6 146 241 122
6 148 6 94 7 206 6 139 241 123
6 159 6 94 7 246 6 137 241 124
6 146 6 94 8 190 6 134 241 125
6 204 6 94 7 224 6 126 241 126
6 212 6 94 8 3 6 127 241 127
6 181 6 93 8 19 6 151 241 129
6 229 6 94 8 62 6 147 241 130
6 222 6 94 7 27 6 152 241 131
6 193 6 95 8 225 6 150 241 132
6 132 6 95 7 142 6 146 241 133
6 42 6 95 7 139 6 148 241 135
6 160 6 95 8 193 6 146 241 136
6 146 6 94 8 46 6 149 241 137
6 193 6 94 7 193 6 147 241 138
6 127 6 95 8 28 6 158 241 139
6 114 6 95 8 70 6 132 241 140
6 203 6 95 8 62 6 145 241 141
6 105 6 94 7 244 6 150 241 142
6 182 6 94 7 63 6 147 241 143
6 188 6 94 8 244 6 150 241 144
6 205 6 95 8 94 6 148 241 145
6 118 6 94 8 175 6 141 241 146
6 132 6 95 7 141 6 143 241 147
6 133 6 95 8 6 6 133 241 149
6 144 6 95 7 252 6 142 241 150
6 183 6 95 8 245 6 147 241 151
6 130 6 94 7 193 6 154 241 152
6 120 6 95 7 193 6 151 241 153
6 118 6 94 8 44 6 153 241 154
6 163 6 95 7 223 6 144 241 155
6 160 6 95 8 103 6 140 241 156
6 146 6 95 7 145 6 138 241 159
6 179 6 95 8 105 6 163 241 162
6 208 6 95 8 37 6 157 241 163
6 208 6 95 8 39 6 136 241 164
6 158 6 96 7 241 6 148 241 165
6 159 6 95 8 2 6 161 241 166
6 204 6 95 8 127 6 157 241 167
6 176 6 95 7 155 6 155 241 168
6 181 6 96 8 49 6 163 241 169
6 209 6 96 7 196 6 146 241 170
6 125 6 96 8 70 6 149 241 171
6 194 6 95 8 70 6 160 241 172
6 136 6 95 8 54 6 154 241 173
6 196 6 96 8 15 6 149 241 174
6 168 6 96 7 242 6 131 241 175
6 160 6 96 8 17 6 134 241 176
6 155 6 96 8 4 6 155 241 177
6 241 6 96 8 65 6 160 241 178
6 241 6 96 6 230 6 167 241 179
6 106 6 96 7 103 6 182 241 180
6 141 6 96 8 144 6 178 241 181
6 150 6 96 8 67 6 150 241 182
6 175 6 96 8 46 6 134 241 183
6 146 6 96 8 76 6 134 241 183
6 253 6 96 7 36 6 137 241 184
6 216 6 96 7 182 6 161 241 185
6 184 6 96 8 61 6 163 241 187
6 186 6 97 8 191 6 164 241 187
6 165 6 97 7 147 6 174 241 188
6 213 6 97 8 46 6 179 241 189
6 182 6 96 7 232 6 168 241 190
6 165 6 97 7 232 6 153 241 191
6 188 6 97 7 252 6 152 241 192
6 221 6 97 8 94 6 165 241 193
6 168 6 97 7 13 6 187 241 194
6 218 6 97 8 136 6 181 241 195
6 183 6 97 8 60 6 197 241 196
6 157 6 98 7 144 6 217 241 197
6 142 6 97 8 173 6 215 241 198
6 162 6 97 8 20 6 201 241 199
6 162 6 97 7 238 6 192 241 200
6 146 6 97 7 156 6 190 241 201
6 141 6 97 8 116 6 185 241 202
6 193 6 97 8 87 6 185 241 203
6 170 6 98 7 211 6 196 241 204
6 122 6 97 7 140 6 206 241 205
6 148 6 98 8 32 6 201 241 206
6 173 6 97 7 246 6 176 241 208
6 158 6 97 8 25 6 182 241 209
6 161 6 98 8 18 6 203 241 210
6 163 6 98 8 16 6 213 241 211
6 201 6 98 7 220 6 198 241 212
6 171 6 98 8 61 6 172 241 213
6 202 6 98 8 41 6 175 241 214
6 173 6 98 7 246 6 185 241 215
6 196 6 98 8 49 6 207 241 217
6 164 6 98 8 164 6 191 241 218
6 71 6 98 7 175 6 179 241 219
6 94 6 98 7 217 6 186 241 220
6 125 6 98 7 98 6 184 241 221
6 157 6 98 8 30 6 172 241 222
6 97 6 97 8 32 6 192 241 223
6 101 6 98 8 136 6 207 241 224
6 155 6 98 7 162 6 165 241 226
6 112 6 98 8 47 6 156 241 227
6 135 6 98 7 214 6 157 241 228
6 143 6 98 8 24 6 163 241 229
6 157 6 98 7 211 6 185 241 230
6 204 6 98 8 120 6 186 241 232
6 151 6 98 7 247 6 169 241 233
6 91 6 98 6 253 6 167 241 234
6 175 6 98 8 8 6 167 241 234
6 72 6 98 8 137 6 176 241 235
6 158 6 98 8 137 6 163 241 236
6 119 6 98 8 61 6 160 241 237
6 119 6 98 8 19 6 149 241 238
6 136 6 98 8 120 6 161 241 239
6 141 6 98 7 150 6 161 241 239
6 81 6 98 8 103 6 165 241 240
6 152 6 98 8 103 6 175 241 241
6 97 6 98 8 108 6 178 241 242
6 149 6 98 7 225 6 175 241 243
6 124 6 98 8 82 6 173 241 244
6 115 6 98 7 150 6 155 241 245
6 126 6 98 8 95 6 157 241 246
6 126 6 98 7 218 6 153 241 247
6 128 6 98 8 113 6 151 241 248
6 130 6 98 7 179 6 165 241 249
6 94 6 98 8 62 6 165 241 249
6 154 6 98 8 112 6 161 241 250
6 150 6 98 8 61 6 141 241 251
6 155 6 98 7 202 6 143 241 252
6 141 6 98 7 234 6 142 241 253
6 184 6 98 8 117 6 137 241 255
6 196 6 98 6 209 6 151 242 0
6 156 6 98 7 226 6 150 242 1
6 146 6 98 8 32 6 158 242 2
6 151 6 99 8 0 6 161 242 3
6 140 6 98 8 56 6 144 242 4
6 151 6 99 8 181 6 126 242 5
6 101 6 99 7 31 6 127 242 6
6 118 6 98 8 131 6 118 242 7
6 189 6 98 8 108 6 150 242 9
6 118 6 98 7 201 6 133 242 10
6 147 6 98 8 11 6 120 242 11
6 170 6 99 8 151 6 119 242 12
6 144 6 99 7 153 6 142 242 13
6 225 6 98 7 75 6 145 242 14
6 179 6 99 8 29 6 138 242 16
6 206 6 99 8 66 6 111 242 17
6 168 6 99 8 20 6 129 242 18
6 135 6 99 8 124 6 138 242 19
6 167 6 99 7 172 6 144 242 20
6 135 6 99 8 245 6 149 242 21
6 146 6 99 7 176 6 154 242 22
6 149 6 99 7 229 6 138 242 23
6 154 6 99 8 58 6 132 242 24
6 133 6 99 7 238 6 153 242 25
6 137 6 99 8 11 6 155 242 26
6 194 6 99 8 91 6 140 242 28
6 127 6 99 7 90 6 131 242 29
6 143 6 99 8 222 6 117 242 30
6 144 6 99 8 61 6 126 242 31
6 159 6 99 7 158 6 152 242 32
6 214 6 99 7 255 6 152 242 33
6 143 6 99 8 150 6 147 242 34
6 176 6 99 8 50 6 161 242 35
6 147 6 100 7 235 6 121 242 37
6 157 6 99 8 61 6 131 242 38
6 190 6 100 8 50 6 136 242 39
6 227 6 100 7 222 6 123 242 40
6 137 6 100 7 125 6 118 242 41
6 185 6 100 8 88 6 126 242 42
6 184 6 100 8 27 6 113 242 43
6 194 6 100 7 251 6 134 242 45
6 202 6 100 8 5 6 145 242 46
6 200 6 100 8 102 6 142 242 47
6 174 6 100 8 245 6 145 242 48
6 152 6 100 7 65 6 155 242 49
6 154 6 100 8 245 6 150 242 50
6 172 6 100 7 177 6 128 242 51
6 110 6 100 7 218 6 159 242 53
6 144 6 100 8 115 6 140 242 54
6 88 6 101 7 234 6 120 242 55
6 172 6 100 8 159 6 127 242 56
6 134 6 100 8 245 6 128 242 57
6 200 6 101 7 158 6 137 242 58
6 168 6 100 8 69 6 126 242 59
6 161 6 100 7 216 6 152 242 61
6 173 6 100 7 172 6 154 242 62
6 237 6 100 7 113 6 136 242 63
6 226 6 100 7 218 6 150 242 64
6 136 6 101 7 252 6 148 242 65
6 149 6 101 7 222 6 163 242 66
6 198 6 101 7 247 6 153 242 67
6 189 6 101 8 14 6 158 242 68
6 189 6 101 8 72 6 154 242 69
6 214 6 101 8 20 6 154 242 70
6 183 6 101 7 220 6 154 242 70
6 168 6 101 7 220 6 159 242 71
6 151 6 101 8 72 6 162 242 72
6 212 6 101 8 102 6 168 242 73
6 212 6 101 7 228 6 177 242 74
6 208 6 101 8 29 6 174 242 75
6 159 6 100 8 65 6 174 242 75
6 168 6 101 8 65 6 149 242 76
6 146 6 101 7 176 6 151 242 77
6 146 6 101 8 61 6 143 242 78
6 182 6 101 8 4 6 131 242 79
6 218 6 101 8 63 6 131 242 79
6 204 6 101 8 7 6 152 242 80
6 187 6 101 8 7 6 151 242 81
6 219 6 101 7 219 6 148 242 82
6 219 6 101 7 242 6 154 242 83
6 202 6 101 8 50 6 155 242 84
6 214 6 101 8 121 6 155 242 84
6 183 6 102 7 211 6 143 242 85
6 200 6 101 7 239 6 156 242 86
7 4 6 102 7 239 6 162 242 87
6 221 6 102 6 244 6 158 242 88
6 230 6 102 8 144 6 160 242 89
6 230 6 102 8 6 6 150 242 90
6 199 6 102 8 2 6 150 242 91
6 182 6 102 8 23 6 167 242 92
6 194 6 102 7 229 6 188 242 93
6 204 6 103 8 57 6 191 242 94
6 201 6 102 7 188 6 150 242 96
6 209 6 102 8 75 6 144 242 97
6 210 6 103 8 43 6 167 242 99
6 186 6 102 8 23 6 161 242 100
6 187 6 102 8 2 6 157 242 101
6 218 6 102 8 98 6 167 242 102
6 151 6 103 7 222 6 210 242 104
6 176 6 102 7 222 6 199 242 105
6 164 6 103 7 211 6 187 242 106
6 187 6 104 8 55 6 170 242 107
6 186 6 103 8 32 6 171 242 108
6 175 6 103 8 50 6 187 242 109
6 188 6 104 7 210 6 202 242 110
7 4 6 103 8 7 6 193 242 111
7 12 6 103 8 188 6 191 242 112
6 216 6 103 7 163 6 192 242 113
6 215 6 103 8 80 6 192 242 114
6 162 6 104 7 225 6 193 242 115
6 162 6 104 8 245 6 188 242 116
6 169 6 104 7 203 6 194 242 117
6 134 6 104 7 83 6 187 242 118
6 191 6 103 8 164 6 183 242 119
6 225 6 104 8 3 6 183 242 120
6 210 6 103 8 1 6 184 242 121
6 207 6 104 7 231 6 189 242 122
6 186 6 104 8 123 6 189 242 122
6 226 6 104 8 37 6 196 242 123
6 200 6 104 7 203 6 203 242 124
6 197 6 104 7 240 6 204 242 125
6 192 6 104 7 206 6 207 242 126
6 188 6 104 8 9 6 205 242 128
6 168 6 105 8 27 6 192 242 129
6 175 6 105 8 88 6 204 242 129
6 183 6 104 8 58 6 210 242 130
6 131 6 105 8 39 6 203 242 131
6 131 6 105 7 172 6 202 242 132
6 153 6 104 7 172 6 200 242 133
6 184 6 105 7 181 6 191 242 134
6 145 6 104 7 185 6 191 242 135
6 156 6 104 8 128 6 187 242 137
6 213 6 105 7 211 6 186 242 138
6 211 6 104 8 101 6 196 242 139
6 140 6 105 7 165 6 196 242 140
6 160 6 104 7 247 6 188 242 141
6 166 6 105 8 29 6 180 242 142
6 145 6 104 7 250 6 177 242 143
6 153 6 105 8 82 6 174 242 144
6 150 6 105 7 242 6 174 242 144
6 159 6 104 7 189 6 170 242 145
6 134 6 105 8 245 6 168 242 146
6 135 6 104 7 254 6 165 242 147
6 154 6 105 8 35 6 162 242 148
6 131 6 104 7 226 6 154 242 150
6 171 6 105 8 19 6 152 242 151
6 112 6 104 8 26 6 147 242 152
6 175 6 105 8 58 6 151 242 153
6 189 6 105 8 46 6 151 242 154
6 185 6 104 7 230 6 149 242 155
6 173 6 105 7 221 6 142 242 157
6 154 6 105 8 8 6 138 242 158
6 198 6 105 8 22 6 138 242 158
6 226 6 105 8 63 6 142 242 159
6 202 6 105 8 63 6 147 242 160
6 215 6 105 7 194 6 139 242 161
6 215 6 105 7 189 6 123 242 162
6 201 6 105 7 222 6 129 242 163
6 226 6 105 8 152 6 129 242 163
6 198 6 105 8 152 6 137 242 164
6 217 6 105 7 239 6 136 242 165
6 215 6 106 8 34 6 144 242 166
6 215 6 106 8 91 6 153 242 167
6 244 6 105 7 240 6 145 242 168
7 7 6 105 8 24 6 145 242 168
7 23 6 106 8 24 6 140 242 169
6 246 6 106 7 157 6 152 242 170
6 246 6 105 7 213 6 155 242 171
6 232 6 106 8 128 6 154 242 172
6 209 6 106 8 18 6 154 242 172
6 242 6 106 8 18 6 158 242 173
6 193 6 106 8 245 6 168 242 174
6 217 6 106 7 204 6 182 242 175
6 217 6 106 7 97 6 179 242 176
6 238 6 106 7 127 6 161 242 177
6 243 6 106 7 220 6 161 242 177
6 226 6 107 7 220 6 163 242 178
6 231 6 107 8 183 6 172 242 179
6 231 6 106 8 57 6 170 242 180
6 249 6 107 8 57 6 168 242 181
6 234 6 107 7 232 6 168 242 181
6 246 6 107 8 54 6 172 242 182
7 17 6 107 7 252 6 184 242 184
6 251 6 107 8 23 6 186 242 185
6 228 6 107 7 252 6 187 242 186
6 246 6 107 8 17 6 190 242 187
6 231 6 108 8 1 6 200 242 188
6 226 6 108 8 44 6 194 242 189
6 220 6 108 7 245 6 193 242 190
6 218 6 108 8 8 6 207 242 192
6 204 6 107 8 36 6 212 242 193
6 215 6 108 7 235 6 219 242 194
6 190 6 108 7 248 6 213 242 195
6 211 6 108 8 81 6 212 242 196
6 163 6 108 7 246 6 217 242 197
6 174 6 108 8 46 6 219 242 198
6 205 6 108 8 26 6 221 242 199
6 153 6 108 8 26 6 224 242 200
6 170 6 108 7 211 6 223 242 201
6 146 6 108 7 188 6 218 242 202
6 186 6 108 8 33 6 214 242 203
6 162 6 108 8 37 6 211 242 204
6 122 6 109 8 15 6 199 242 205
6 134 6 108 7 229 6 216 242 206
6 117 6 108 8 110 6 224 242 207
6 124 6 108 8 2 6 214 242 208
6 111 6 108 8 19 6 216 242 209
6 112 6 108 7 234 6 219 242 210
6 112 6 108 8 55 6 219 242 211
6 118 6 108 8 44 6 212 242 212
6 126 6 108 8 6 6 208 242 213
6 119 6 108 7 248 6 206 242 214
6 129 6 108 7 245 6 207 242 215
6 154 6 108 8 16 6 192 242 216
6 122 6 108 8 64 6 192 242 217
6 129 6 108 8 33 6 193 242 217
6 127 6 108 8 38 6 192 242 218
6 148 6 108 8 48 6 182 242 219
6 136 6 109 8 64 6 186 242 220
6 135 6 108 8 39 6 183 242 221
6 138 6 108 8 39 6 179 242 222
6 116 6 108 8 30 6 192 242 223
6 120 6 108 8 30 6 196 242 224
6 120 6 108 8 48 6 201 242 225
6 149 6 108 7 252 6 182 242 226
6 128 6 108 7 251 6 178 242 227
6 138 6 108 8 38 6 187 242 228
6 137 6 108 8 9 6 195 242 229
6 137 6 108 8 18 6 195 242 230
6 136 6 108 8 37 6 205 242 231
6 138 6 108 7 247 6 219 242 232
6 148 6 108 8 2 6 223 242 233
6 115 6 108 7 239 6 222 242 234
6 138 6 108 7 244 6 206 242 235
6 138 6 108 7 255 6 192 242 236
6 152 6 108 7 249 6 182 242 237
6 153 6 108 7 225 6 191 242 238
6 160 6 108 7 232 6 210 242 239
6 186 6 108 7 214 6 208 242 240
6 153 6 108 7 226 6 208 242 240
6 164 6 108 7 245 6 200 242 241
6 183 6 108 7 247 6 183 242 242
6 185 6 108 7 252 6 159 242 243
6 194 6 108 7 252 6 146 242 244
6 178 6 108 7 250 6 160 242 245
6 183 6 108 7 253 6 187 242 246
6 192 6 108 7 224 6 211 242 247
6 205 6 109 8 6 6 220 242 248
6 212 6 109 8 28 6 194 242 249
6 201 6 109 7 236 6 187 242 250
6 198 6 109 8 8 6 194 242 251
6 202 6 109 8 39 6 189 242 252
6 186 6 109 8 6 6 185 242 253
6 186 6 109 8 17 6 180 242 254
6 187 6 109 8 23 6 194 242 255
6 211 6 109 8 20 6 210 243 0
6 202 6 109 8 3 6 208 243 1
6 192 6 109 7 251 6 208 243 1
6 202 6 109 8 11 6 217 243 2
6 199 6 109 8 11 6 239 243 3
6 203 6 109 8 8 6 228 243 4
6 184 6 109 8 7 6 221 243 5
6 190 6 109 8 21 7 10 243 9
6 204 6 109 7 248 7 12 243 10
6 214 6 110 8 19 7 6 243 11
6 204 6 110 7 252 7 13 243 12
6 204 6 110 8 9 7 2 243 13
6 207 6 110 8 16 6 245 243 14
6 198 6 110 8 139 6 242 243 15
6 244 6 111 8 101 6 246 243 16
6 244 6 110 8 64 6 251 243 17
6 244 6 110 8 0 6 9 243 18
6 236 6 110 7 212 7 9 243 18
6 178 6 110 7 230 7 3 243 19
6 159 6 110 8 15 7 1 243 20
6 160 6 110 8 15 6 246 243 21
6 144 6 110 7 200 6 247 243 22
6 167 6 111 8 117 6 251 243 23
6 185 6 110 8 11 6 255 243 24
6 181 6 111 8 11 7 252 243 26
6 196 6 110 8 38 6 249 243 27
6 191 6 110 8 4 6 246 243 28
6 168 6 111 8 3 6 245 243 29
6 190 6 110 8 22 6 247 243 30
6 176 6 111 8 40 6 251 243 31
6 178 6 110 8 17 6 251 243 32
6 175 6 111 8 249 6 255 243 33
6 168 6 111 7 241 7 6 243 35
6 158 6 110 8 49 6 249 243 36
6 160 6 110 8 40 6 244 243 37
6 165 6 110 8 20 6 243 243 38
6 176 6 111 8 11 6 243 243 38
6 148 6 111 8 25 6 236 243 39
6 177 6 111 8 12 6 235 243 40
6 176 6 111 8 12 6 232 243 41
6 177 6 111 8 2 6 237 243 42
6 186 6 111 8 20 6 236 243 43
6 193 6 111 8 15 6 240 243 44
6 187 6 111 8 24 6 244 243 45
6 193 6 111 8 3 6 242 243 46
6 200 6 111 8 4 6 239 243 47
6 191 6 111 8 33 6 235 243 48
6 188 6 111 8 34 6 233 243 49
6 198 6 111 8 8 6 235 243 50
6 197 6 111 8 24 6 234 243 51
6 213 6 111 8 7 6 226 243 52
6 212 6 112 8 8 6 224 243 53
6 201 6 112 8 5 6 225 243 54
6 201 6 112 7 252 6 228 243 55
6 205 6 112 8 25 6 224 243 56
6 205 6 112 8 19 6 229 243 57
6 201 6 112 8 19 6 226 243 58
6 187 6 112 7 253 6 235 243 59
6 177 6 112 8 27 6 238 243 60
6 184 6 112 8 15 6 238 243 61
6 166 6 112 8 22 6 233 243 61
6 167 6 111 8 9 6 233 243 62
6 174 6 112 8 15 6 234 243 63
6 166 6 112 8 19 6 232 243 64
6 161 6 112 8 20 6 231 243 65
6 174 6 112 8 4 6 236 243 66
6 166 6 112 8 4 6 239 243 67
6 165 6 112 8 18 6 240 243 68
6 164 6 112 8 23 6 240 243 69
6 159 6 112 8 22 6 233 243 70
6 159 6 111 8 3 6 227 243 71
6 166 6 112 8 14 6 229 243 72
6 163 6 112 8 10 6 231 243 73
6 168 6 112 8 11 6 237 243 75
6 159 6 112 8 21 6 220 243 76
6 162 6 112 8 6 6 225 243 77
6 160 6 112 8 15 6 232 243 78
6 157 6 112 8 10 6 229 243 79
6 155 6 112 8 38 6 228 243 80
6 156 6 112 7 238 6 206 243 81
6 151 6 112 7 248 6 205 243 82
6 154 6 112 8 40 6 212 243 83
6 160 6 112 8 21 6 214 243 84
6 159 6 112 7 246 6 209 243 85
6 161 6 112 8 3 6 210 243 86
6 161 6 112 8 40 6 210 243 87
6 156 6 112 8 13 6 215 243 88
6 161 6 112 7 238 6 210 243 89
6 161 6 113 8 2 6 212 243 90
6 162 6 112 8 21 6 213 243 91
6 155 6 113 8 3 6 217 243 92
6 146 6 113 8 20 6 205 243 93
6 135 6 112 8 28 6 205 243 94
6 155 6 112 8 7 6 203 243 94
6 149 6 112 8 7 6 202 243 95
6 152 6 112 8 18 6 219 243 96
6 148 6 112 8 14 6 213 243 97
6 151 6 112 8 2 6 218 243 98
6 149 6 112 8 8 6 230 243 99
6 149 6 112 8 10 6 201 243 100
6 152 6 112 8 30 6 198 243 101
6 155 6 112 8 7 6 198 243 101
6 144 6 113 8 7 6 202 243 102
6 147 6 113 8 28 6 198 243 103
6 142 6 112 8 14 6 207 243 104
6 142 6 112 8 12 6 197 243 105
6 146 6 113 7 244 6 187 243 106
6 146 6 113 8 18 6 187 243 106
6 145 6 112 8 19 6 198 243 107
6 139 6 112 8 8 6 194 243 108
6 144 6 112 8 4 6 195 243 110
6 145 6 112 8 7 6 196 243 111
6 142 6 112 8 15 6 196 243 112
6 136 6 112 8 22 6 195 243 112
6 147 6 113 8 8 6 180 243 114
6 142 6 112 8 24 6 168 243 115
6 148 6 112 8 14 6 186 243 116
6 144 6 112 8 23 6 189 243 117
6 149 6 112 8 16 6 186 243 118
6 139 6 112 8 20 6 184 243 119
6 143 6 113 8 20 6 196 243 120
6 155 6 112 8 21 6 194 243 121
6 148 6 112 8 21 6 189 243 122
6 147 6 112 8 15 6 178 243 123
6 152 6 112 8 30 6 182 243 124
6 151 6 112 8 18 6 177 243 125
6 158 6 112 8 17 6 182 243 126
6 154 6 112 8 0 6 191 243 127
6 152 6 112 8 5 6 192 243 128
6 155 6 112 8 22 6 180 243 129
6 155 6 113 7 252 6 173 243 130
6 153 6 113 8 4 6 161 243 131
6 159 6 113 8 10 6 182 243 132
6 158 6 113 7 251 6 191 243 133
6 156 6 112 8 26 6 196 243 134
6 149 6 112 8 17 6 184 243 135
6 161 6 112 8 22 6 189 243 136
6 160 6 113 8 14 6 187 243 137
6 146 6 113 8 18 6 187 243 137
6 158 6 112 8 14 6 177 243 138
6 153 6 113 8 25 6 173 243 139
6 152 6 112 8 18 6 178 243 140
6 152 6 112 8 22 6 185 243 141
6 151 6 113 8 8 6 188 243 142
6 149 6 112 8 8 6 180 243 143
6 151 6 113 8 8 6 185 243 144
6 154 6 112 8 14 6 187 243 145
6 151 6 113 8 18 6 184 243 146
6 138 6 112 8 18 6 195 243 147
6 153 6 113 8 16 6 194 243 148
6 147 6 112 8 25 6 181 243 149
6 152 6 112 8 11 6 175 243 150
6 152 6 113 8 19 6 192 243 151
6 148 6 113 8 13 6 185 243 152
6 153 6 112 8 11 6 176 243 154
6 154 6 113 8 23 6 182 243 155
6 156 6 112 8 19 6 191 243 156
6 150 6 112 8 13 6 194 243 157
6 147 6 112 8 13 6 187 243 158
6 154 6 112 8 14 6 186 243 159
6 153 6 112 8 11 6 191 243 160
6 161 6 112 8 11 6 178 243 161
6 148 6 113 8 21 6 167 243 162
6 155 6 112 8 29 6 176 243 164
6 144 6 113 8 19 6 170 243 165
6 152 6 113 8 0 6 165 243 166
6 157 6 113 8 24 6 164 243 167
6 156 6 113 8 16 6 175 243 168
6 158 6 113 7 255 6 183 243 169
6 156 6 112 8 10 6 178 243 170
6 155 6 113 8 16 6 168 243 171
6 160 6 113 8 13 6 171 243 173
6 159 6 113 8 20 6 182 243 174
6 153 6 113 7 250 6 170 243 175
6 158 6 113 8 18 6 170 243 176
6 157 6 113 8 15 6 170 243 177
6 157 6 113 8 15 6 172 243 178
6 154 6 112 8 21 6 180 243 179
6 156 6 112 8 38 6 167 243 180
6 161 6 113 8 18 6 167 243 181
6 160 6 112 8 8 6 177 243 181
6 158 6 112 8 8 6 178 243 182
6 153 6 112 8 30 6 185 243 183
6 157 6 113 8 24 6 173 243 184
6 157 6 113 8 19 6 171 243 185
6 154 6 113 8 16 6 182 243 186
6 162 6 113 8 23 6 182 243 186
6 155 6 113 8 23 6 183 243 187
6 154 6 113 8 10 6 180 243 188
6 151 6 113 8 15 6 177 243 189
6 155 6 113 8 12 6 170 243 190
6 152 6 113 7 251 6 166 243 191
6 152 6 113 8 14 6 171 243 192
6 157 6 112 8 8 6 165 243 193
6 159 6 113 8 16 6 169 243 194
6 140 6 113 8 25 6 169 243 195
6 149 6 113 8 11 6 183 243 195
6 152 6 113 8 11 6 185 243 196
6 155 6 113 8 30 6 189 243 197
6 155 6 113 8 21 6 170 243 198
6 147 6 113 8 21 6 163 243 199
6 157 6 113 8 5 6 163 243 199
6 147 6 113 8 5 6 172 243 200
6 156 6 113 8 19 6 188 243 201
6 153 6 113 8 37 6 177 243 202
6 148 6 113 8 31 6 176 243 203
6 154 6 113 8 6 6 181 243 204
6 152 6 113 8 19 6 175 243 205
6 150 6 113 8 18 6 185 243 206
6 164 6 113 8 23 6 176 243 207
6 156 6 113 8 13 6 185 243 208
6 158 6 113 8 11 6 190 243 210
6 147 6 113 8 19 6 191 243 211
6 149 6 113 8 14 6 179 243 212
6 155 6 113 8 6 6 176 243 213
6 155 6 113 8 13 6 170 243 214
6 154 6 113 8 11 6 185 243 215
6 148 6 113 8 14 6 175 243 216
6 148 6 113 8 9 6 196 243 217
6 147 6 113 8 17 6 181 243 218
6 150 6 112 8 9 6 187 243 219
6 148 6 113 8 27 6 187 243 219
6 157 6 113 8 12 6 186 243 220
6 151 6 114 8 4 6 171 243 221
6 151 6 113 8 24 6 170 243 222
6 157 6 113 8 24 6 176 243 223
6 147 6 113 8 7 6 181 243 224
6 150 6 113 8 12 6 183 243 225
6 148 6 113 8 10 6 176 243 226
6 149 6 114 8 24 6 174 243 227
6 147 6 112 8 19 6 173 243 228
6 147 6 113 8 21 6 175 243 229
6 137 6 113 8 14 6 180 243 230
6 147 6 113 8 14 6 181 243 231
6 143 6 113 8 13 6 162 243 232
6 149 6 113 8 20 6 170 243 233
6 151 6 113 8 20 6 173 243 234
6 155 6 113 8 22 6 182 243 235
6 154 6 113 8 12 6 174 243 236
6 152 6 113 8 24 6 170 243 237
6 154 6 113 8 11 6 162 243 238
6 153 6 114 8 20 6 174 243 239
6 153 6 113 8 15 6 179 243 240
6 151 6 113 7 252 6 176 243 241
6 152 6 114 8 10 6 170 243 242
6 156 6 113 8 11 6 152 243 243
6 154 6 113 8 12 6 157 243 244
6 153 6 113 8 23 6 157 243 245
6 149 6 113 8 10 6 179 243 245
6 154 6 114 8 13 6 170 243 247
6 154 6 113 8 18 6 165 243 248
6 160 6 114 7 244 6 163 243 249
6 155 6 113 8 13 6 159 243 250
6 157 6 114 8 19 6 160 243 251
6 153 6 113 8 17 6 183 243 253
6 158 6 113 8 32 6 183 243 254
6 159 6 113 8 17 6 183 243 255
6 152 6 114 8 3 6 180 244 0
6 155 6 114 8 18 6 171 244 1
6 154 6 113 8 17 6 168 244 2
6 153 6 113 8 19 6 168 244 3
6 151 6 113 8 19 6 162 244 5
6 153 6 114 8 16 6 172 244 6
6 148 6 114 8 10 6 176 244 7
6 153 6 113 8 5 6 178 244 8
6 154 6 113 8 0 6 176 244 9
6 156 6 113 8 5 6 185 244 10
6 157 6 114 8 12 6 181 244 11
6 151 6 113 8 19 6 169 244 12
6 151 6 114 7 251 6 189 244 13
6 153 6 113 8 29 6 183 244 14
6 153 6 113 8 7 6 179 244 15
6 152 6 113 8 12 6 178 244 16
6 148 6 114 8 12 6 176 244 17
6 149 6 114 8 11 6 176 244 17
6 149 6 113 8 16 6 176 244 18
6 145 6 114 8 16 6 181 244 19
6 141 6 114 8 28 6 178 244 20
6 152 6 113 8 26 6 172 244 21
6 153 6 113 8 1 6 159 244 22
6 152 6 113 8 37 6 174 244 23
6 154 6 114 8 5 6 194 244 24
6 153 6 113 8 21 6 178 244 25
6 153 6 113 8 18 6 190 244 26
6 148 6 114 8 11 6 178 244 27
6 141 6 114 8 22 6 178 244 27
6 153 6 114 8 16 6 180 244 28
6 154 6 114 8 16 6 169 244 29
6 149 6 114 8 12 6 169 244 30
6 151 6 114 8 13 6 168 244 31
6 153 6 114 8 11 6 188 244 39
6 151 6 114 8 4 6 179 244 40
6 147 6 113 8 11 6 183 244 41
6 162 6 114 8 3 6 173 244 42
6 151 6 113 8 6 6 181 244 43
6 153 6 113 8 2 6 177 244 44
6 154 6 114 8 2 6 174 244 45
6 150 6 114 8 18 6 164 244 46
6 151 6 114 8 18 6 164 244 47
6 155 6 113 8 19 6 179 244 48
6 152 6 114 8 16 6 184 244 49
6 146 6 114 8 26 6 188 244 51
6 158 6 114 8 6 6 181 244 52
6 152 6 113 8 7 6 181 244 53
6 156 6 114 8 13 6 165 244 54
6 152 6 114 8 13 6 151 244 55
6 153 6 114 8 1 6 172 244 57
6 153 6 114 8 9 6 177 244 58
6 154 6 114 8 2 6 162 244 59
6 155 6 114 8 20 6 169 244 60
6 150 6 114 8 10 6 167 244 61
6 168 6 114 8 13 6 190 244 63
6 159 6 114 8 8 6 188 244 64
6 151 6 114 7 254 6 166 244 65
6 149 6 114 8 16 6 151 244 66
6 149 6 113 8 25 6 153 244 67
6 150 6 114 8 13 6 164 244 68
6 152 6 114 8 19 6 175 244 69
6 151 6 114 8 12 6 187 244 71
6 150 6 114 8 6 6 182 244 72
6 154 6 114 8 8 6 192 244 73
6 158 6 114 8 0 6 193 244 74
6 153 6 114 8 15 6 173 244 75
6 152 6 114 8 21 6 179 244 76
6 154 6 114 8 15 6 174 244 77
6 154 6 114 8 11 6 166 244 78
6 156 6 114 8 31 6 181 244 79
6 155 6 114 8 1 6 185 244 80
6 150 6 114 8 7 6 183 244 81
6 153 6 114 8 13 6 182 244 82
6 157 6 114 8 5 6 182 244 82
6 157 6 114 8 7 6 174 244 83
6 147 6 114 8 15 6 173 244 84
6 151 6 114 8 15 6 167 244 88
6 158 6 114 8 18 6 167 244 89
6 154 6 114 8 7 6 183 244 89
6 161 6 114 8 8 6 175 244 90
6 149 6 114 8 11 6 163 244 91
6 146 6 114 8 11 6 148 244 92
6 152 6 114 8 14 6 147 244 93
6 146 6 114 8 14 6 146 244 94
6 150 6 114 8 17 6 144 244 95
6 146 6 114 8 10 6 149 244 96
6 145 6 114 8 17 6 153 244 97
6 143 6 114 8 12 6 143 244 98
6 145 6 114 8 9 6 154 244 99
6 160 6 114 8 11 6 163 244 100
6 148 6 114 8 15 6 151 244 101
6 157 6 114 8 15 6 151 244 102
6 159 6 114 8 15 6 143 244 103
6 156 6 114 8 27 6 152 244 104
6 160 6 114 8 20 6 170 244 105
6 158 6 114 8 18 6 168 244 106
6 154 6 114 8 26 6 146 244 107
6 157 6 115 8 6 6 150 244 108
6 149 6 114 8 3 6 146 244 109
6 149 6 114 8 10 6 137 244 110
6 156 6 114 8 17 6 148 244 111
6 155 6 114 8 9 6 160 244 112
6 159 6 114 8 21 6 147 244 113
6 157 6 115 8 11 6 160 244 114
6 153 6 114 8 19 6 160 244 114
6 158 6 114 8 10 6 173 244 115
6 157 6 114 8 10 6 176 244 116
6 155 6 114 8 11 6 167 244 117
6 154 6 115 8 11 6 147 244 118
6 158 6 114 8 20 6 155 244 119
6 154 6 114 8 13 6 166 244 120
6 161 6 114 8 5 6 168 244 121
6 161 6 115 8 7 6 169 244 122
6 155 6 114 8 22 6 164 244 123
6 154 6 114 8 11 6 164 244 123
6 154 6 114 8 11 6 157 244 124
6 162 6 114 8 9 6 149 244 125
6 154 6 114 7 250 6 165 244 126
6 154 6 114 8 22 6 163 244 127
6 158 6 115 8 36 6 170 244 128
6 159 6 114 8 14 6 173 244 129
6 158 6 114 8 18 6 181 244 130
6 156 6 114 8 14 6 169 244 131
6 158 6 115 8 15 6 180 244 132
6 155 6 114 8 8 6 179 244 133
6 151 6 114 8 28 6 161 244 134
6 151 6 114 8 9 6 163 244 135
6 159 6 115 8 14 6 187 244 136
6 149 6 114 8 14 6 184 244 137
6 157 6 114 8 13 6 170 244 138
6 155 6 115 8 11 6 182 244 139
6 153 6 115 8 16 6 171 244 141
6 161 6 114 8 6 6 173 244 142
6 149 6 114 8 21 6 158 244 143
6 146 6 114 8 7 6 157 244 144
6 148 6 115 8 10 6 157 244 145
6 163 6 114 8 22 6 162 244 146
6 155 6 114 8 10 6 162 244 146
6 155 6 114 8 14 6 165 244 147
6 151 6 114 8 17 6 181 244 148
6 153 6 115 8 23 6 171 244 149
6 151 6 114 8 23 6 168 244 150
6 152 6 114 8 15 6 159 244 151
6 152 6 114 8 10 6 168 244 152
6 151 6 115 8 19 6 171 244 153
6 153 6 114 8 19 6 174 244 154
6 146 6 115 8 10 6 168 244 155
6 150 6 115 8 13 6 169 244 156
6 153 6 115 8 28 6 173 244 157
6 154 6 115 8 12 6 183 244 158
6 152 6 114 8 11 6 183 244 159
6 154 6 115 8 15 6 191 244 160
6 152 6 115 8 24 6 197 244 161
6 154 6 115 7 253 6 190 244 162
6 154 6 115 8 19 6 179 244 163
6 151 6 115 8 20 6 179 244 164
6 151 6 114 8 7 6 164 244 165
6 156 6 115 8 28 6 174 244 166
6 151 6 115 8 13 6 180 244 167
6 147 6 115 8 9 6 194 244 168
6 153 6 115 8 15 6 192 244 169
6 147 6 114 7 255 6 198 244 170
6 151 6 115 8 14 6 194 244 171
6 153 6 115 8 14 6 194 244 172
6 167 6 115 8 8 6 191 244 173
6 162 6 114 8 12 6 191 244 173
6 152 6 115 8 15 6 169 244 174
6 159 6 115 8 25 6 176 244 175
6 153 6 115 8 20 6 186 244 176
6 156 6 115 8 20 6 192 244 177
6 153 6 115 8 13 6 188 244 178
6 153 6 115 8 20 6 200 244 179
6 147 6 115 8 20 6 184 244 180
6 149 6 115 8 8 6 190 244 181
6 149 6 114 8 19 6 185 244 182
6 151 6 114 7 245 6 179 244 183
6 157 6 115 8 1 6 187 244 184
6 156 6 115 8 27 6 182 244 185
6 156 6 115 8 21 6 180 244 186
6 154 6 114 8 32 6 193 244 187
6 147 6 115 8 25 6 194 244 188
6 157 6 115 8 18 6 170 244 189
6 159 6 115 8 21 6 177 244 190
6 159 6 115 8 14 6 196 244 191
6 146 6 114 8 14 6 196 244 192
6 148 6 115 8 14 6 183 244 192
6 149 6 115 8 13 6 175 244 193
6 150 6 115 8 20 6 178 244 194
6 152 6 115 8 20 6 185 244 195
6 153 6 115 8 20 6 187 244 196
6 156 6 115 7 243 6 184 244 197
6 156 6 115 8 29 6 186 244 198
6 150 6 115 8 19 6 187 244 199
6 156 6 115 8 23 6 187 244 199
6 149 6 115 8 23 6 186 244 200
6 150 6 115 7 252 6 186 244 201
6 150 6 115 8 10 6 184 244 202
6 153 6 115 8 19 6 169 244 203
6 160 6 115 8 11 6 169 244 203
6 156 6 115 8 11 6 189 244 204
6 152 6 114 8 12 6 187 244 205
6 152 6 114 8 3 6 183 244 206
6 152 6 115 8 24 6 173 244 207
6 142 6 115 8 11 6 186 244 208
6 156 6 116 8 18 6 186 244 209
6 155 6 115 8 22 6 185 244 209
6 146 6 115 8 22 6 186 244 210
6 147 6 115 8 11 6 187 244 211
6 152 6 115 8 15 6 183 244 214
6 143 6 115 8 34 6 193 244 215
6 160 6 115 8 1 6 193 244 216
6 154 6 115 8 7 6 183 244 216
6 148 6 115 8 20 6 187 244 217
6 153 6 115 8 20 6 189 244 218
6 156 6 115 8 12 6 181 244 219
6 153 6 114 8 39 6 184 244 220
6 154 6 115 8 22 6 171 244 221
6 149 6 115 8 24 6 177 244 222
6 153 6 115 8 11 6 173 244 224
6 154 6 114 8 14 6 174 244 225
6 153 6 115 8 27 6 188 244 226
6 156 6 115 8 15 6 193 244 227
6 155 6 115 8 14 6 175 244 228
6 154 6 114 8 15 6 182 244 230
6 154 6 115 8 22 6 186 244 230
6 154 6 115 8 7 6 194 244 231
6 150 6 115 8 20 6 195 244 232
6 149 6 115 8 13 6 189 244 234
6 151 6 115 8 9 6 185 244 235
6 154 6 115 8 24 6 199 244 236
6 157 6 115 8 23 6 183 244 237
6 156 6 115 8 20 6 192 244 238
6 153 6 115 8 7 6 192 244 239
6 152 6 115 8 6 6 177 244 240
6 156 6 115 8 13 6 184 244 241
6 151 6 115 8 2 6 189 244 242
6 153 6 115 8 13 6 197 244 243
6 152 6 115 8 21 6 194 244 244
6 152 6 115 8 21 6 182 244 245
6 153 6 115 8 13 6 174 244 246
6 151 6 115 8 12 6 168 244 247
6 155 6 115 8 23 6 162 244 248
6 154 6 115 8 11 6 169 244 249
6 150 6 115 8 26 6 169 244 249
6 167 6 115 8 10 6 173 244 250
6 140 6 116 8 4 6 193 244 251
6 165 6 115 8 0 6 181 244 253
6 162 6 116 8 11 6 181 244 254
6 154 6 115 8 25 6 197 244 254
6 150 6 116 8 15 6 203 244 255
6 154 6 115 8 8 6 182 245 0
6 168 6 116 8 14 6 166 245 1
6 152 6 115 8 14 6 159 245 2
6 154 6 115 8 7 6 180 245 3
6 154 6 116 8 10 6 184 245 4
6 151 6 115 8 8 6 184 245 5
6 154 6 115 7 245 6 192 245 6
6 155 6 115 7 235 6 188 245 7
6 151 6 115 7 239 6 194 245 8
6 151 6 115 8 27 6 177 245 9
6 152 6 115 8 37 6 173 245 10
6 156 6 115 8 6 6 178 245 11
6 154 6 115 8 33 6 176 245 12
6 156 6 115 8 27 6 170 245 13
6 155 6 115 8 26 6 168 245 14
6 150 6 115 8 9 6 169 245 15
6 151 6 116 8 18 6 167 245 17
6 141 6 116 8 10 6 190 245 18
6 159 6 115 8 2 6 186 245 19
6 155 6 115 8 7 6 168 245 20
6 150 6 115 8 17 6 182 245 21
6 151 6 115 8 8 6 201 245 22
6 155 6 116 8 11 6 186 245 23
6 150 6 116 8 4 6 176 245 25
6 153 6 115 8 1 6 171 245 26
6 148 6 116 8 15 6 165 245 27
6 154 6 115 8 18 6 181 245 28
6 150 6 115 8 26 6 183 245 29
6 153 6 115 8 38 6 170 245 30
6 156 6 115 8 40 6 187 245 31
6 156 6 115 8 18 6 189 245 32
6 151 6 115 8 15 6 180 245 33
6 155 6 115 8 28 6 190 245 34
6 147 6 116 8 34 6 189 245 35
6 149 6 115 8 28 6 177 245 36
6 147 6 115 8 32 6 185 245 37
6 149 6 116 8 20 6 202 245 38
6 153 6 115 8 12 6 198 245 39
6 141 6 116 8 15 6 198 245 39
6 152 6 115 8 15 6 186 245 40
6 150 6 115 8 13 6 178 245 41
6 151 6 115 8 21 6 165 245 42
6 151 6 115 8 31 6 168 245 43
6 151 6 116 8 7 6 168 245 44
6 141 6 116 8 19 6 168 245 44
6 154 6 115 8 19 6 178 245 45
6 149 6 115 8 19 6 191 245 46
6 149 6 116 8 29 6 186 245 47
6 147 6 115 7 250 6 191 245 48
6 146 6 116 8 26 6 191 245 49
6 165 6 116 8 19 6 174 245 49
6 160 6 115 8 19 6 180 245 50
6 154 6 115 7 245 6 179 245 51
6 153 6 116 8 8 6 175 245 52
6 153 6 115 7 241 6 172 245 53
6 153 6 116 8 16 6 164 245 54
6 160 6 115 8 7 6 164 245 54
6 159 6 115 8 7 6 166 245 55
6 150 6 116 8 16 6 182 245 56
6 142 6 116 8 17 6 200 245 57
6 152 6 116 8 31 6 193 245 58
6 154 6 115 7 255 6 184 245 59
6 154 6 115 7 253 6 181 245 60