8 42 8 36 9 191 8 78 0 0
8 37 8 36 9 208 8 77 0 0
8 46 8 35 9 193 8 76 0 0
8 39 8 35 9 197 8 77 0 0
8 48 8 35 9 186 8 77 0 0
8 44 8 35 9 182 8 78 0 0
8 35 8 35 9 220 8 79 0 0
8 38 8 34 9 182 8 76 0 0
8 23 8 34 9 182 8 74 0 0
8 38 8 34 9 202 8 75 0 0
8 45 8 34 9 199 8 75 0 0
8 43 8 33 9 193 8 78 0 0
8 36 8 34 9 190 8 79 0 0
8 54 8 33 9 197 8 80 0 0
8 44 8 33 9 198 8 75 0 0
8 45 8 33 9 211 8 76 0 0
8 43 8 34 9 202 8 77 0 0
8 42 8 33 9 198 8 79 0 0
8 43 8 33 9 189 8 77 0 0
8 45 8 32 9 201 8 79 0 0
8 42 8 32 9 202 8 79 0 0
8 41 8 32 9 196 8 82 0 0
8 45 8 32 9 200 8 81 0 0
8 45 8 32 9 200 8 81 0 0
8 44 8 32 9 200 8 86 0 0
8 40 8 32 9 194 8 80 0 0
8 43 8 31 9 191 8 81 0 0
8 44 8 31 9 203 8 76 0 0
8 39 8 31 9 198 8 78 0 0
8 45 8 31 9 197 8 76 0 0
8 39 8 31 9 191 8 77 0 0
8 42 8 31 9 195 8 77 0 0
8 46 8 31 9 198 8 75 0 0
8 45 8 31 9 199 8 79 0 0
8 43 8 31 9 200 8 78 0 0
8 43 8 31 9 198 8 76 0 0
8 41 8 31 9 205 8 76 0 0
8 35 8 31 9 216 8 77 0 0
8 42 8 30 9 209 8 78 0 0
8 38 8 31 9 190 8 79 0 0
8 40 8 31 9 202 8 79 0 0
8 41 8 30 9 196 8 76 0 0
8 47 8 31 9 202 8 79 0 0
8 42 8 31 9 201 8 77 0 0
8 42 8 30 9 194 8 85 0 0
8 47 8 30 9 199 8 82 0 0
8 43 8 29 9 192 8 73 0 0
8 43 8 30 9 198 8 77 0 0
8 42 8 30 9 201 8 77 0 0
8 47 8 30 9 197 8 76 0 0
8 45 8 30 9 188 8 78 0 0
8 50 8 29 9 202 8 77 0 0
8 42 8 30 9 190 8 79 0 0
8 46 8 30 9 225 8 77 0 0
8 37 8 29 9 203 8 77 0 0
8 27 8 22 9 176 8 70 0 0
8 29 8 22 9 191 8 69 0 0
8 41 8 23 9 214 8 71 0 0
8 58 8 23 9 210 8 70 0 0
8 50 8 23 9 194 8 72 0 0
8 33 8 23 9 192 8 71 0 0
8 50 8 24 9 190 8 72 0 0
8 42 8 24 9 197 8 73 0 0
8 44 8 24 9 195 8 73 0 0
8 42 8 24 9 192 8 71 0 0
8 39 8 26 9 204 8 70 0 0
8 44 8 25 9 197 8 70 0 0
8 41 8 24 9 206 8 71 0 0
8 44 8 25 9 197 8 73 0 0
8 39 8 24 9 193 8 71 0 0
8 46 8 24 9 205 8 70 0 0
8 45 8 25 9 193 8 71 0 0
8 44 8 24 9 193 8 73 0 0
8 35 8 25 9 199 8 71 0 0
8 40 8 26 9 199 8 71 0 0
8 45 8 26 9 195 8 72 0 0
8 43 8 26 9 193 8 71 0 0
8 44 8 26 9 200 8 72 0 0
8 30 8 26 9 180 8 71 0 0
8 40 8 26 9 199 8 70 0 0
8 37 8 26 9 200 8 72 0 0
8 65 8 26 9 215 8 70 0 0
8 39 8 26 9 202 8 72 0 0
8 41 8 27 9 203 8 71 0 0
8 44 8 26 9 207 8 69 0 0
8 41 8 26 9 200 8 71 0 0
8 33 8 26 9 194 8 70 0 0
8 43 8 27 9 198 8 72 0 0
8 40 8 27 9 195 8 73 0 0
8 37 8 26 9 194 8 72 0 0
8 42 8 27 9 189 8 70 0 0
8 42 8 26 9 190 8 69 0 0
8 40 8 26 9 195 8 69 0 0
8 47 8 26 9 202 8 68 0 0
8 44 8 27 9 183 8 70 0 0
8 43 8 27 9 199 8 70 0 0
8 49 8 27 9 198 8 71 0 0
8 38 8 27 9 213 8 71 0 0
8 44 8 26 9 178 8 71 0 0
8 46 8 27 9 193 8 70 0 0
8 37 8 27 9 191 8 68 0 0
8 37 8 27 9 199 8 69 0 0
8 50 8 27 9 205 8 70 0 0
8 47 8 27 9 198 8 70 0 0
8 41 8 27 9 196 8 71 0 0
8 45 8 27 9 189 8 71 0 0
8 43 8 27 9 200 8 70 0 0
8 41 8 27 9 199 8 71 0 0
8 44 8 27 9 197 8 70 0 0
8 32 8 27 9 185 8 71 0 0
8 38 8 27 9 195 8 72 0 0
8 43 8 28 9 200 8 70 0 0
8 46 8 28 9 197 8 69 0 0
8 42 8 28 9 209 8 70 0 0
8 47 8 27 9 197 8 72 0 0
8 41 8 27 9 193 8 71 0 0
8 43 8 28 9 194 8 69 0 0
8 42 8 34 9 197 8 80 0 0
8 38 8 35 9 198 8 80 0 0
8 46 8 34 9 204 8 80 0 0
8 57 8 34 9 226 8 79 0 0
8 43 8 34 9 189 8 76 0 0
8 39 8 34 9 199 8 76 0 0
8 42 8 33 9 200 8 75 0 0
8 41 8 33 9 195 8 76 0 0
8 37 8 32 9 197 8 77 0 0
8 40 8 32 9 196 8 77 0 0
8 40 8 33 9 194 8 79 0 0
8 41 8 33 9 202 8 79 0 0
8 41 8 32 9 196 8 77 0 0
8 38 8 32 9 197 8 78 0 0
8 43 8 32 9 203 8 79 0 0
8 46 8 32 9 202 8 79 0 0
8 41 8 32 9 200 8 76 0 0
8 46 8 32 9 209 8 77 0 0
8 46 8 33 9 197 8 79 0 0
8 46 8 32 9 193 8 78 0 0
8 40 8 32 9 208 8 74 0 0
8 49 8 31 9 195 8 77 0 0
8 38 8 31 9 203 8 66 0 0
8 41 8 31 9 201 8 80 0 0
8 43 8 31 9 190 8 76 0 0
8 49 8 31 9 201 8 70 0 0
8 39 8 31 9 193 8 79 0 0
8 42 8 31 9 194 8 78 0 0
8 43 8 31 9 193 8 78 0 0
8 40 8 31 9 198 8 76 0 0
8 44 8 31 9 197 8 79 0 0
8 40 8 30 9 199 8 79 0 0
8 39 8 30 9 201 8 79 0 0
8 40 8 31 9 201 8 76 0 0
8 43 8 30 9 200 8 77 0 0
8 42 8 31 9 195 8 75 0 0
8 41 8 30 9 199 8 77 0 0
8 43 8 30 9 194 8 78 0 0
8 44 8 30 9 196 8 78 0 0
8 41 8 30 9 208 8 80 0 0
8 36 8 30 9 191 8 79 0 0
8 39 8 30 9 200 8 78 0 0
8 44 8 30 9 206 8 81 0 0
8 50 8 30 9 208 8 77 0 0
8 41 8 30 9 196 8 76 0 0
8 43 8 29 9 201 8 81 0 0
8 45 8 29 9 194 8 78 0 0
8 42 8 30 9 194 8 69 0 0
8 40 8 29 9 198 8 77 0 0
8 36 8 30 9 197 8 77 0 0
8 38 8 30 9 220 8 78 0 0
8 41 8 30 9 203 8 78 0 0
8 44 8 29 9 206 8 77 0 0
8 32 8 30 9 212 8 78 0 0
8 44 8 30 9 196 8 78 0 0
8 43 8 22 9 198 8 69 0 0
8 41 8 22 9 202 8 70 0 0
8 39 8 22 9 199 8 70 0 0
8 51 8 23 9 195 8 72 0 0
8 41 8 23 9 199 8 70 0 0
8 41 8 23 9 198 8 70 0 0
8 44 8 24 9 198 8 71 0 0
8 46 8 24 9 186 8 71 0 0
8 40 8 24 9 193 8 71 0 0
8 43 8 24 9 197 8 71 0 0
8 47 8 24 9 192 8 70 0 0
8 42 8 24 9 196 8 69 0 0
8 47 8 24 9 195 8 71 0 0
8 44 8 24 9 198 8 69 0 0
8 44 8 24 9 194 8 71 0 0
8 45 8 24 9 200 8 72 0 0
8 38 8 24 9 193 8 71 0 0
8 46 8 24 9 192 8 71 0 0
8 47 8 24 9 201 8 71 0 0
8 49 8 25 9 196 8 69 0 0
8 42 8 25 9 206 8 72 0 0
8 44 8 25 9 201 8 72 0 0
8 39 8 26 9 207 8 71 0 0
8 43 8 26 9 186 8 71 0 0
8 45 8 25 9 209 8 72 0 0
8 38 8 26 9 188 8 71 0 0
8 42 8 26 9 207 8 70 0 0
8 32 8 25 9 194 8 71 0 0
8 46 8 26 9 196 8 70 0 0
8 42 8 26 9 197 8 72 0 0
8 39 8 26 9 204 8 72 0 0
8 47 8 26 9 195 8 70 0 0
8 45 8 26 9 204 8 71 0 0
8 43 8 27 9 194 8 71 0 0
8 43 8 28 9 211 8 71 0 0
8 45 8 27 9 192 8 72 0 0
8 43 8 26 9 185 8 71 0 0
8 38 8 26 9 197 8 71 0 0
8 42 8 26 9 189 8 69 0 0
8 39 8 26 9 197 8 70 0 0
8 43 8 26 9 206 8 70 0 0
8 36 8 26 9 194 8 71 0 0
8 46 8 26 9 193 8 70 0 0
8 38 8 26 9 205 8 69 0 0
8 36 8 26 9 195 8 68 0 0
8 41 8 27 9 198 8 68 0 0
8 45 8 27 9 203 8 68 0 0
8 48 8 27 9 198 8 68 0 0
8 42 8 27 9 203 8 69 0 0
8 43 8 27 9 199 8 69 0 0
8 44 8 26 9 200 8 70 0 0
8 43 8 28 9 198 8 70 0 0
8 40 8 28 9 194 8 72 0 0
8 43 8 27 9 193 8 72 0 0
8 43 8 27 9 198 8 72 0 0
8 41 8 28 9 202 8 71 0 0
8 44 8 28 9 181 8 71 0 0
8 39 8 28 9 198 8 73 0 0
8 38 8 28 9 195 8 73 0 0
8 41 8 28 9 194 8 71 0 0
8 36 8 28 9 200 8 67 0 0
8 39 8 27 9 198 8 68 0 0
8 42 8 27 9 194 8 68 0 0
8 38 8 27 9 193 8 69 0 0
8 40 8 34 9 200 8 79 0 0
8 45 8 35 9 199 8 83 0 0
8 45 8 35 9 200 8 77 0 0
8 44 8 35 9 197 8 76 0 0
8 40 8 33 9 199 8 88 0 0
8 41 8 34 9 196 8 78 0 0
8 44 8 34 9 198 8 77 0 0
8 42 8 34 9 195 8 78 0 0
8 41 8 34 9 194 8 76 0 0
8 44 8 33 9 204 8 79 0 0
8 43 8 33 9 198 8 80 0 0
8 40 8 33 9 197 8 77 0 0
8 39 8 32 9 200 8 77 0 0
8 44 8 32 9 203 8 75 0 0
8 43 8 32 9 203 8 77 0 0
8 43 8 33 9 193 8 78 0 0
8 43 8 32 9 198 8 76 0 0
8 39 8 32 9 185 8 77 0 0
8 41 8 33 9 202 8 76 0 0
8 40 8 31 9 203 8 72 0 0
8 38 8 32 9 215 8 76 0 0
8 44 8 31 9 194 8 77 0 0
8 43 8 31 9 198 8 77 0 0
8 45 8 32 9 202 8 79 0 0
8 48 8 31 9 202 8 80 0 0
8 43 8 31 9 199 8 81 0 0
8 43 8 31 9 198 8 81 0 0
8 44 8 32 9 191 8 77 0 0
8 46 8 31 9 196 8 78 0 0
8 41 8 31 9 197 8 78 0 0
8 44 8 31 9 197 8 72 0 0
8 41 8 31 9 197 8 74 0 0
8 43 8 31 9 197 8 75 0 0
8 42 8 31 9 201 8 77 0 0
8 45 8 31 9 199 8 80 0 0
8 41 8 31 9 193 8 78 0 0
8 37 8 31 9 203 8 78 0 0
8 44 8 31 9 195 8 80 0 0
8 45 8 31 9 201 8 80 0 0
8 39 8 30 9 197 8 78 0 0
8 43 8 31 9 186 8 79 0 0
8 34 8 31 9 203 8 78 0 0
8 48 8 31 9 194 8 77 0 0
8 41 8 30 9 190 8 76 0 0
8 34 8 30 9 196 8 76 0 0
8 42 8 30 9 197 8 76 0 0
8 46 8 30 9 198 8 74 0 0
8 42 8 30 9 209 8 79 0 0
8 39 8 30 9 189 8 72 0 0
8 43 8 30 9 199 8 78 0 0
8 44 8 30 9 198 8 79 0 0
8 40 8 30 9 201 8 76 0 0
8 43 8 30 9 198 8 76 0 0
8 44 8 30 9 191 8 77 0 0
8 45 8 30 9 198 8 77 0 0
8 42 8 30 9 198 8 78 0 0
8 39 8 30 9 193 8 70 0 0
8 40 8 22 9 191 8 69 0 0
8 44 8 22 9 197 8 69 0 0
8 43 8 23 9 204 8 70 0 0
8 40 8 23 9 202 8 70 0 0
8 42 8 23 9 199 8 68 0 0
8 42 8 23 9 200 8 69 0 0
8 47 8 23 9 207 8 68 0 0
8 45 8 24 9 201 8 71 0 0
8 57 8 25 9 196 8 72 0 0
8 44 8 25 9 203 8 72 0 0
8 43 8 24 9 199 8 71 0 0
8 41 8 25 9 195 8 70 0 0
8 46 8 25 9 190 8 69 0 0
8 41 8 25 9 193 8 70 0 0
8 42 8 25 9 206 8 69 0 0
8 42 8 25 9 201 8 70 0 0
8 40 8 26 9 201 8 71 0 0
8 42 8 26 9 204 8 71 0 0
8 40 8 25 9 208 8 71 0 0
8 37 8 26 9 200 8 71 0 0
8 45 8 26 9 195 8 70 0 0
8 41 8 26 9 194 8 71 0 0
8 47 8 26 9 199 8 72 0 0
8 43 8 26 9 196 8 70 0 0
8 41 8 26 9 194 8 71 0 0
8 46 8 26 9 186 8 70 0 0
8 43 8 27 9 195 8 71 0 0
8 60 8 27 9 208 8 70 0 0
8 42 8 27 9 203 8 71 0 0
8 37 8 27 9 190 8 71 0 0
8 38 8 26 9 190 8 71 0 0
8 40 8 27 9 197 8 71 0 0
8 43 8 27 9 200 8 69 0 0
8 43 8 27 9 196 8 69 0 0
8 41 8 27 9 190 8 70 0 0
8 49 8 27 9 201 8 70 0 0
8 40 8 27 9 199 8 71 0 0
8 40 8 27 9 208 8 73 0 0
8 39 8 27 9 194 8 72 0 0
8 42 8 27 9 203 8 73 0 0
8 41 8 27 9 199 8 71 0 0
8 41 8 27 9 195 8 72 0 0
8 44 8 27 9 192 8 72 0 0
8 42 8 27 9 190 8 70 0 0
8 45 8 28 9 199 8 71 0 0
8 43 8 27 9 194 8 69 0 0
8 41 8 28 9 201 8 68 0 0
8 38 8 27 9 202 8 70 0 0
8 41 8 28 9 207 8 71 0 0
8 44 8 28 9 196 8 71 0 0
8 48 8 28 9 203 8 72 0 0
8 46 8 28 9 186 8 73 0 0
8 44 8 28 9 196 8 72 0 0
8 43 8 28 9 191 8 71 0 0
8 39 8 28 9 199 8 70 0 0
8 37 8 27 9 196 8 68 0 0
8 40 8 27 9 198 8 67 0 0
8 38 8 27 9 192 8 70 0 0
8 42 8 35 9 193 8 74 0 0
8 38 8 35 9 202 8 75 0 0
8 43 8 35 9 197 8 74 0 0
8 43 8 35 9 198 8 75 0 0
8 42 8 33 9 201 8 65 0 0
8 42 8 34 9 196 8 76 0 0
8 39 8 34 9 201 8 79 0 0
8 43 8 34 9 196 8 79 0 0
8 41 8 33 9 200 8 78 0 0
8 42 8 33 9 196 8 77 0 0
8 41 8 33 9 198 8 74 0 0
8 38 8 33 9 197 8 76 0 0
8 40 8 33 9 195 8 75 0 0
8 41 8 33 9 199 8 78 0 0
8 43 8 33 9 203 8 76 0 0
8 43 8 33 9 205 8 77 0 0
8 39 8 33 9 199 8 78 0 0
8 42 8 33 9 196 8 79 0 0
8 43 8 33 9 201 8 78 0 0
8 36 8 32 9 201 8 79 0 0
8 38 8 32 9 199 8 75 0 0
8 44 8 31 9 195 8 77 0 0
8 40 8 32 9 203 8 77 0 0
8 41 8 32 9 203 8 66 0 0
8 43 8 32 9 190 8 75 0 0
8 36 8 31 9 191 8 71 0 0
8 40 8 31 9 200 8 70 0 0
8 38 8 31 9 198 8 77 0 0
8 40 8 31 9 196 8 77 0 0
8 40 8 31 9 199 8 76 0 0
8 42 8 31 9 198 8 74 0 0
8 44 8 31 9 198 8 75 0 0
8 45 8 31 9 198 8 77 0 0
8 41 8 31 9 201 8 79 0 0
8 44 8 31 9 198 8 77 0 0
8 41 8 31 9 191 8 80 0 0
8 46 8 31 9 201 8 80 0 0
8 39 8 31 9 193 8 79 0 0
8 43 8 31 9 200 8 77 0 0
8 43 8 31 9 193 8 78 0 0
8 43 8 31 9 180 8 78 0 0
8 36 8 31 9 194 8 78 0 0
8 48 8 31 9 206 8 76 0 0
8 47 8 31 9 196 8 76 0 0
8 40 8 30 9 195 8 79 0 0
8 39 8 30 9 195 8 75 0 0
8 39 8 31 9 199 8 76 0 0
8 41 8 30 9 194 8 79 0 0
8 50 8 30 9 197 8 81 0 0
8 43 8 30 9 195 8 77 0 0
8 43 8 30 9 198 8 78 0 0
8 42 8 30 9 197 8 76 0 0
8 44 8 30 9 200 8 73 0 0
8 42 8 30 9 204 8 76 0 0
8 47 8 30 9 199 8 75 0 0
8 43 8 30 9 197 8 78 0 0
8 40 8 30 9 196 8 76 0 0
8 44 8 30 9 199 8 76 0 0
8 43 8 30 9 202 8 70 0 0
8 49 8 23 9 181 8 74 0 0
8 43 8 24 9 191 8 69 0 0
8 39 8 24 9 196 8 71 0 0
8 30 8 23 9 208 8 70 0 0
8 45 8 24 9 195 8 71 0 0
8 42 8 24 9 197 8 72 0 0
8 40 8 24 9 208 8 72 0 0
8 43 8 24 9 194 8 71 0 0
8 40 8 24 9 199 8 70 0 0
8 40 8 24 9 197 8 68 0 0
8 43 8 24 9 193 8 71 0 0
8 44 8 24 9 202 8 71 0 0
8 43 8 24 9 198 8 74 0 0
8 43 8 25 9 190 8 73 0 0
8 46 8 26 9 192 8 69 0 0
8 48 8 25 9 197 8 71 0 0
8 43 8 26 9 202 8 71 0 0
8 33 8 25 9 208 8 73 0 0
8 46 8 26 9 195 8 73 0 0
8 44 8 26 9 196 8 71 0 0
8 45 8 26 9 198 8 73 0 0
8 41 8 26 9 195 8 71 0 0
8 45 8 27 9 200 8 71 0 0
8 41 8 26 9 199 8 72 0 0
8 38 8 27 9 197 8 73 0 0
8 40 8 26 9 194 8 74 0 0
8 27 8 26 9 172 8 71 0 0
8 34 8 27 9 208 8 72 0 0
8 38 8 27 9 202 8 72 0 0
8 44 8 27 9 208 8 73 0 0
8 43 8 27 9 205 8 72 0 0
8 36 8 27 9 196 8 72 0 0
8 43 8 26 9 203 8 71 0 0
8 41 8 27 9 200 8 73 0 0
8 42 8 26 9 188 8 69 0 0
8 41 8 26 9 195 8 73 0 0
8 38 8 26 9 201 8 73 0 0
8 39 8 27 9 201 8 74 0 0
8 44 8 27 9 192 8 72 0 0
8 44 8 26 9 205 8 72 0 0
8 42 8 27 9 202 8 69 0 0
8 43 8 27 9 198 8 69 0 0
8 51 8 27 9 196 8 71 0 0
8 43 8 27 9 198 8 69 0 0
8 40 8 27 9 203 8 69 0 0
8 48 8 28 9 194 8 70 0 0
8 41 8 28 9 196 8 72 0 0
8 40 8 27 9 201 8 71 0 0
8 41 8 27 9 196 8 71 0 0
8 41 8 27 9 193 8 69 0 0
8 43 8 28 9 201 8 69 0 0
8 50 8 28 9 225 8 70 0 0
8 44 8 28 9 201 8 71 0 0
8 43 8 28 9 200 8 71 0 0
8 49 8 28 9 196 8 72 0 0
8 40 8 28 9 196 8 72 0 0
8 47 8 28 9 201 8 72 0 0
8 47 8 27 9 193 8 70 0 0
8 43 8 27 9 195 8 71 0 0
8 43 8 27 9 195 8 69 0 0
8 43 8 27 9 210 8 69 0 0
8 45 8 34 9 201 8 76 0 0
8 38 8 34 9 195 8 76 0 0
8 41 8 34 9 198 8 70 0 0
8 43 8 34 9 193 8 75 0 0
8 40 8 34 9 201 8 77 0 0
8 39 8 34 9 198 8 79 0 0
8 43 8 34 9 197 8 75 0 0
8 40 8 34 9 194 8 76 0 0
8 42 8 33 9 199 8 78 0 0
8 45 8 33 9 200 8 77 0 0
8 43 8 34 9 193 8 78 0 0
8 42 8 33 9 193 8 78 0 0
8 42 8 32 9 202 8 78 0 0
8 43 8 33 9 205 8 79 0 0
8 39 8 33 9 191 8 77 0 0
8 32 8 33 9 195 8 78 0 0
8 45 8 32 9 182 8 75 0 0
8 41 8 32 9 190 8 78 0 0
8 33 8 31 9 192 8 75 0 0
8 40 8 31 9 201 8 76 0 0
8 41 8 31 9 197 8 79 0 0
8 49 8 31 9 205 8 78 0 0
8 44 8 31 9 200 8 85 0 0
8 44 8 31 9 202 8 77 0 0
8 41 8 31 9 197 8 77 0 0
8 41 8 31 9 200 8 77 0 0
8 43 8 32 9 200 8 79 0 0
8 40 8 31 9 196 8 78 0 0
8 42 8 31 9 203 8 74 0 0
8 40 8 31 9 198 8 73 0 0
8 42 8 31 9 194 8 75 0 0
8 43 8 31 9 201 8 77 0 0
8 44 8 31 9 193 8 77 0 0
8 42 8 31 9 193 8 75 0 0
8 42 8 30 9 196 8 76 0 0
8 41 8 31 9 200 8 77 0 0
8 45 8 31 9 196 8 77 0 0
8 42 8 31 9 191 8 79 0 0
8 39 8 31 9 191 8 78 0 0
8 46 8 32 9 198 8 77 0 0
8 40 8 30 9 216 8 76 0 0
8 43 8 30 9 197 8 76 0 0
8 42 8 30 9 198 8 71 0 0
8 47 8 30 9 193 8 80 0 0
8 43 8 30 9 205 8 77 0 0
8 46 8 30 9 200 8 79 0 0
8 45 8 30 9 201 8 85 0 0
8 44 8 31 9 204 8 76 0 0
8 44 8 30 9 198 8 80 0 0
8 43 8 30 9 195 8 73 0 0
8 40 8 30 9 194 8 74 0 0
8 42 8 30 9 200 8 76 0 0
8 40 8 29 9 190 8 78 0 0
8 39 8 30 9 192 8 76 0 0
8 40 8 30 9 199 8 75 0 0
8 39 8 30 9 193 8 77 0 0
8 38 8 30 9 200 8 75 0 0
8 41 8 23 9 206 8 71 0 0
8 41 8 23 9 206 8 71 0 0
8 40 8 23 9 201 8 71 0 0
8 47 8 24 9 211 8 71 0 0
8 40 8 24 9 200 8 70 0 0
8 46 8 24 9 198 8 70 0 0
8 44 8 25 9 190 8 71 0 0
8 38 8 24 9 192 8 68 0 0
8 45 8 25 9 204 8 70 0 0
8 45 8 24 9 197 8 70 0 0
8 42 8 24 9 199 8 71 0 0
8 49 8 25 9 198 8 71 0 0
8 43 8 25 9 189 8 71 0 0
8 41 8 25 9 202 8 71 0 0
8 41 8 25 9 193 8 72 0 0
8 47 8 25 9 206 8 72 0 0
8 40 8 26 9 197 8 71 0 0
8 42 8 25 9 195 8 70 0 0
8 45 8 26 9 198 8 72 0 0
8 41 8 26 9 194 8 73 0 0
8 45 8 26 9 192 8 71 0 0
8 41 8 26 9 197 8 71 0 0
8 42 8 26 9 199 8 70 0 0
8 38 8 26 9 201 8 71 0 0
8 44 8 26 9 201 8 71 0 0
8 42 8 26 9 198 8 70 0 0
8 41 8 26 9 194 8 70 0 0
8 44 8 26 9 198 8 70 0 0
8 32 8 27 9 189 8 71 0 0
8 36 8 27 9 195 8 73 0 0
8 43 8 27 9 193 8 69 0 0
8 41 8 27 9 206 8 72 0 0
8 45 8 26 9 195 8 72 0 0
8 43 8 26 9 205 8 73 0 0
8 47 8 27 9 206 8 71 0 0
8 41 8 27 9 200 8 70 0 0
8 37 8 26 9 192 8 71 0 0
8 45 8 27 9 209 8 73 0 0
8 41 8 27 9 187 8 74 0 0
8 47 8 27 9 193 8 73 0 0
8 56 8 27 9 205 8 70 0 0
8 42 8 27 9 204 8 70 0 0
8 47 8 28 9 198 8 71 0 0
8 44 8 28 9 198 8 69 0 0
8 39 8 28 9 190 8 69 0 0
8 42 8 28 9 196 8 70 0 0
8 44 8 28 9 199 8 70 0 0
8 40 8 28 9 200 8 71 0 0
8 47 8 27 9 202 8 71 0 0
8 44 8 27 9 207 8 69 0 0
8 45 8 27 9 201 8 69 0 0
8 45 8 28 9 210 8 69 0 0
8 44 8 28 9 201 8 73 0 0
8 34 8 28 9 197 8 73 0 0
8 39 8 28 9 193 8 72 0 0
8 37 8 28 9 193 8 71 0 0
8 42 8 28 9 196 8 70 0 0
8 38 8 28 9 192 8 70 0 0
8 40 8 27 9 195 8 70 0 0
8 44 8 28 9 189 8 70 0 0
8 43 8 28 9 198 8 70 0 0
8 42 8 34 9 197 8 78 0 0
8 44 8 35 9 198 8 75 0 0
8 40 8 35 9 196 8 76 0 0
8 41 8 35 9 196 8 75 0 0
8 42 8 34 9 202 8 77 0 0
8 43 8 34 9 200 8 79 0 0
8 42 8 35 9 196 8 78 0 0
8 43 8 34 9 201 8 75 0 0
8 40 8 33 9 200 8 78 0 0
8 44 8 33 9 201 8 81 0 0
8 44 8 33 9 194 8 77 0 0
8 40 8 33 9 197 8 78 0 0
8 43 8 33 9 202 8 79 0 0
8 40 8 33 9 196 8 80 0 0
8 43 8 32 9 192 8 77 0 0
8 46 8 33 9 200 8 79 0 0
8 43 8 31 9 194 8 79 0 0
8 43 8 31 9 195 8 73 0 0
8 42 8 31 9 196 8 77 0 0
8 41 8 31 9 200 8 74 0 0
8 44 8 32 9 208 8 78 0 0
8 42 8 32 9 200 8 77 0 0
8 36 8 31 9 193 8 76 0 0
8 45 8 32 9 195 8 76 0 0
8 44 8 31 9 190 8 78 0 0
8 40 8 31 9 193 8 77 0 0
8 42 8 31 9 199 8 79 0 0
8 44 8 31 9 204 8 79 0 0
8 39 8 31 9 203 8 79 0 0
8 41 8 31 9 197 8 78 0 0
8 42 8 31 9 198 8 77 0 0
8 47 8 31 9 206 8 77 0 0
8 45 8 31 9 206 8 77 0 0
8 49 8 31 9 203 8 76 0 0
8 40 8 30 9 201 8 75 0 0
8 41 8 31 9 201 8 76 0 0
8 40 8 31 9 201 8 78 0 0
8 43 8 30 9 193 8 79 0 0
8 38 8 31 9 193 8 77 0 0
8 49 8 31 9 194 8 79 0 0
8 40 8 31 9 194 8 75 0 0
8 49 8 30 9 207 8 73 0 0
8 44 8 30 9 194 8 78 0 0
8 41 8 30 9 210 8 75 0 0
8 41 8 30 9 196 8 64 0 0
8 47 8 30 9 202 8 78 0 0
8 43 8 30 9 201 8 74 0 0
8 39 8 30 9 204 8 73 0 0
8 42 8 30 9 202 8 73 0 0
8 39 8 30 9 199 8 76 0 0
8 40 8 30 9 199 8 73 0 0
8 42 8 30 9 199 8 76 0 0
8 42 8 30 9 202 8 79 0 0
8 48 8 30 9 199 8 79 0 0
8 44 8 30 9 199 8 79 0 0
8 47 8 30 9 196 8 76 0 0
8 42 8 29 9 195 8 75 0 0
8 44 8 30 9 202 8 74 0 0
8 42 8 23 9 192 8 70 0 0
8 41 8 23 9 188 8 69 0 0
8 40 8 23 9 213 8 70 0 0
8 36 8 23 9 192 8 71 0 0
8 36 8 24 9 203 8 71 0 0
8 46 8 24 9 191 8 72 0 0
8 43 8 25 9 206 8 71 0 0
8 39 8 23 9 194 8 71 0 0
8 38 8 24 9 197 8 69 0 0
8 45 8 24 9 186 8 71 0 0
8 39 8 24 9 193 8 71 0 0
8 42 8 24 9 198 8 69 0 0
8 42 8 24 9 194 8 70 0 0
8 42 8 24 9 189 8 70 0 0
8 48 8 25 9 197 8 71 0 0
8 36 8 25 9 201 8 71 0 0
8 46 8 24 9 205 8 71 0 0
8 45 8 25 9 197 8 71 0 0
8 39 8 26 9 196 8 71 0 0
8 41 8 25 9 199 8 72 0 0
8 44 8 25 9 207 8 71 0 0
8 41 8 26 9 195 8 71 0 0
8 40 8 25 9 191 8 72 0 0
8 41 8 26 9 191 8 71 0 0
8 38 8 26 9 192 8 70 0 0
8 44 8 27 9 208 8 70 0 0
8 43 8 26 9 184 8 70 0 0
8 35 8 26 9 200 8 72 0 0
8 40 8 27 9 191 8 72 0 0
8 52 8 27 9 193 8 73 0 0
8 44 8 27 9 196 8 71 0 0
8 43 8 27 9 197 8 70 0 0
8 42 8 26 9 200 8 69 0 0
8 44 8 27 9 199 8 69 0 0
8 39 8 27 9 204 8 69 0 0
8 43 8 27 9 202 8 69 0 0
8 35 8 27 9 199 8 70 0 0
8 41 8 27 9 202 8 68 0 0
8 36 8 27 9 200 8 70 0 0
8 49 8 26 9 201 8 71 0 0
8 43 8 27 9 201 8 73 0 0
8 38 8 27 9 199 8 73 0 0
8 41 8 27 9 200 8 71 0 0
8 47 8 27 9 202 8 72 0 0
8 41 8 27 9 198 8 72 0 0
8 39 8 27 9 193 8 71 0 0
8 44 8 27 9 196 8 71 0 0
8 39 8 27 9 195 8 72 0 0
8 41 8 27 9 203 8 71 0 0
8 44 8 28 9 196 8 69 0 0
8 44 8 28 9 191 8 69 0 0
8 44 8 28 9 200 8 70 0 0
8 50 8 28 9 200 8 70 0 0
8 42 8 28 9 200 8 70 0 0
8 46 8 27 9 196 8 70 0 0
8 40 8 28 9 201 8 71 0 0
8 38 8 28 9 179 8 70 0 0
8 39 8 28 9 191 8 69 0 0
8 45 8 28 9 202 8 68 0 0
8 37 8 28 9 200 8 68 0 0
8 42 8 35 9 196 8 68 0 0
8 35 8 35 9 196 8 75 0 0
8 39 8 35 9 196 8 79 0 0
8 36 8 35 9 194 8 81 0 0
8 38 8 35 9 198 8 80 0 0
8 42 8 34 9 198 8 77 0 0
8 42 8 34 9 193 8 77 0 0
8 43 8 34 9 196 8 76 0 0
8 41 8 34 9 204 8 78 0 0
8 42 8 33 9 190 8 80 0 0
8 43 8 33 9 199 8 80 0 0
8 43 8 33 9 203 8 78 0 0
8 39 8 34 9 203 8 77 0 0
8 41 8 33 9 198 8 76 0 0
8 44 8 33 9 199 8 77 0 0
8 41 8 33 9 201 8 78 0 0
8 40 8 33 9 196 8 77 0 0
8 40 8 32 9 211 8 77 0 0
8 39 8 32 9 199 8 80 0 0
8 40 8 31 9 196 8 80 0 0
8 44 8 31 9 200 8 74 0 0
8 42 8 32 9 194 8 79 0 0
8 35 8 31 9 201 8 79 0 0
8 44 8 31 9 200 8 80 0 0
8 33 8 32 9 192 8 79 0 0
8 60 8 31 9 202 8 78 0 0
8 47 8 31 9 202 8 76 0 0
8 45 8 32 9 189 8 77 0 0
8 39 8 31 9 197 8 78 0 0
8 44 8 31 9 197 8 79 0 0
8 43 8 31 9 195 8 78 0 0
8 41 8 31 9 203 8 76 0 0
8 41 8 31 9 201 8 79 0 0
8 42 8 31 9 195 8 76 0 0
8 42 8 31 9 196 8 78 0 0
8 41 8 30 9 200 8 78 0 0
8 42 8 30 9 207 8 79 0 0
8 55 8 31 9 199 8 77 0 0
8 48 8 31 9 204 8 78 0 0
8 41 8 31 9 194 8 75 0 0
8 28 8 30 9 193 8 76 0 0
8 43 8 30 9 204 8 78 0 0
8 41 8 29 9 198 8 76 0 0
8 49 8 30 9 207 8 74 0 0
8 42 8 29 9 191 8 75 0 0
8 45 8 30 9 203 8 74 0 0
8 43 8 29 9 198 8 73 0 0
8 39 8 30 9 195 8 75 0 0
8 43 8 30 9 204 8 75 0 0
8 42 8 30 9 200 8 78 0 0
8 46 8 30 9 198 8 79 0 0
8 43 8 30 9 203 8 77 0 0
8 46 8 30 9 197 8 79 0 0
8 43 8 29 9 197 8 79 0 0
8 41 8 30 9 195 8 79 0 0
8 42 8 30 9 191 8 77 0 0
8 45 8 30 9 194 8 75 0 0
8 44 8 23 9 202 8 71 0 0
8 44 8 23 9 201 8 72 0 0
8 51 8 23 9 197 8 70 0 0
8 34 8 24 9 203 8 69 0 0
8 48 8 24 9 194 8 71 0 0
8 38 8 24 9 200 8 70 0 0
8 41 8 23 9 199 8 69 0 0
8 40 8 24 9 195 8 71 0 0
8 42 8 24 9 190 8 70 0 0
8 42 8 24 9 199 8 68 0 0
8 36 8 24 9 201 8 69 0 0
8 43 8 24 9 205 8 70 0 0
8 46 8 25 9 205 8 71 0 0
8 43 8 25 9 202 8 72 0 0
8 43 8 25 9 197 8 72 0 0
8 43 8 25 9 194 8 72 0 0
8 40 8 25 9 202 8 70 0 0
8 42 8 26 9 194 8 72 0 0
8 38 8 26 9 193 8 70 0 0
8 44 8 25 9 204 8 71 0 0
8 43 8 26 9 196 8 70 0 0
8 44 8 25 9 199 8 70 0 0
8 43 8 26 9 199 8 70 0 0
8 45 8 26 9 201 8 72 0 0
8 39 8 26 9 192 8 71 0 0
8 36 8 26 9 191 8 70 0 0
8 48 8 26 9 193 8 69 0 0
8 42 8 27 9 199 8 72 0 0
8 42 8 28 9 188 8 69 0 0
8 43 8 26 9 192 8 69 0 0
8 42 8 26 9 195 8 69 0 0
8 44 8 26 9 190 8 68 0 0
8 38 8 26 9 191 8 70 0 0
8 47 8 27 9 194 8 68 0 0
8 40 8 27 9 194 8 70 0 0
8 46 8 27 9 199 8 71 0 0
8 48 8 27 9 197 8 70 0 0
8 44 8 27 9 199 8 72 0 0
8 49 8 27 9 200 8 71 0 0
8 45 8 27 9 199 8 71 0 0
8 44 8 27 9 196 8 71 0 0
8 46 8 28 9 201 8 71 0 0
8 40 8 27 9 197 8 71 0 0
8 46 8 28 9 191 8 70 0 0
8 40 8 28 9 196 8 70 0 0
8 45 8 28 9 205 8 70 0 0
8 44 8 28 9 200 8 66 0 0
8 44 8 28 9 195 8 69 0 0
8 43 8 28 9 197 8 69 0 0
8 54 8 28 9 201 8 72 0 0
8 36 8 28 9 182 8 71 0 0
8 43 8 28 9 197 8 70 0 0
8 43 8 28 9 197 8 71 0 0
8 46 8 27 9 188 8 72 0 0
8 39 8 28 9 193 8 71 0 0
8 40 8 27 9 203 8 71 0 0
8 44 8 28 9 200 8 70 0 0
8 43 8 27 9 198 8 69 0 0
8 44 8 28 9 192 8 69 0 0
8 43 8 35 9 202 8 78 0 0
8 46 8 35 9 202 8 79 0 0
8 44 8 35 9 206 8 79 0 0
8 43 8 35 9 198 8 77 0 0
8 42 8 34 9 198 8 79 0 0
8 40 8 34 9 197 8 77 0 0
8 41 8 34 9 196 8 79 0 0
8 40 8 34 9 201 8 78 0 0
8 40 8 34 9 199 8 75 0 0
8 43 8 33 9 197 8 74 0 0
8 43 8 33 9 196 8 76 0 0
8 45 8 33 9 204 8 77 0 0
8 44 8 33 9 199 8 78 0 0
8 44 8 33 9 193 8 77 0 0
8 39 8 33 9 217 8 79 0 0
8 51 8 33 9 202 8 76 0 0
8 55 8 33 9 204 8 80 0 0
8 37 8 33 9 177 8 79 0 0
8 43 8 32 9 198 8 78 0 0
8 39 8 32 9 204 8 80 0 0
8 42 8 31 9 199 8 72 0 0
8 42 8 32 9 198 8 81 0 0
8 41 8 32 9 201 8 75 0 0
8 41 8 32 9 203 8 84 0 0
8 43 8 32 9 200 8 74 0 0
8 39 8 31 9 198 8 77 0 0
8 37 8 31 9 204 8 79 0 0
8 36 8 31 9 198 8 76 0 0
8 34 8 31 9 193 8 79 0 0
8 40 8 31 9 194 8 77 0 0
8 43 8 31 9 203 8 75 0 0
8 41 8 31 9 206 8 76 0 0
8 42 8 31 9 201 8 77 0 0
8 46 8 30 9 197 8 77 0 0
8 44 8 30 9 193 8 76 0 0
8 42 8 31 9 197 8 75 0 0
8 44 8 31 9 195 8 77 0 0
8 45 8 30 9 201 8 76 0 0
8 45 8 30 9 216 8 75 0 0
8 50 8 32 9 191 8 74 0 0
8 45 8 30 9 185 8 73 0 0
8 36 8 30 9 199 8 79 0 0
8 40 8 29 9 200 8 76 0 0
8 42 8 30 9 202 8 74 0 0
8 42 8 30 9 200 8 73 0 0
8 38 8 29 9 202 8 74 0 0
8 47 8 30 9 198 8 77 0 0
8 40 8 30 9 205 8 76 0 0
8 40 8 30 9 199 8 75 0 0
8 38 8 30 9 202 8 74 0 0
8 40 8 29 9 200 8 80 0 0
8 39 8 30 9 200 8 77 0 0
8 41 8 29 9 194 8 78 0 0
8 42 8 29 9 196 8 79 0 0
8 44 8 29 9 193 8 76 0 0
8 45 8 29 9 196 8 76 0 0
8 45 8 30 9 199 8 77 0 0
8 46 8 30 9 200 8 78 0 0
8 45 8 23 9 200 8 70 0 0
8 42 8 23 9 193 8 69 0 0
8 43 8 23 9 198 8 71 0 0
8 42 8 24 9 188 8 70 0 0
8 42 8 25 9 202 8 70 0 0
8 36 8 24 9 196 8 68 0 0
8 41 8 24 9 193 8 68 0 0
8 39 8 24 9 194 8 66 0 0
8 42 8 24 9 192 8 69 0 0
8 40 8 24 9 198 8 71 0 0
8 36 8 24 9 192 8 69 0 0
8 41 8 24 9 207 8 68 0 0
8 39 8 24 9 205 8 70 0 0
8 39 8 24 9 195 8 73 0 0
8 44 8 24 9 201 8 71 0 0
8 41 8 25 9 196 8 72 0 0
8 44 8 25 9 203 8 72 0 0
8 48 8 26 9 197 8 70 0 0
8 45 8 26 9 194 8 71 0 0
8 43 8 26 9 196 8 70 0 0
8 45 8 25 9 191 8 72 0 0
8 48 8 26 9 208 8 71 0 0
8 46 8 26 9 201 8 70 0 0
8 48 8 26 9 196 8 71 0 0
8 44 8 26 9 200 8 71 0 0
8 40 8 27 9 205 8 69 0 0
8 41 8 27 9 193 8 69 0 0
8 31 8 27 9 189 8 68 0 0
8 40 8 27 9 198 8 67 0 0
8 38 8 27 9 200 8 71 0 0
8 45 8 26 9 201 8 70 0 0
8 38 8 26 9 199 8 70 0 0
8 39 8 26 9 205 8 72 0 0
8 38 8 26 9 208 8 72 0 0
8 45 8 26 9 193 8 71 0 0
8 41 8 26 9 178 8 74 0 0
8 42 8 26 9 199 8 73 0 0
8 56 8 26 9 195 8 72 0 0
8 42 8 26 9 196 8 71 0 0
8 40 8 27 9 205 8 71 0 0
8 42 8 27 9 195 8 71 0 0
8 46 8 27 9 198 8 72 0 0
8 49 8 27 9 200 8 72 0 0
8 41 8 28 9 196 8 70 0 0
8 43 8 28 9 202 8 70 0 0
8 41 8 28 9 200 8 70 0 0
8 45 8 28 9 195 8 70 0 0
8 44 8 28 9 192 8 68 0 0
8 42 8 27 9 201 8 70 0 0
8 40 8 28 9 189 8 69 0 0
8 49 8 28 9 201 8 70 0 0
8 50 8 28 9 198 8 69 0 0
8 44 8 28 9 210 8 71 0 0
8 38 8 28 9 194 8 72 0 0
8 42 8 27 9 197 8 70 0 0
8 42 8 27 9 200 8 73 0 0
8 43 8 27 9 200 8 72 0 0
8 43 8 27 9 180 8 70 0 0
8 41 8 27 9 188 8 70 0 0
8 43 8 27 9 197 8 69 0 0
8 40 8 35 9 196 8 85 0 0
8 44 8 35 9 201 8 75 0 0
8 41 8 35 9 195 8 74 0 0
8 43 8 35 9 195 8 77 0 0
8 38 8 34 9 195 8 77 0 0
8 40 8 34 9 201 8 77 0 0
8 42 8 34 9 198 8 76 0 0
8 42 8 34 9 201 8 77 0 0
8 40 8 33 9 197 8 77 0 0
8 42 8 33 9 196 8 78 0 0
8 42 8 33 9 200 8 76 0 0
8 44 8 33 9 202 8 74 0 0
8 43 8 33 9 197 8 77 0 0
8 42 8 33 9 197 8 76 0 0
8 49 8 33 9 211 8 76 0 0
8 42 8 33 9 207 8 75 0 0
8 42 8 33 9 198 8 77 0 0
8 46 8 32 9 191 8 79 0 0
8 42 8 32 9 197 8 92 0 0
8 42 8 32 9 199 8 76 0 0
8 44 8 31 9 202 8 80 0 0
8 42 8 31 9 199 8 76 0 0
8 40 8 32 9 190 8 76 0 0
8 44 8 32 9 196 8 83 0 0
8 46 8 32 9 199 8 84 0 0
8 43 8 31 9 198 8 90 0 0
8 41 8 31 9 194 8 71 0 0
8 41 8 31 9 197 8 79 0 0
8 43 8 31 9 198 8 82 0 0
8 45 8 31 9 197 8 80 0 0
8 42 8 31 9 202 8 76 0 0
8 39 8 31 9 199 8 77 0 0
8 41 8 31 9 198 8 78 0 0
8 42 8 32 9 201 8 78 0 0
8 42 8 31 9 196 8 76 0 0
8 39 8 31 9 195 8 77 0 0
8 39 8 31 9 196 8 75 0 0
8 39 8 31 9 196 8 75 0 0
8 42 8 30 9 207 8 77 0 0
8 43 8 31 9 186 8 78 0 0
8 41 8 31 9 184 8 76 0 0
8 35 8 30 9 196 8 75 0 0
8 53 8 30 9 205 8 74 0 0
8 46 8 30 9 195 8 79 0 0
8 46 8 30 9 204 8 75 0 0
8 45 8 30 9 198 8 84 0 0
8 43 8 31 9 198 8 76 0 0
8 40 8 30 9 194 8 75 0 0
8 37 8 30 9 191 8 72 0 0
8 42 8 30 9 192 8 73 0 0
8 41 8 30 9 198 8 76 0 0
8 41 8 30 9 196 8 76 0 0
8 42 8 30 9 199 8 79 0 0
8 40 8 30 9 201 8 76 0 0
8 42 8 30 9 202 8 76 0 0
8 43 8 30 9 199 8 79 0 0
8 42 8 30 9 196 8 76 0 0
8 39 8 30 9 200 8 78 0 0
8 46 8 30 9 202 8 77 0 0
8 41 8 29 9 202 8 78 0 0
8 44 8 23 9 208 8 71 0 0
8 43 8 22 9 195 8 70 0 0
8 31 8 23 9 202 8 70 0 0
8 46 8 24 9 192 8 70 0 0
8 39 8 24 9 196 8 71 0 0
8 41 8 24 9 201 8 69 0 0
8 40 8 23 9 195 8 70 0 0
8 42 8 23 9 195 8 69 0 0
8 44 8 23 9 193 8 70 0 0
8 46 8 24 9 202 8 71 0 0
8 34 8 23 9 188 8 71 0 0
8 43 8 25 9 193 8 69 0 0
8 44 8 24 9 196 8 69 0 0
8 43 8 24 9 199 8 69 0 0
8 46 8 25 9 203 8 69 0 0
8 44 8 25 9 205 8 69 0 0
8 42 8 25 9 203 8 68 0 0
8 43 8 25 9 203 8 67 0 0
8 40 8 26 9 200 8 70 0 0
8 39 8 25 9 194 8 68 0 0
8 41 8 25 9 200 8 70 0 0
8 43 8 25 9 204 8 71 0 0
8 45 8 25 9 199 8 71 0 0
8 44 8 26 9 196 8 71 0 0
8 40 8 26 9 201 8 71 0 0
8 42 8 26 9 221 8 70 0 0
8 42 8 26 9 195 8 71 0 0
8 56 8 26 9 189 8 71 0 0
8 46 8 27 9 200 8 71 0 0
8 47 8 26 9 204 8 71 0 0
8 41 8 27 9 204 8 71 0 0
8 42 8 26 9 196 8 71 0 0
8 41 8 26 9 184 8 69 0 0
8 39 8 27 9 194 8 71 0 0
8 43 8 26 9 210 8 71 0 0
8 40 8 26 9 197 8 71 0 0
8 44 8 26 9 192 8 70 0 0
8 40 8 26 9 203 8 70 0 0
8 42 8 27 9 197 8 71 0 0
8 41 8 27 9 192 8 70 0 0
8 38 8 27 9 198 8 72 0 0
8 44 8 27 9 198 8 72 0 0
8 41 8 27 9 200 8 72 0 0
8 42 8 27 9 198 8 72 0 0
8 42 8 27 9 203 8 74 0 0
8 40 8 27 9 197 8 71 0 0
8 40 8 27 9 199 8 70 0 0
8 41 8 27 9 199 8 71 0 0
8 45 8 27 9 202 8 70 0 0
8 41 8 27 9 195 8 70 0 0
8 44 8 27 9 183 8 71 0 0
8 37 8 27 9 208 8 71 0 0
8 49 8 28 9 197 8 72 0 0
8 44 8 28 9 195 8 71 0 0
8 39 8 27 9 192 8 69 0 0
8 40 8 26 9 189 8 71 0 0
8 41 8 27 9 200 8 70 0 0
8 43 8 27 9 196 8 71 0 0
8 38 8 28 9 197 8 68 0 0
8 38 8 27 9 201 8 70 0 0
8 46 8 27 9 195 8 69 0 0
8 43 8 35 9 198 8 73 0 0
8 39 8 35 9 200 8 75 0 0
8 43 8 35 9 211 8 77 0 0
8 39 8 34 9 201 8 77 0 0
8 41 8 34 9 202 8 76 0 0
8 42 8 34 9 209 8 75 0 0
8 41 8 34 9 200 8 77 0 0
8 47 8 34 9 204 8 77 0 0
8 43 8 33 9 194 8 77 0 0
8 45 8 33 9 200 8 75 0 0
8 45 8 33 9 193 8 75 0 0
8 42 8 33 9 195 8 78 0 0
8 41 8 33 9 195 8 75 0 0
8 44 8 33 9 203 8 77 0 0
8 49 8 34 9 204 8 77 0 0
8 41 8 34 9 178 8 76 0 0
8 45 8 33 9 203 8 77 0 0
8 42 8 32 9 203 8 77 0 0
8 42 8 31 9 202 8 76 0 0
8 43 8 31 9 201 8 75 0 0
8 43 8 31 9 199 8 67 0 0
8 45 8 32 9 202 8 78 0 0
8 37 8 31 9 193 8 82 0 0
8 41 8 31 9 200 8 81 0 0
8 40 8 31 9 195 8 78 0 0
8 45 8 31 9 194 8 74 0 0
8 40 8 31 9 193 8 79 0 0
8 43 8 31 9 205 8 77 0 0
8 42 8 31 9 195 8 77 0 0
8 48 8 31 9 201 8 76 0 0
8 43 8 31 9 200 8 77 0 0
8 42 8 31 9 203 8 77 0 0
8 43 8 31 9 199 8 78 0 0
8 44 8 31 9 199 8 78 0 0
8 42 8 31 9 194 8 77 0 0
8 41 8 31 9 198 8 78 0 0
8 44 8 31 9 216 8 77 0 0
8 44 8 31 9 212 8 77 0 0
8 45 8 32 9 200 8 77 0 0
8 37 8 31 9 193 8 76 0 0
8 38 8 30 9 199 8 77 0 0
8 35 8 30 9 192 8 77 0 0
8 40 8 30 9 198 8 71 0 0
8 42 8 30 9 205 8 69 0 0
8 43 8 30 9 196 8 77 0 0
8 44 8 30 9 202 8 78 0 0
8 40 8 30 9 196 8 80 0 0
8 44 8 30 9 203 8 76 0 0
8 44 8 30 9 200 8 76 0 0
8 45 8 30 9 200 8 77 0 0
8 43 8 30 9 196 8 77 0 0
8 26 8 30 9 216 8 78 0 0
8 54 8 30 9 207 8 78 0 0
8 43 8 30 9 203 8 77 0 0
8 44 8 30 9 196 8 76 0 0
8 35 8 30 9 193 8 77 0 0
8 44 8 30 9 200 8 75 0 0
8 38 8 30 9 192 8 76 0 0
8 42 8 30 9 202 8 75 0 0
8 51 8 23 9 206 8 69 0 0
8 40 8 23 9 196 8 73 0 0
8 34 8 24 9 201 8 71 0 0
8 45 8 24 9 196 8 71 0 0
8 43 8 24 9 196 8 72 0 0
8 45 8 23 9 194 8 70 0 0
8 42 8 24 9 198 8 69 0 0
8 44 8 23 9 195 8 70 0 0
8 35 8 23 9 190 8 70 0 0
8 42 8 24 9 196 8 68 0 0
8 47 8 24 9 200 8 69 0 0
8 41 8 24 9 202 8 70 0 0
8 40 8 24 9 197 8 70 0 0
8 46 8 25 9 206 8 70 0 0
8 43 8 25 9 197 8 69 0 0
8 41 8 25 9 198 8 71 0 0
8 45 8 25 9 200 8 70 0 0
8 35 8 25 9 199 8 70 0 0
8 44 8 26 9 203 8 70 0 0
8 39 8 25 9 191 8 69 0 0
8 38 8 25 9 209 8 70 0 0
8 42 8 26 9 192 8 69 0 0
8 37 8 26 9 196 8 70 0 0
8 34 8 26 9 176 8 72 0 0
8 38 8 26 9 200 8 71 0 0
8 47 8 26 9 192 8 71 0 0
8 40 8 26 9 199 8 70 0 0
8 40 8 26 9 192 8 69 0 0
8 52 8 26 9 181 8 73 0 0
8 46 8 26 9 190 8 72 0 0
8 42 8 26 9 197 8 71 0 0
8 48 8 26 9 199 8 71 0 0
8 49 8 26 9 208 8 70 0 0
8 42 8 26 9 201 8 70 0 0
8 49 8 27 9 201 8 71 0 0
8 49 8 27 9 200 8 70 0 0
8 45 8 27 9 195 8 71 0 0
8 46 8 27 9 202 8 70 0 0
8 44 8 27 9 204 8 71 0 0
8 39 8 28 9 194 8 71 0 0
8 37 8 27 9 197 8 70 0 0
8 44 8 27 9 193 8 71 0 0
8 43 8 27 9 198 8 71 0 0
8 44 8 27 9 197 8 70 0 0
8 39 8 27 9 191 8 69 0 0
8 43 8 27 9 197 8 68 0 0
8 44 8 27 9 204 8 69 0 0
8 41 8 27 9 192 8 70 0 0
8 49 8 28 9 188 8 71 0 0
8 37 8 28 9 201 8 70 0 0
8 45 8 28 9 194 8 72 0 0
8 42 8 28 9 200 8 70 0 0
8 44 8 28 9 200 8 72 0 0
8 43 8 27 9 198 8 72 0 0
8 43 8 27 9 194 8 71 0 0
8 44 8 28 9 208 8 69 0 0
8 47 8 28 9 197 8 69 0 0
8 45 8 28 9 193 8 70 0 0
8 47 8 28 9 189 8 71 0 0
8 43 8 28 9 201 8 70 0 0
8 40 8 36 9 196 8 76 0 0
8 41 8 35 9 198 8 77 0 0
8 40 8 35 9 201 8 76 0 0
8 41 8 35 9 198 8 77 0 0
8 41 8 34 9 199 8 76 0 0
8 43 8 34 9 195 8 77 0 0
8 41 8 34 9 199 8 78 0 0
8 42 8 34 9 197 8 79 0 0
8 45 8 33 9 198 8 76 0 0
8 42 8 34 9 196 8 79 0 0
8 40 8 34 9 199 8 79 0 0
8 42 8 34 9 195 8 79 0 0
8 46 8 33 9 201 8 77 0 0
8 44 8 33 9 182 8 78 0 0
8 45 8 33 9 195 8 79 0 0
8 45 8 33 9 198 8 77 0 0
8 44 8 33 9 204 8 77 0 0
8 46 8 32 9 199 8 80 0 0
8 43 8 32 9 195 8 78 0 0
8 44 8 32 9 197 8 74 0 0
8 35 8 32 9 194 8 78 0 0
8 44 8 32 9 202 8 66 0 0
8 46 8 32 9 198 8 85 0 0
8 41 8 32 9 199 8 82 0 0
8 42 8 32 9 193 8 72 0 0
8 40 8 32 9 203 8 74 0 0
8 40 8 31 9 196 8 75 0 0
8 42 8 32 9 199 8 75 0 0
8 40 8 31 9 202 8 76 0 0
8 37 8 31 9 203 8 77 0 0
8 43 8 31 9 201 8 78 0 0
8 36 8 31 9 195 8 77 0 0
8 42 8 31 9 201 8 76 0 0
8 43 8 31 9 198 8 78 0 0
8 49 8 31 9 197 8 76 0 0
8 43 8 32 9 194 8 77 0 0
8 56 8 31 9 208 8 77 0 0
8 31 8 31 9 184 8 79 0 0
8 36 8 31 9 193 8 77 0 0
8 34 8 31 9 198 8 78 0 0
8 40 8 30 9 202 8 81 0 0
8 37 8 30 9 195 8 77 0 0
8 41 8 30 9 201 8 72 0 0
8 41 8 30 9 201 8 74 0 0
8 39 8 30 9 196 8 77 0 0
8 37 8 30 9 202 8 68 0 0
8 44 8 30 9 196 8 80 0 0
8 39 8 30 9 198 8 76 0 0
8 40 8 30 9 194 8 80 0 0
8 41 8 30 9 201 8 78 0 0
8 45 8 30 9 200 8 77 0 0
8 42 8 30 9 196 8 79 0 0
8 42 8 30 9 191 8 79 0 0
8 38 8 29 9 198 8 79 0 0
8 40 8 30 9 197 8 79 0 0
8 49 8 30 9 196 8 76 0 0
8 46 8 30 9 197 8 78 0 0
8 46 8 30 9 204 8 76 0 0
8 41 8 30 9 198 8 76 0 0
8 46 8 23 9 201 8 71 0 0
8 39 8 23 9 197 8 70 0 0
8 41 8 24 9 200 8 70 0 0
8 45 8 24 9 205 8 68 0 0
8 40 8 24 9 186 8 70 0 0
8 40 8 24 9 201 8 69 0 0
8 40 8 24 9 191 8 69 0 0
8 41 8 24 9 199 8 71 0 0
8 41 8 24 9 193 8 70 0 0
8 34 8 24 9 199 8 73 0 0
8 36 8 24 9 193 8 72 0 0
8 38 8 24 9 192 8 72 0 0
8 43 8 24 9 207 8 71 0 0
8 40 8 24 9 195 8 69 0 0
8 42 8 25 9 201 8 73 0 0
8 41 8 25 9 202 8 72 0 0
8 43 8 25 9 199 8 70 0 0
8 42 8 25 9 196 8 70 0 0
8 44 8 25 9 191 8 70 0 0
8 44 8 25 9 201 8 70 0 0
8 42 8 26 9 197 8 70 0 0
8 39 8 25 9 194 8 71 0 0
8 45 8 26 9 198 8 71 0 0
8 42 8 26 9 200 8 71 0 0
8 43 8 26 9 204 8 73 0 0
8 43 8 27 9 202 8 72 0 0
8 36 8 27 9 195 8 69 0 0
8 44 8 27 9 184 8 69 0 0
8 45 8 27 9 200 8 69 0 0
8 43 8 27 9 190 8 69 0 0
8 41 8 26 9 197 8 69 0 0
8 39 8 26 9 198 8 70 0 0
8 39 8 26 9 201 8 68 0 0
8 44 8 26 9 187 8 69 0 0
8 32 8 27 9 207 8 69 0 0
8 39 8 27 9 215 8 68 0 0
8 37 8 27 9 196 8 70 0 0
8 49 8 27 9 197 8 71 0 0
8 41 8 27 9 202 8 71 0 0
8 41 8 27 9 204 8 71 0 0
8 39 8 27 9 199 8 70 0 0
8 39 8 27 9 192 8 68 0 0
8 45 8 27 9 199 8 71 0 0
8 46 8 27 9 195 8 72 0 0
8 41 8 27 9 199 8 70 0 0
8 44 8 27 9 205 8 71 0 0
8 42 8 27 9 195 8 70 0 0
8 42 8 28 9 195 8 70 0 0
8 35 8 27 9 200 8 73 0 0
8 40 8 27 9 203 8 71 0 0
8 41 8 28 9 203 8 71 0 0
8 44 8 28 9 197 8 72 0 0
8 43 8 28 9 202 8 74 0 0
8 29 8 28 9 197 8 73 0 0
8 38 8 28 9 192 8 69 0 0
8 45 8 28 9 201 8 67 0 0
8 41 8 27 9 197 8 69 0 0
8 40 8 28 9 206 8 70 0 0
8 41 8 28 9 196 8 70 0 0
8 41 8 28 9 195 8 72 0 0
8 46 8 28 9 189 8 71 0 0
8 45 8 36 9 201 8 80 0 0
8 45 8 36 9 202 8 77 0 0
8 46 8 36 9 199 8 76 0 0
8 40 8 35 9 199 8 78 0 0
8 43 8 34 9 200 8 77 0 0
8 41 8 34 9 192 8 76 0 0
8 42 8 35 9 203 8 76 0 0
8 42 8 34 9 197 8 78 0 0
8 44 8 34 9 197 8 79 0 0
8 44 8 34 9 193 8 78 0 0
8 41 8 34 9 198 8 77 0 0
8 42 8 33 9 199 8 79 0 0
8 54 8 34 9 209 8 78 0 0
8 44 8 34 9 208 8 74 0 0
8 43 8 33 9 203 8 81 0 0
8 44 8 32 9 194 8 74 0 0
8 45 8 32 9 187 8 72 0 0
8 47 8 32 9 195 8 71 0 0
8 49 8 32 9 195 8 83 0 0
8 48 8 32 9 191 8 71 0 0
8 38 8 32 9 200 8 71 0 0
8 36 8 32 9 204 8 71 0 0
8 43 8 32 9 201 8 74 0 0
8 41 8 32 9 194 8 73 0 0
8 42 8 32 9 197 8 76 0 0
8 41 8 32 9 194 8 78 0 0
8 44 8 32 9 202 8 79 0 0
8 43 8 32 9 195 8 79 0 0
8 42 8 31 9 201 8 77 0 0
8 39 8 31 9 200 8 77 0 0
8 44 8 31 9 196 8 76 0 0
8 43 8 31 9 202 8 78 0 0
8 39 8 31 9 205 8 75 0 0
8 42 8 30 9 199 8 76 0 0
8 38 8 31 9 197 8 77 0 0
8 42 8 31 9 216 8 77 0 0
8 41 8 31 9 197 8 76 0 0
8 49 8 31 9 195 8 76 0 0
8 44 8 31 9 214 8 77 0 0
8 44 8 30 9 200 8 79 0 0
8 45 8 29 9 201 8 88 0 0
8 42 8 30 9 199 8 76 0 0
8 47 8 30 9 197 8 75 0 0
8 42 8 29 9 194 8 69 0 0
8 43 8 30 9 200 8 76 0 0
8 49 8 30 9 195 8 76 0 0
8 45 8 30 9 199 8 77 0 0
8 43 8 30 9 200 8 65 0 0
8 43 8 30 9 196 8 74 0 0
8 42 8 30 9 203 8 73 0 0
8 44 8 30 9 194 8 75 0 0
8 42 8 30 9 198 8 78 0 0
8 43 8 30 9 193 8 78 0 0
8 38 8 30 9 191 8 78 0 0
8 43 8 30 9 194 8 75 0 0
8 44 8 30 9 197 8 78 0 0
8 39 8 30 9 199 8 77 0 0
8 42 8 30 9 201 8 78 0 0
8 41 8 30 9 195 8 79 0 0
8 42 8 23 9 190 8 68 0 0
8 52 8 23 9 203 8 70 0 0
8 46 8 23 9 206 8 70 0 0
8 40 8 22 9 195 8 72 0 0
8 41 8 24 9 205 8 69 0 0
8 43 8 23 9 191 8 71 0 0
8 37 8 23 9 199 8 70 0 0
8 43 8 23 9 191 8 70 0 0
8 44 8 23 9 196 8 68 0 0
8 45 8 24 9 192 8 71 0 0
8 41 8 24 9 200 8 70 0 0
8 44 8 24 9 191 8 70 0 0
8 43 8 24 9 199 8 69 0 0
8 46 8 24 9 203 8 69 0 0
8 42 8 25 9 195 8 72 0 0
8 42 8 25 9 194 8 70 0 0
8 37 8 25 9 197 8 71 0 0
8 39 8 25 9 199 8 69 0 0
8 38 8 25 9 198 8 70 0 0
8 46 8 26 9 204 8 71 0 0
8 47 8 25 9 197 8 72 0 0
8 40 8 25 9 197 8 71 0 0
8 44 8 26 9 195 8 71 0 0
8 38 8 26 9 204 8 72 0 0
8 44 8 26 9 202 8 71 0 0
8 44 8 26 9 189 8 70 0 0
8 43 8 27 9 194 8 70 0 0
8 42 8 27 9 203 8 71 0 0
8 43 8 26 9 192 8 70 0 0
8 42 8 26 9 192 8 68 0 0
8 44 8 26 9 197 8 70 0 0
8 39 8 26 9 199 8 72 0 0
8 32 8 26 9 190 8 71 0 0
8 40 8 27 9 214 8 71 0 0
8 45 8 26 9 212 8 69 0 0
8 40 8 27 9 199 8 69 0 0
8 43 8 27 9 193 8 72 0 0
8 37 8 26 9 199 8 70 0 0
8 39 8 26 9 198 8 68 0 0
8 45 8 27 9 200 8 69 0 0
8 41 8 27 9 194 8 73 0 0
8 40 8 27 9 197 8 72 0 0
8 40 8 27 9 192 8 71 0 0
8 40 8 27 9 200 8 71 0 0
8 45 8 27 9 196 8 69 0 0
8 46 8 27 9 197 8 69 0 0
8 46 8 27 9 198 8 69 0 0
8 48 8 27 9 197 8 72 0 0
8 46 8 28 9 214 8 74 0 0
8 42 8 28 9 196 8 73 0 0
8 41 8 28 9 192 8 71 0 0
8 40 8 28 9 198 8 71 0 0
8 41 8 27 9 196 8 70 0 0
8 43 8 27 9 202 8 70 0 0
8 41 8 27 9 207 8 69 0 0
8 36 8 27 9 199 8 69 0 0
8 38 8 27 9 190 8 71 0 0
8 38 8 28 9 190 8 73 0 0
8 40 8 27 9 199 8 73 0 0
8 41 8 27 9 210 8 71 0 0
8 41 8 27 9 203 8 70 0 0
8 42 8 35 9 199 8 78 0 0
8 43 8 35 9 197 8 78 0 0
8 43 8 34 9 206 8 78 0 0
8 46 8 35 9 207 8 77 0 0
8 42 8 34 9 196 8 80 0 0
8 45 8 34 9 199 8 77 0 0
8 44 8 35 9 198 8 78 0 0
8 43 8 35 9 198 8 78 0 0
8 46 8 34 9 193 8 76 0 0
8 46 8 34 9 192 8 77 0 0
8 45 8 34 9 194 8 77 0 0
8 41 8 34 9 207 8 78 0 0
8 41 8 34 9 186 8 76 0 0
8 32 8 35 9 190 8 75 0 0
8 46 8 34 9 204 8 72 0 0
8 41 8 33 9 195 8 76 0 0
8 37 8 32 9 192 8 77 0 0
8 43 8 32 9 198 8 73 0 0
8 43 8 33 9 197 8 75 0 0
8 40 8 32 9 196 8 78 0 0
8 40 8 32 9 206 8 80 0 0
8 42 8 33 9 195 8 75 0 0
8 41 8 32 9 201 8 74 0 0
8 39 8 32 9 200 8 73 0 0
8 43 8 32 9 206 8 74 0 0
8 43 8 32 9 201 8 74 0 0
8 43 8 32 9 198 8 78 0 0
8 41 8 31 9 196 8 77 0 0
8 44 8 32 9 195 8 76 0 0
8 46 8 32 9 200 8 76 0 0
8 44 8 32 9 198 8 77 0 0
8 44 8 31 9 197 8 77 0 0
8 45 8 32 9 196 8 78 0 0
8 40 8 31 9 193 8 78 0 0
8 49 8 32 9 206 8 77 0 0
8 42 8 32 9 200 8 78 0 0
8 49 8 32 9 201 8 78 0 0
8 41 8 32 9 201 8 76 0 0
8 34 8 31 9 196 8 75 0 0
8 38 8 31 9 200 8 76 0 0
8 44 8 31 9 196 8 76 0 0
8 35 8 30 9 197 8 81 0 0
8 40 8 31 9 199 8 73 0 0
8 44 8 30 9 202 8 76 0 0
8 39 8 31 9 199 8 77 0 0
8 43 8 31 9 200 8 76 0 0
8 43 8 31 9 199 8 77 0 0
8 41 8 30 9 193 8 83 0 0
8 44 8 30 9 196 8 78 0 0
8 43 8 31 9 198 8 78 0 0
8 40 8 31 9 200 8 77 0 0
8 43 8 31 9 202 8 74 0 0
8 44 8 30 9 201 8 76 0 0
8 43 8 30 9 200 8 77 0 0
8 42 8 30 9 196 8 77 0 0
8 46 8 30 9 209 8 81 0 0
8 45 8 30 9 201 8 79 0 0
8 44 8 30 9 199 8 78 0 0
8 43 8 31 9 206 8 80 0 0
8 41 8 23 9 183 8 69 0 0
8 40 8 23 9 194 8 69 0 0
8 44 8 23 9 193 8 70 0 0
8 37 8 23 9 195 8 70 0 0
8 47 8 23 9 192 8 68 0 0
8 41 8 23 9 194 8 69 0 0
8 42 8 23 9 197 8 69 0 0
8 46 8 23 9 195 8 68 0 0
8 47 8 24 9 201 8 70 0 0
8 44 8 24 9 187 8 71 0 0
8 48 8 24 9 203 8 70 0 0
8 45 8 24 9 196 8 70 0 0
8 46 8 24 9 203 8 69 0 0
8 41 8 24 9 198 8 69 0 0
8 44 8 25 9 200 8 72 0 0
8 44 8 25 9 192 8 73 0 0
8 40 8 25 9 194 8 72 0 0
8 46 8 25 9 195 8 71 0 0
8 42 8 25 9 202 8 69 0 0
8 43 8 26 9 193 8 71 0 0
8 41 8 25 9 202 8 70 0 0
8 44 8 25 9 201 8 71 0 0
8 47 8 26 9 199 8 71 0 0
8 42 8 26 9 207 8 72 0 0
8 27 8 26 9 195 8 72 0 0
8 45 8 26 9 205 8 72 0 0
8 43 8 27 9 204 8 69 0 0
8 44 8 27 9 202 8 67 0 0
8 40 8 26 9 197 8 67 0 0
8 42 8 26 9 193 8 70 0 0
8 42 8 26 9 193 8 70 0 0
8 42 8 26 9 203 8 68 0 0
8 46 8 26 9 196 8 68 0 0
8 44 8 26 9 202 8 70 0 0
8 43 8 26 9 189 8 71 0 0
8 43 8 27 9 194 8 70 0 0
8 32 8 27 9 197 8 70 0 0
8 48 8 27 9 192 8 71 0 0
8 46 8 27 9 202 8 72 0 0
8 44 8 27 9 203 8 72 0 0
8 44 8 27 9 202 8 71 0 0
8 44 8 27 9 201 8 69 0 0
8 45 8 27 9 198 8 71 0 0
8 40 8 28 9 194 8 71 0 0
8 41 8 28 9 199 8 70 0 0
8 43 8 27 9 203 8 70 0 0
8 45 8 27 9 196 8 71 0 0
8 42 8 28 9 193 8 71 0 0
8 42 8 28 9 195 8 69 0 0
8 41 8 28 9 199 8 71 0 0
8 40 8 28 9 200 8 70 0 0
8 42 8 28 9 196 8 69 0 0
8 42 8 27 9 196 8 70 0 0
8 43 8 27 9 193 8 71 0 0
8 37 8 28 9 198 8 72 0 0
8 43 8 28 9 185 8 72 0 0
8 45 8 28 9 216 8 70 0 0
8 46 8 28 9 200 8 70 0 0
8 43 8 28 9 200 8 70 0 0
8 39 8 35 9 196 8 75 0 0
8 44 8 35 9 200 8 76 0 0
8 44 8 36 9 188 8 75 0 0
8 44 8 35 9 195 8 78 0 0
8 41 8 35 9 201 8 79 0 0
8 44 8 34 9 204 8 79 0 0
8 41 8 35 9 195 8 77 0 0
8 41 8 34 9 192 8 79 0 0
8 42 8 34 9 197 8 78 0 0
8 42 8 34 9 200 8 79 0 0
8 49 8 34 9 198 8 76 0 0
8 38 8 34 9 194 8 77 0 0
8 41 8 34 9 206 8 77 0 0
8 55 8 33 9 203 8 78 0 0
8 46 8 32 9 195 8 89 0 0
8 42 8 33 9 188 8 77 0 0
8 41 8 32 9 201 8 76 0 0
8 42 8 33 9 204 8 77 0 0
8 43 8 32 9 200 8 75 0 0
8 38 8 32 9 198 8 76 0 0
8 44 8 32 9 196 8 77 0 0
8 44 8 32 9 196 8 77 0 0
8 41 8 33 9 203 8 76 0 0
8 42 8 32 9 198 8 76 0 0
8 43 8 32 9 192 8 78 0 0
8 41 8 32 9 200 8 78 0 0
8 43 8 32 9 205 8 79 0 0
8 43 8 32 9 201 8 78 0 0
8 44 8 32 9 207 8 79 0 0
8 43 8 31 9 198 8 89 0 0
8 42 8 31 9 201 8 86 0 0
8 38 8 31 9 201 8 78 0 0
8 44 8 30 9 195 8 78 0 0
8 42 8 31 9 199 8 79 0 0
8 43 8 31 9 193 8 78 0 0
8 42 8 31 9 200 8 75 0 0
8 45 8 31 9 195 8 77 0 0
8 38 8 30 9 195 8 76 0 0
8 44 8 31 9 197 8 86 0 0
8 43 8 31 9 196 8 73 0 0
8 46 8 30 9 202 8 78 0 0
8 42 8 30 9 190 8 80 0 0
8 40 8 30 9 197 8 76 0 0
8 37 8 30 9 202 8 70 0 0
8 42 8 30 9 202 8 80 0 0
8 43 8 31 9 195 8 77 0 0
8 40 8 30 9 198 8 78 0 0
8 43 8 30 9 196 8 76 0 0
8 44 8 30 9 195 8 76 0 0
8 38 8 30 9 203 8 75 0 0
8 40 8 30 9 192 8 77 0 0
8 40 8 30 9 197 8 78 0 0
8 42 8 30 9 197 8 78 0 0
8 42 8 30 9 202 8 80 0 0
8 43 8 30 9 198 8 79 0 0
8 45 8 30 9 194 8 77 0 0
8 45 8 30 9 196 8 77 0 0
8 50 8 31 9 178 8 78 0 0
8 53 8 23 9 205 8 71 0 0
8 39 8 23 9 200 8 70 0 0
8 40 8 23 9 192 8 69 0 0
8 40 8 22 9 198 8 70 0 0
8 43 8 23 9 190 8 69 0 0
8 44 8 24 9 196 8 69 0 0
8 43 8 24 9 208 8 70 0 0
8 37 8 24 9 185 8 71 0 0
8 43 8 24 9 202 8 70 0 0
8 43 8 24 9 196 8 71 0 0
8 42 8 24 9 195 8 72 0 0
8 44 8 24 9 200 8 71 0 0
8 44 8 25 9 196 8 70 0 0
8 43 8 25 9 199 8 70 0 0
8 41 8 25 9 199 8 71 0 0
8 42 8 25 9 198 8 73 0 0
8 42 8 25 9 191 8 68 0 0
8 45 8 25 9 197 8 68 0 0
8 40 8 25 9 193 8 67 0 0
8 41 8 26 9 204 8 71 0 0
8 44 8 26 9 199 8 69 0 0
8 42 8 26 9 219 8 70 0 0
8 51 8 26 9 195 8 72 0 0
8 39 8 26 9 199 8 72 0 0
8 41 8 27 9 192 8 71 0 0
8 42 8 26 9 195 8 71 0 0
8 43 8 26 9 196 8 71 0 0
8 43 8 26 9 201 8 71 0 0
8 51 8 26 9 203 8 72 0 0
8 45 8 26 9 198 8 70 0 0
8 43 8 26 9 203 8 69 0 0
8 46 8 26 9 204 8 67 0 0
8 46 8 27 9 202 8 69 0 0
8 43 8 27 9 202 8 68 0 0
8 46 8 27 9 202 8 68 0 0
8 46 8 27 9 199 8 68 0 0
8 38 8 27 9 202 8 69 0 0
8 47 8 27 9 203 8 70 0 0
8 45 8 28 9 198 8 70 0 0
8 44 8 27 9 199 8 67 0 0
8 44 8 27 9 186 8 68 0 0
8 42 8 27 9 196 8 68 0 0
8 42 8 27 9 202 8 71 0 0
8 40 8 27 9 194 8 73 0 0
8 44 8 27 9 196 8 73 0 0
8 36 8 27 9 200 8 73 0 0
8 42 8 28 9 213 8 71 0 0
8 45 8 28 9 196 8 72 0 0
8 40 8 27 9 200 8 72 0 0
8 41 8 27 9 198 8 74 0 0
8 44 8 27 9 201 8 70 0 0
8 45 8 27 9 200 8 70 0 0
8 41 8 27 9 201 8 71 0 0
8 40 8 27 9 197 8 71 0 0
8 43 8 28 9 187 8 71 0 0
8 38 8 28 9 200 8 71 0 0
8 43 8 28 9 193 8 68 0 0
8 44 8 28 9 201 8 69 0 0
8 47 8 28 9 204 8 67 0 0
8 45 8 36 9 198 8 78 0 0
8 45 8 35 9 200 8 77 0 0
8 41 8 35 9 200 8 79 0 0
8 42 8 35 9 199 8 81 0 0
8 42 8 35 9 205 8 77 0 0
8 41 8 34 9 201 8 78 0 0
8 42 8 34 9 198 8 77 0 0
8 43 8 34 9 196 8 77 0 0
8 42 8 33 9 198 8 78 0 0
8 43 8 34 9 197 8 77 0 0
8 42 8 34 9 211 8 78 0 0
8 43 8 34 9 192 8 78 0 0
8 29 8 34 9 196 8 77 0 0
8 42 8 34 9 202 8 73 0 0
8 46 8 33 9 196 8 72 0 0
8 40 8 32 9 201 8 73 0 0
8 44 8 32 9 192 8 74 0 0
8 45 8 32 9 202 8 74 0 0
8 41 8 32 9 193 8 70 0 0
8 42 8 32 9 199 8 74 0 0
8 40 8 32 9 198 8 77 0 0
8 43 8 32 9 197 8 80 0 0
8 43 8 32 9 199 8 77 0 0
8 40 8 32 9 200 8 76 0 0
8 42 8 32 9 199 8 76 0 0
8 43 8 32 9 194 8 75 0 0
8 40 8 31 9 199 8 76 0 0
8 39 8 31 9 198 8 77 0 0
8 43 8 31 9 197 8 78 0 0
8 39 8 31 9 199 8 77 0 0
8 40 8 31 9 193 8 77 0 0
8 43 8 31 9 200 8 76 0 0
8 45 8 31 9 202 8 78 0 0
8 46 8 31 9 202 8 79 0 0
8 44 8 31 9 200 8 79 0 0
8 46 8 31 9 226 8 79 0 0
8 49 8 32 9 209 8 77 0 0
8 47 8 30 9 194 8 77 0 0
8 39 8 31 9 202 8 76 0 0
8 39 8 31 9 198 8 78 0 0
8 40 8 30 9 204 8 78 0 0
8 41 8 31 9 205 8 75 0 0
8 46 8 31 9 197 8 79 0 0
8 40 8 30 9 198 8 70 0 0
8 36 8 30 9 195 8 82 0 0
8 40 8 31 9 204 8 80 0 0
8 43 8 30 9 194 8 76 0 0
8 40 8 31 9 198 8 75 0 0
8 42 8 30 9 193 8 76 0 0
8 40 8 30 9 198 8 77 0 0
8 40 8 29 9 203 8 78 0 0
8 42 8 30 9 193 8 77 0 0
8 45 8 30 9 195 8 78 0 0
8 42 8 30 9 206 8 75 0 0
8 46 8 30 9 203 8 75 0 0
8 45 8 30 9 200 8 76 0 0
8 46 8 30 9 204 8 76 0 0
8 43 8 30 9 196 8 76 0 0
8 44 8 30 9 189 8 77 0 0
8 33 8 30 9 188 8 77 0 0
8 39 8 23 9 190 8 72 0 0
8 41 8 23 9 190 8 73 0 0
8 37 8 22 9 195 8 71 0 0
8 39 8 22 9 192 8 71 0 0
8 41 8 23 9 189 8 71 0 0
8 38 8 23 9 199 8 69 0 0
8 41 8 23 9 198 8 69 0 0
8 39 8 23 9 195 8 69 0 0
8 33 8 23 9 209 8 69 0 0
8 40 8 23 9 201 8 71 0 0
8 40 8 24 9 216 8 71 0 0
8 37 8 24 9 200 8 72 0 0
8 40 8 24 9 205 8 73 0 0
8 45 8 24 9 199 8 73 0 0
8 48 8 24 9 197 8 69 0 0
8 42 8 24 9 190 8 70 0 0
8 41 8 24 9 197 8 69 0 0
8 42 8 24 9 196 8 70 0 0
8 42 8 25 9 196 8 72 0 0
8 46 8 25 9 201 8 71 0 0
8 42 8 25 9 195 8 71 0 0
8 48 8 25 9 206 8 71 0 0
8 43 8 25 9 204 8 71 0 0
8 54 8 26 9 189 8 72 0 0
8 45 8 27 9 192 8 70 0 0
8 46 8 26 9 194 8 69 0 0
8 43 8 27 9 199 8 69 0 0
8 41 8 26 9 195 8 70 0 0
8 39 8 26 9 192 8 71 0 0
8 41 8 26 9 199 8 70 0 0
8 39 8 26 9 198 8 71 0 0
8 37 8 26 9 198 8 71 0 0
8 36 8 26 9 177 8 70 0 0
8 44 8 26 9 202 8 71 0 0
8 54 8 26 9 194 8 70 0 0
8 41 8 26 9 202 8 69 0 0
8 43 8 26 9 196 8 69 0 0
8 43 8 26 9 203 8 67 0 0
8 41 8 26 9 199 8 69 0 0
8 43 8 27 9 204 8 73 0 0
8 44 8 27 9 192 8 69 0 0
8 42 8 27 9 198 8 69 0 0
8 46 8 27 9 197 8 71 0 0
8 46 8 27 9 200 8 70 0 0
8 42 8 27 9 197 8 71 0 0
8 43 8 27 9 202 8 71 0 0
8 46 8 28 9 195 8 70 0 0
8 49 8 28 9 193 8 71 0 0
8 38 8 28 9 199 8 71 0 0
8 38 8 28 9 197 8 69 0 0
8 45 8 27 9 197 8 70 0 0
8 37 8 27 9 200 8 70 0 0
8 43 8 27 9 199 8 69 0 0
8 41 8 27 9 190 8 71 0 0
8 38 8 28 9 196 8 71 0 0
8 41 8 27 9 211 8 69 0 0
8 46 8 27 9 201 8 72 0 0
8 47 8 28 9 204 8 70 0 0
8 43 8 27 9 203 8 69 0 0
8 42 8 35 9 194 8 78 0 0
8 45 8 35 9 206 8 76 0 0
8 44 8 35 9 195 8 75 0 0
8 44 8 35 9 194 8 76 0 0
8 44 8 35 9 202 8 78 0 0
8 45 8 34 9 202 8 75 0 0
8 47 8 34 9 203 8 78 0 0
8 40 8 35 9 194 8 80 0 0
8 42 8 34 9 202 8 78 0 0
8 40 8 34 9 197 8 80 0 0
8 35 8 34 9 199 8 79 0 0
8 41 8 34 9 193 8 72 0 0
8 43 8 34 9 203 8 77 0 0
8 49 8 33 9 195 8 77 0 0
8 41 8 32 9 203 8 90 0 0
8 40 8 33 9 195 8 78 0 0
8 36 8 32 9 193 8 65 0 0
8 41 8 32 9 198 8 75 0 0
8 49 8 32 9 205 8 77 0 0
8 45 8 32 9 202 8 69 0 0
8 41 8 32 9 195 8 62 0 0
8 41 8 32 9 199 8 76 0 0
8 42 8 32 9 177 8 77 0 0
8 40 8 32 9 187 8 78 0 0
8 48 8 33 9 202 8 78 0 0
8 48 8 32 9 196 8 78 0 0
8 46 8 32 9 195 8 80 0 0
8 48 8 32 9 204 8 79 0 0
8 42 8 32 9 196 8 79 0 0
8 45 8 32 9 200 8 79 0 0
8 54 8 32 9 200 8 76 0 0
8 39 8 32 9 199 8 76 0 0
8 35 8 32 9 198 8 78 0 0
8 42 8 32 9 198 8 78 0 0
8 30 8 31 9 170 8 78 0 0
8 40 8 31 9 195 8 77 0 0
8 40 8 31 9 193 8 69 0 0
8 37 8 31 9 199 8 86 0 0
8 51 8 30 9 208 8 77 0 0
8 45 8 30 9 199 8 81 0 0
8 44 8 30 9 200 8 67 0 0
8 41 8 30 9 197 8 80 0 0
8 47 8 31 9 214 8 77 0 0
8 42 8 30 9 196 8 78 0 0
8 32 8 31 9 195 8 82 0 0
8 37 8 30 9 194 8 77 0 0
8 43 8 30 9 202 8 78 0 0
8 43 8 30 9 202 8 79 0 0
8 41 8 30 9 199 8 78 0 0
8 43 8 30 9 205 8 77 0 0
8 45 8 30 9 198 8 77 0 0
8 44 8 30 9 191 8 75 0 0
8 46 8 30 9 199 8 75 0 0
8 46 8 30 9 199 8 75 0 0
8 40 8 30 9 196 8 78 0 0
8 41 8 30 9 197 8 78 0 0
8 41 8 30 9 201 8 78 0 0
8 33 8 23 9 193 8 72 0 0
8 43 8 23 9 205 8 70 0 0
8 40 8 22 9 195 8 69 0 0
8 39 8 23 9 198 8 70 0 0
8 38 8 22 9 188 8 73 0 0
8 39 8 23 9 188 8 71 0 0
8 40 8 23 9 189 8 72 0 0
8 44 8 23 9 190 8 72 0 0
8 41 8 23 9 194 8 70 0 0
8 47 8 23 9 187 8 72 0 0
8 45 8 25 9 199 8 72 0 0
8 47 8 24 9 200 8 73 0 0
8 45 8 25 9 201 8 71 0 0
8 45 8 25 9 205 8 71 0 0
8 45 8 25 9 194 8 71 0 0
8 46 8 25 9 195 8 72 0 0
8 42 8 25 9 190 8 70 0 0
8 47 8 25 9 195 8 71 0 0
8 49 8 25 9 186 8 71 0 0
8 49 8 25 9 185 8 71 0 0
8 43 8 26 9 195 8 69 0 0
8 43 8 25 9 198 8 70 0 0
8 36 8 26 9 197 8 71 0 0
8 42 8 25 9 186 8 70 0 0
8 39 8 26 9 191 8 71 0 0
8 41 8 25 9 197 8 69 0 0
8 39 8 26 9 198 8 74 0 0
8 38 8 26 9 193 8 71 0 0
8 41 8 26 9 189 8 72 0 0
8 42 8 26 9 190 8 70 0 0
8 40 8 26 9 198 8 69 0 0
8 47 8 26 9 207 8 69 0 0
8 43 8 26 9 208 8 70 0 0
8 39 8 26 9 191 8 72 0 0
8 44 8 26 9 191 8 71 0 0
8 45 8 27 9 197 8 71 0 0
8 42 8 27 9 208 8 71 0 0
8 41 8 27 9 200 8 69 0 0
8 41 8 27 9 200 8 68 0 0
8 58 8 27 9 227 8 71 0 0
8 27 8 27 9 188 8 71 0 0
8 54 8 27 9 192 8 71 0 0
8 47 8 27 9 186 8 70 0 0
8 43 8 27 9 194 8 70 0 0
8 41 8 27 9 195 8 72 0 0
8 40 8 27 9 198 8 73 0 0
8 41 8 27 9 210 8 74 0 0
8 41 8 27 9 196 8 72 0 0
8 44 8 28 9 198 8 71 0 0
8 41 8 27 9 188 8 71 0 0
8 42 8 27 9 193 8 71 0 0
8 43 8 26 9 194 8 73 0 0
8 43 8 27 9 196 8 70 0 0
8 35 8 27 9 189 8 69 0 0
8 44 8 27 9 194 8 68 0 0
8 53 8 27 9 205 8 70 0 0
8 45 8 27 9 200 8 69 0 0
8 42 8 28 9 205 8 72 0 0
8 49 8 28 9 203 8 72 0 0
8 39 8 28 9 200 8 72 0 0
8 31 8 27 9 191 8 77 0 0
8 50 8 35 9 199 8 76 0 0
8 52 8 35 9 198 8 79 0 0
8 40 8 35 9 195 8 78 0 0
8 43 8 34 9 197 8 77 0 0
8 42 8 34 9 200 8 78 0 0
8 43 8 34 9 197 8 78 0 0
8 43 8 34 9 190 8 78 0 0
8 42 8 33 9 192 8 77 0 0
8 42 8 33 9 212 8 80 0 0
8 44 8 34 9 200 8 78 0 0
8 43 8 34 9 204 8 69 0 0
8 44 8 34 9 199 8 80 0 0
8 43 8 33 9 199 8 72 0 0
8 41 8 33 9 196 8 76 0 0
8 45 8 32 9 201 8 72 0 0
8 37 8 32 9 202 8 73 0 0
8 30 8 32 9 193 8 80 0 0
8 40 8 32 9 202 8 75 0 0
8 41 8 32 9 196 8 76 0 0
8 40 8 32 9 193 8 77 0 0
8 43 8 32 9 190 8 77 0 0
8 42 8 32 9 192 8 78 0 0
8 46 8 32 9 195 8 77 0 0
8 42 8 31 9 196 8 78 0 0
8 43 8 31 9 196 8 77 0 0
8 46 8 31 9 196 8 77 0 0
8 42 8 31 9 194 8 76 0 0
8 53 8 31 9 228 8 79 0 0
8 64 8 31 9 203 8 79 0 0
8 42 8 32 9 188 8 75 0 0