8 32 8 15 9 233 8 70 0 0
8 14 8 15 10 47 8 70 0 0
8 32 8 16 9 254 8 67 0 0
8 30 8 16 9 234 8 70 0 0
8 30 8 16 9 249 8 69 0 0
8 16 8 15 9 132 8 66 0 0
7 231 8 16 9 219 8 69 0 0
8 28 8 16 9 234 8 65 0 0
8 35 8 17 9 235 8 62 0 0
8 35 8 17 9 245 8 67 0 0
8 32 8 16 9 234 8 67 0 0
8 21 8 16 9 227 8 68 0 0
8 27 8 17 10 20 8 68 0 0
8 77 8 17 10 82 8 67 0 0
8 45 8 17 9 176 8 67 0 0
8 15 8 17 9 241 8 65 0 0
8 33 8 17 9 236 8 72 0 0
8 28 8 17 9 252 8 65 0 0
8 37 8 18 9 240 8 70 0 0
8 30 8 18 9 233 8 70 0 0
8 31 8 18 9 237 8 68 0 0
8 26 8 18 9 225 8 69 0 0
8 19 8 17 9 199 8 70 0 0
8 36 8 18 9 230 8 71 0 0
8 62 8 18 9 253 8 67 0 0
8 29 8 17 9 248 8 68 0 0
8 30 8 18 9 236 8 73 0 0
8 30 8 18 9 228 8 62 0 0
8 16 8 18 9 246 8 64 0 0
8 32 8 17 9 245 8 67 0 0
8 36 8 18 9 231 8 70 0 0
8 33 8 18 9 254 8 67 0 0
8 36 8 18 9 235 8 65 0 0
8 37 8 18 9 237 8 65 0 0
8 37 8 18 9 238 8 65 0 0
8 44 8 18 9 232 8 67 0 0
8 52 8 19 9 240 8 67 0 0
8 29 8 19 9 231 8 67 0 0
8 29 8 19 9 242 8 70 0 0
8 42 8 19 9 236 8 69 0 0
8 28 8 19 9 223 8 68 0 0
8 33 8 19 9 230 8 74 0 0
8 39 8 25 9 221 8 74 0 0
8 1 8 25 10 122 8 75 0 0
8 18 8 26 10 65 8 73 0 0
8 88 8 24 9 171 8 77 0 0
8 45 8 24 9 222 8 74 0 0
8 37 8 23 9 240 8 74 0 0
8 33 8 23 9 243 8 76 0 0
8 31 8 23 9 239 8 77 0 0
8 31 8 23 9 196 8 73 0 0
8 28 8 22 9 231 8 75 0 0
8 36 8 23 9 232 8 71 0 0
8 37 8 23 9 234 8 73 0 0
8 36 8 23 9 231 8 73 0 0
8 33 8 23 9 233 8 73 0 0
8 26 8 22 9 229 8 73 0 0
8 32 8 22 9 239 8 74 0 0
8 70 8 23 9 72 8 74 0 0
7 251 8 22 9 251 8 74 0 0
8 95 8 22 9 239 8 71 0 0
8 34 8 21 9 239 8 70 0 0
8 27 8 21 9 237 8 74 0 0
8 30 8 21 10 22 8 74 0 0
7 228 8 22 9 251 8 73 0 0
8 101 8 21 10 45 8 75 0 0
8 15 8 22 10 2 8 72 0 0
8 26 8 21 9 249 8 72 0 0
8 17 8 21 9 248 8 77 0 0
8 31 8 21 9 240 8 74 0 0
8 32 8 21 9 231 8 76 0 0
8 25 8 22 9 205 8 73 0 0
7 234 8 22 10 64 8 74 0 0
8 37 8 21 10 4 8 73 0 0
8 28 8 20 9 238 8 73 0 0
8 34 8 20 9 236 8 72 0 0
8 32 8 20 9 237 8 71 0 0
8 20 8 20 9 246 8 71 0 0
8 112 8 21 9 154 8 73 0 0
8 39 8 20 9 229 8 74 0 0
8 38 8 21 9 229 8 74 0 0
8 34 8 21 9 238 8 75 0 0
8 34 8 21 9 231 8 76 0 0
8 28 8 21 9 234 8 75 0 0
8 27 8 21 9 235 8 77 0 0
8 19 8 21 10 9 8 75 0 0
7 239 8 21 9 253 8 72 0 0
7 240 8 21 10 225 8 71 0 0
8 29 8 20 9 234 8 71 0 0
8 30 8 20 9 229 8 72 0 0
8 32 8 20 9 234 8 73 0 0
8 23 8 19 9 233 8 71 0 0
8 14 8 19 9 238 8 74 0 0
8 35 8 19 9 234 8 72 0 0
8 36 8 19 9 234 8 73 0 0
8 31 8 19 9 251 8 74 0 0
8 33 8 20 9 219 8 75 0 0
8 83 8 21 10 13 8 74 0 0
8 134 8 21 9 48 8 76 0 0
8 133 8 22 9 231 8 73 0 0
8 43 8 22 10 50 8 73 0 0
8 33 8 16 9 221 8 70 0 0
8 31 8 15 9 237 8 68 0 0
8 31 8 15 9 231 8 66 0 0
8 31 8 15 9 193 8 70 0 0
8 27 8 15 9 228 8 69 0 0
8 36 8 14 9 239 8 70 0 0
8 31 8 15 9 204 8 66 0 0
8 38 8 15 9 244 8 67 0 0
8 37 8 16 9 230 8 68 0 0
8 22 8 15 9 255 8 68 0 0
8 50 8 16 9 235 8 68 0 0
8 24 8 15 9 250 8 69 0 0
8 32 8 16 9 225 8 65 0 0
8 31 8 16 9 241 8 67 0 0
8 32 8 17 9 255 8 68 0 0
8 32 8 16 9 236 8 67 0 0
8 66 8 17 10 20 8 68 0 0
8 42 8 18 9 222 8 64 0 0
8 28 8 16 9 234 8 69 0 0
8 37 8 16 9 242 8 68 0 0
8 32 8 17 9 232 8 67 0 0
8 36 8 17 9 196 8 69 0 0
8 45 8 17 10 26 8 67 0 0
8 50 8 18 9 211 8 64 0 0
8 34 8 18 9 243 8 70 0 0
8 35 8 18 9 229 8 61 0 0
8 31 8 18 9 233 8 67 0 0
8 27 8 19 9 230 8 70 0 0
8 34 8 18 9 232 8 68 0 0
8 41 8 18 9 238 8 66 0 0
8 30 8 18 9 224 8 68 0 0
8 38 8 18 9 249 8 68 0 0
8 38 8 18 9 234 8 70 0 0
8 30 8 17 9 221 8 69 0 0
8 28 8 18 9 210 8 69 0 0
8 47 8 17 10 0 8 72 0 0
8 31 8 17 9 200 8 69 0 0
8 53 8 17 9 210 8 69 0 0
8 63 8 18 9 173 8 70 0 0
8 19 8 17 9 216 8 68 0 0
8 17 8 17 9 230 8 67 0 0
8 30 8 18 9 238 8 65 0 0
8 48 8 18 10 11 8 67 0 0
8 37 8 18 9 234 8 68 0 0
8 32 8 18 9 235 8 71 0 0
8 15 8 18 9 224 8 70 0 0
8 13 8 19 9 223 8 63 0 0
8 27 8 18 9 231 8 68 0 0
8 32 8 18 9 240 8 65 0 0
8 27 8 17 9 236 8 67 0 0
8 31 8 17 9 230 8 66 0 0
8 49 8 19 9 218 8 65 0 0
8 32 8 18 9 249 8 66 0 0
8 43 8 19 9 196 8 66 0 0
8 25 8 19 9 232 8 66 0 0
8 56 8 19 9 222 8 67 0 0
8 53 8 19 10 22 8 66 0 0
8 30 8 19 9 232 8 70 0 0
8 41 8 19 9 223 8 64 0 0
8 42 8 19 9 249 8 66 0 0
8 37 8 19 9 240 8 67 0 0
8 20 8 18 9 234 8 68 0 0
8 30 8 18 9 240 8 74 0 0
8 34 8 25 9 235 8 75 0 0
8 28 8 25 9 229 8 76 0 0
8 36 8 25 9 232 8 75 0 0
8 28 8 24 9 244 8 74 0 0
8 34 8 25 9 245 8 75 0 0
8 29 8 25 9 236 8 74 0 0
8 28 8 25 9 212 8 75 0 0
7 236 8 25 10 119 8 71 0 0
7 251 8 24 10 29 8 73 0 0
8 26 8 22 9 236 8 73 0 0
8 34 8 23 9 235 8 73 0 0
8 26 8 23 9 236 8 75 0 0
8 23 8 24 10 18 8 74 0 0
7 201 8 22 10 56 8 74 0 0
8 30 8 22 9 233 8 72 0 0
8 27 8 23 9 241 8 72 0 0
8 32 8 22 9 222 8 73 0 0
8 32 8 22 9 227 8 76 0 0
8 32 8 22 9 229 8 76 0 0
8 36 8 22 9 231 8 75 0 0
8 39 8 22 9 227 8 74 0 0
8 31 8 22 9 178 8 73 0 0
8 84 8 23 9 110 8 73 0 0
7 247 8 21 10 136 8 76 0 0
8 9 8 21 9 243 8 73 0 0
8 34 8 20 9 254 8 73 0 0
8 33 8 20 9 243 8 73 0 0
8 44 8 20 9 232 8 73 0 0
8 38 8 20 9 233 8 72 0 0
8 23 8 20 9 234 8 72 0 0
8 28 8 20 9 239 8 74 0 0
8 27 8 20 9 238 8 75 0 0
8 23 8 20 9 237 8 75 0 0
8 33 8 20 9 224 8 74 0 0
8 31 8 20 9 245 8 76 0 0
8 48 8 20 10 0 8 77 0 0
8 108 8 21 9 91 8 74 0 0
8 47 8 20 9 216 8 75 0 0
8 27 8 20 9 234 8 74 0 0
8 33 8 20 9 230 8 73 0 0
8 39 8 20 10 3 8 75 0 0
8 76 8 22 9 202 8 71 0 0
8 6 8 21 9 208 8 74 0 0
8 67 8 21 9 248 8 75 0 0
8 17 8 22 10 17 8 73 0 0
8 12 8 21 10 5 8 73 0 0
8 34 8 21 9 229 8 74 0 0
8 33 8 21 9 235 8 75 0 0
8 30 8 21 9 234 8 75 0 0
8 36 8 20 9 239 8 73 0 0
8 45 8 20 10 35 8 74 0 0
8 21 8 19 9 243 8 74 0 0
8 32 8 19 9 237 8 74 0 0
8 26 8 20 9 235 8 72 0 0
8 32 8 20 9 227 8 74 0 0
7 214 8 20 10 32 8 74 0 0
8 18 8 19 9 243 8 74 0 0
8 36 8 19 9 239 8 72 0 0
8 35 8 20 9 239 8 75 0 0
7 246 8 12 9 165 8 66 0 0
8 14 8 11 10 61 8 65 0 0
8 32 8 12 10 65 8 66 0 0
8 28 8 12 10 41 8 66 0 0
8 19 8 13 10 9 8 72 0 0
8 37 8 14 9 241 8 64 0 0
8 25 8 13 9 245 8 71 0 0
8 32 8 13 9 230 8 64 0 0
8 44 8 14 9 243 8 67 0 0
8 31 8 14 9 250 8 68 0 0
8 31 8 15 10 18 8 70 0 0
8 18 8 14 9 244 8 70 0 0
8 30 8 15 9 235 8 65 0 0
8 28 8 14 9 255 8 68 0 0
8 24 8 15 10 25 8 68 0 0
8 34 8 15 9 245 8 68 0 0
8 16 8 15 9 249 8 66 0 0
8 5 8 15 10 50 8 68 0 0
8 68 8 16 9 235 8 68 0 0
8 15 8 15 9 158 8 69 0 0
8 31 8 15 9 233 8 67 0 0
8 42 8 16 9 255 8 68 0 0
8 36 8 16 9 207 8 68 0 0
8 43 8 16 9 234 8 67 0 0
8 42 8 15 9 204 8 67 0 0
8 59 8 16 9 179 8 69 0 0
8 48 8 16 9 216 8 68 0 0
8 35 8 17 9 121 8 68 0 0
8 17 8 16 9 221 8 69 0 0
8 40 8 16 9 229 8 70 0 0
8 28 8 17 9 234 8 68 0 0
8 9 8 17 9 234 8 67 0 0
8 41 8 17 9 249 8 69 0 0
8 21 8 16 9 234 8 70 0 0
8 33 8 17 9 249 8 67 0 0
8 32 8 17 9 239 8 69 0 0
8 38 8 17 9 227 8 71 0 0
8 53 8 17 10 6 8 71 0 0
8 36 8 17 9 238 8 69 0 0
8 28 8 17 9 250 8 70 0 0
8 50 8 18 9 178 8 67 0 0
7 250 8 18 10 27 8 68 0 0
8 9 8 18 9 240 8 71 0 0
8 4 8 18 10 16 8 67 0 0
8 14 8 18 9 142 8 71 0 0
8 22 8 18 9 229 8 69 0 0
8 29 8 19 9 239 8 66 0 0
8 34 8 18 9 229 8 63 0 0
8 44 8 18 9 248 8 68 0 0
8 33 8 18 9 244 8 66 0 0
8 49 8 18 9 217 8 67 0 0
8 30 8 18 9 238 8 70 0 0
7 234 8 18 9 196 8 69 0 0
8 38 8 18 9 223 8 65 0 0
8 52 8 18 10 0 8 67 0 0
8 5 8 18 10 42 8 65 0 0
8 19 8 18 10 13 8 65 0 0
8 53 8 18 9 140 8 69 0 0
8 38 8 18 10 57 8 67 0 0
8 3 8 18 10 244 8 72 0 0
8 32 8 18 9 229 8 70 0 0
8 30 8 17 9 223 8 66 0 0
8 27 8 17 9 243 8 68 0 0
8 31 8 23 9 239 8 70 0 0
8 36 8 24 9 230 8 72 0 0
8 15 8 23 9 248 8 73 0 0
8 31 8 23 9 232 8 72 0 0
8 30 8 23 9 234 8 72 0 0
8 30 8 23 9 228 8 73 0 0
8 27 8 23 9 245 8 73 0 0
8 28 8 24 9 244 8 73 0 0
8 39 8 24 9 234 8 75 0 0
8 28 8 24 9 224 8 73 0 0
8 35 8 24 9 228 8 74 0 0
8 33 8 24 9 76 8 76 0 0
8 40 8 23 9 244 8 76 0 0
8 34 8 23 9 233 8 75 0 0
8 31 8 22 9 213 8 76 0 0
8 35 8 22 9 239 8 75 0 0
8 25 8 21 9 251 8 72 0 0
8 30 8 22 9 234 8 72 0 0
8 34 8 22 9 233 8 75 0 0
8 31 8 22 9 229 8 74 0 0
8 29 8 22 9 235 8 73 0 0
8 35 8 22 9 234 8 74 0 0
8 31 8 22 9 232 8 73 0 0
8 35 8 22 9 233 8 71 0 0
8 25 8 22 9 228 8 73 0 0
8 30 8 21 9 243 8 74 0 0
7 220 8 21 10 11 8 72 0 0
8 28 8 20 9 238 8 74 0 0
8 33 8 20 9 236 8 74 0 0
8 34 8 20 9 231 8 75 0 0
8 45 8 21 9 228 8 74 0 0
8 34 8 21 9 192 8 74 0 0
8 30 8 22 10 84 8 71 0 0
8 42 8 21 9 224 8 71 0 0
8 26 8 21 9 252 8 75 0 0
8 29 8 20 9 232 8 72 0 0
8 29 8 21 9 235 8 72 0 0
8 32 8 20 9 245 8 71 0 0
8 25 8 20 9 231 8 73 0 0
8 37 8 20 9 224 8 75 0 0
8 55 8 20 9 111 8 76 0 0
8 103 8 20 9 190 8 74 0 0
8 25 8 19 9 233 8 74 0 0
8 32 8 19 9 220 8 73 0 0
8 32 8 19 9 238 8 75 0 0
8 0 8 20 9 249 8 73 0 0
8 34 8 18 9 230 8 74 0 0
8 34 8 19 9 233 8 75 0 0
8 33 8 19 9 235 8 75 0 0
8 29 8 19 9 236 8 72 0 0
8 28 8 19 9 240 8 73 0 0
8 31 8 18 9 229 8 73 0 0
8 32 8 18 9 231 8 76 0 0
8 28 8 19 9 207 8 74 0 0
8 8 8 18 9 245 8 72 0 0
8 34 8 17 9 238 8 73 0 0
8 31 8 18 9 235 8 72 0 0
8 32 8 18 9 235 8 75 0 0
8 26 8 18 9 239 8 73 0 0
8 34 8 18 9 241 8 73 0 0
8 28 8 17 9 239 8 73 0 0
8 33 8 18 9 243 8 75 0 0
8 58 8 12 9 216 8 69 0 0
8 58 8 11 9 202 8 71 0 0
7 253 8 12 10 44 8 71 0 0
8 65 8 11 10 26 8 69 0 0
8 7 8 11 9 252 8 65 0 0
8 10 8 11 9 239 8 64 0 0
8 10 8 13 10 10 8 71 0 0
8 23 8 12 9 245 8 70 0 0
8 36 8 13 10 1 8 69 0 0
8 40 8 12 9 246 8 68 0 0
8 30 8 13 9 240 8 62 0 0
8 16 8 13 10 11 8 63 0 0
8 24 8 14 9 204 8 71 0 0
8 36 8 14 9 236 8 71 0 0
8 52 8 15 9 149 8 69 0 0
8 30 8 16 10 7 8 66 0 0
8 14 8 15 10 28 8 64 0 0
8 3 8 15 10 14 8 65 0 0
8 4 8 14 9 209 8 64 0 0
8 29 8 15 9 235 8 69 0 0
8 17 8 14 9 218 8 63 0 0
8 42 8 14 9 241 8 63 0 0
8 31 8 15 9 242 8 64 0 0
8 34 8 15 9 246 8 64 0 0
8 32 8 15 9 198 8 64 0 0
8 25 8 15 9 225 8 64 0 0
8 18 8 15 9 248 8 64 0 0
8 33 8 15 9 248 8 65 0 0
8 11 8 15 10 22 8 65 0 0
8 23 8 15 9 246 8 66 0 0
8 3 8 16 10 31 8 65 0 0
8 15 8 16 9 255 8 65 0 0
8 39 8 16 9 254 8 64 0 0
8 39 8 15 9 239 8 70 0 0
8 28 8 15 9 228 8 66 0 0
8 32 8 15 9 240 8 63 0 0
8 56 8 15 9 248 8 64 0 0
8 32 8 16 9 227 8 70 0 0
8 20 8 16 10 226 8 69 0 0
8 35 8 16 9 230 8 69 0 0
8 34 8 16 9 229 8 68 0 0
8 27 8 16 9 234 8 66 0 0
8 35 8 15 9 241 8 69 0 0
8 12 8 15 9 142 8 66 0 0
8 33 8 16 9 230 8 67 0 0
7 229 8 15 10 5 8 65 0 0
8 59 8 15 9 171 8 69 0 0
8 30 8 16 9 242 8 67 0 0
8 23 8 15 9 193 8 64 0 0
8 9 8 15 9 234 8 66 0 0
8 28 8 15 9 223 8 67 0 0
8 24 8 15 9 246 8 70 0 0
8 47 8 16 9 251 8 68 0 0
8 26 8 15 9 238 8 71 0 0
8 23 8 15 9 238 8 70 0 0
8 34 8 16 9 237 8 67 0 0
8 19 8 15 9 196 8 69 0 0
8 17 8 15 10 19 8 66 0 0
8 15 8 16 10 13 8 65 0 0
8 27 8 24 9 232 8 70 0 0
8 35 8 23 9 227 8 72 0 0
8 75 8 24 9 202 8 73 0 0
8 34 8 23 9 228 8 73 0 0
8 43 8 22 9 231 8 74 0 0
8 30 8 22 9 236 8 75 0 0
8 30 8 22 9 220 8 76 0 0
8 16 8 23 10 15 8 76 0 0
8 34 8 22 9 233 8 75 0 0
8 30 8 22 9 239 8 75 0 0
8 34 8 21 9 235 8 74 0 0
8 25 8 21 9 238 8 73 0 0
8 28 8 21 9 239 8 74 0 0
8 37 8 21 9 233 8 76 0 0
8 34 8 22 9 249 8 72 0 0
8 24 8 22 9 211 8 75 0 0
8 57 8 21 9 212 8 72 0 0
8 29 8 21 9 231 8 73 0 0
8 26 8 21 9 233 8 72 0 0
8 30 8 21 9 225 8 75 0 0
8 14 8 22 9 165 8 76 0 0
7 234 8 22 9 190 8 73 0 0
8 25 8 22 9 203 8 76 0 0
8 33 8 20 9 236 8 71 0 0
8 34 8 20 9 238 8 74 0 0
8 33 8 20 9 236 8 74 0 0
8 28 8 20 9 234 8 73 0 0
8 27 8 20 9 237 8 74 0 0
8 27 8 20 9 230 8 73 0 0
8 72 8 21 9 61 8 75 0 0
8 50 8 20 9 229 8 74 0 0
8 33 8 18 9 239 8 74 0 0
8 33 8 19 9 243 8 73 0 0
8 26 8 19 9 237 8 73 0 0
8 41 8 20 9 98 8 74 0 0
8 38 8 19 9 230 8 72 0 0
8 35 8 19 9 233 8 71 0 0
8 31 8 20 9 234 8 73 0 0
8 37 8 20 9 247 8 74 0 0
8 27 8 20 9 230 8 75 0 0
8 31 8 20 9 235 8 75 0 0
8 29 8 20 9 227 8 75 0 0
8 33 8 20 9 226 8 73 0 0
8 30 8 20 9 244 8 72 0 0
8 35 8 20 9 239 8 72 0 0
8 26 8 21 10 161 8 73 0 0
8 8 8 20 9 245 8 73 0 0
8 20 8 21 10 3 8 73 0 0
7 211 8 20 10 202 8 70 0 0
7 223 8 20 10 136 8 75 0 0
8 1 8 19 9 246 8 74 0 0
8 24 8 19 9 197 8 72 0 0
8 40 8 19 9 216 8 75 0 0
8 37 8 19 9 222 8 76 0 0
8 40 8 19 9 3 8 76 0 0
8 25 8 19 9 245 8 75 0 0
8 38 8 19 10 6 8 73 0 0
8 33 8 20 9 243 8 74 0 0
8 83 8 20 9 81 8 75 0 0
8 34 8 13 9 229 8 69 0 0
8 31 8 13 9 239 8 68 0 0
8 23 8 13 9 243 8 69 0 0
8 16 8 13 9 245 8 67 0 0
8 33 8 13 9 199 8 67 0 0
8 23 8 13 9 230 8 73 0 0
8 33 8 14 9 236 8 68 0 0
8 29 8 14 9 237 8 68 0 0
8 31 8 14 9 233 8 69 0 0
8 32 8 14 9 238 8 68 0 0
8 39 8 15 9 207 8 69 0 0
8 4 8 14 9 253 8 67 0 0
8 23 8 14 9 229 8 68 0 0
8 32 8 15 9 217 8 69 0 0
8 31 8 15 9 239 8 68 0 0
8 41 8 15 9 246 8 68 0 0
8 41 8 15 9 235 8 68 0 0
8 33 8 15 9 234 8 67 0 0
8 30 8 15 9 224 8 70 0 0
8 35 8 16 9 224 8 63 0 0
8 35 8 15 9 233 8 67 0 0
8 50 8 16 10 51 8 68 0 0
8 59 8 16 9 239 8 68 0 0
8 47 8 17 9 215 8 66 0 0
8 26 8 17 9 252 8 65 0 0
8 27 8 16 9 230 8 64 0 0
8 31 8 17 9 240 8 67 0 0
8 31 8 17 9 238 8 71 0 0
8 30 8 17 9 229 8 70 0 0
8 31 8 16 9 239 8 67 0 0
8 33 8 16 9 250 8 67 0 0
8 30 8 16 9 207 8 74 0 0
8 37 8 17 9 227 8 65 0 0
8 34 8 16 9 239 8 66 0 0
8 62 8 16 9 235 8 69 0 0
8 15 8 16 9 157 8 65 0 0
8 29 8 16 9 243 8 64 0 0
8 30 8 17 9 235 8 72 0 0
8 36 8 16 9 238 8 58 0 0
8 17 8 17 9 201 8 70 0 0
8 42 8 17 9 203 8 68 0 0
8 51 8 16 9 233 8 65 0 0
7 240 8 17 9 197 8 64 0 0
8 35 8 17 9 231 8 69 0 0
8 30 8 17 9 238 8 66 0 0
8 38 8 17 9 216 8 67 0 0
8 23 8 17 10 7 8 66 0 0
8 30 8 16 9 240 8 65 0 0
8 39 8 17 9 239 8 68 0 0
8 27 8 17 9 236 8 69 0 0
8 41 8 17 10 0 8 70 0 0
8 34 8 17 10 70 8 68 0 0
8 72 8 17 9 192 8 68 0 0
7 251 8 17 10 39 8 69 0 0
8 68 8 18 9 161 8 68 0 0
8 12 8 18 10 1 8 70 0 0
8 24 8 18 9 249 8 71 0 0
8 39 8 19 9 238 8 71 0 0
8 10 8 18 9 233 8 70 0 0
8 29 8 18 9 240 8 69 0 0
8 54 8 18 10 5 8 67 0 0
8 25 8 18 9 225 8 67 0 0
8 36 8 18 9 216 8 68 0 0
8 36 8 18 9 248 8 69 0 0
7 247 8 26 10 17 8 71 0 0
8 26 8 25 9 243 8 73 0 0
8 36 8 25 9 244 8 74 0 0
8 32 8 25 9 233 8 75 0 0
8 29 8 25 9 232 8 74 0 0
8 32 8 25 9 237 8 74 0 0
8 30 8 25 9 228 8 74 0 0
8 37 8 25 9 239 8 73 0 0
8 26 8 24 10 7 8 74 0 0
8 90 8 25 9 66 8 74 0 0
7 202 8 24 10 29 8 73 0 0
8 32 8 23 9 229 8 75 0 0
8 34 8 23 9 236 8 73 0 0
8 25 8 24 9 231 8 73 0 0
8 57 8 24 9 225 8 73 0 0
8 35 8 23 9 237 8 70 0 0
8 32 8 23 9 233 8 73 0 0
8 30 8 22 9 230 8 74 0 0
8 29 8 22 9 248 8 74 0 0
8 25 8 23 9 235 8 75 0 0
8 33 8 22 9 236 8 74 0 0
8 22 8 22 9 242 8 74 0 0
8 31 8 23 9 253 8 73 0 0
7 211 8 22 10 85 8 73 0 0
8 9 8 21 9 234 8 74 0 0
8 32 8 21 9 232 8 73 0 0
8 30 8 21 9 238 8 74 0 0
8 31 8 21 9 230 8 75 0 0
8 28 8 21 9 157 8 75 0 0
8 29 8 20 9 238 8 74 0 0
8 37 8 20 9 240 8 74 0 0
8 34 8 21 9 230 8 73 0 0
8 32 8 21 9 235 8 74 0 0
8 30 8 21 9 231 8 73 0 0
8 32 8 22 9 240 8 72 0 0
8 34 8 21 9 231 8 76 0 0
8 26 8 21 9 254 8 74 0 0
7 244 8 21 10 107 8 72 0 0
8 23 8 20 9 227 8 73 0 0
8 31 8 20 9 234 8 75 0 0
8 32 8 20 9 235 8 74 0 0
8 105 8 20 9 185 8 72 0 0
8 56 8 20 9 100 8 74 0 0
8 40 8 19 9 238 8 73 0 0
8 32 8 19 9 230 8 72 0 0
8 27 8 19 9 228 8 73 0 0
8 35 8 19 9 233 8 73 0 0
8 33 8 19 9 237 8 74 0 0
8 31 8 19 9 235 8 74 0 0
8 38 8 19 9 208 8 78 0 0
8 21 8 20 10 117 8 77 0 0
8 28 8 19 9 227 8 74 0 0
8 36 8 19 9 239 8 73 0 0
8 30 8 18 9 238 8 73 0 0
8 27 8 19 9 233 8 74 0 0
8 67 8 19 9 243 8 73 0 0
7 246 8 19 9 124 8 75 0 0
8 30 8 19 10 12 8 77 0 0
8 29 8 19 9 242 8 76 0 0
8 80 8 20 9 212 8 75 0 0
8 34 8 19 10 6 8 75 0 0
8 31 8 14 9 243 8 68 0 0
8 26 8 14 9 238 8 72 0 0
8 26 8 14 9 228 8 69 0 0
8 34 8 14 9 223 8 65 0 0
8 35 8 14 9 247 8 67 0 0
8 30 8 14 9 226 8 68 0 0
8 37 8 14 9 239 8 67 0 0
8 34 8 14 9 234 8 70 0 0
8 23 8 15 9 174 8 75 0 0
8 26 8 15 9 220 8 64 0 0
8 32 8 15 9 234 8 67 0 0
8 34 8 14 9 232 8 67 0 0
8 28 8 15 10 3 8 69 0 0
8 42 8 15 10 47 8 67 0 0
8 45 8 15 9 215 8 69 0 0
8 18 8 15 10 15 8 67 0 0
8 22 8 16 9 240 8 70 0 0
8 35 8 16 9 232 8 71 0 0
8 34 8 16 9 213 8 69 0 0
8 29 8 17 9 225 8 67 0 0
8 23 8 16 9 249 8 67 0 0
8 25 8 16 9 243 8 69 0 0
8 32 8 17 9 254 8 69 0 0
8 16 8 16 9 191 8 68 0 0
8 24 8 16 9 228 8 72 0 0
8 22 8 16 9 232 8 63 0 0
8 30 8 15 9 234 8 64 0 0
8 33 8 17 9 229 8 69 0 0
8 40 8 16 9 241 8 64 0 0
8 31 8 16 9 223 8 71 0 0
8 32 8 17 9 241 8 64 0 0
8 35 8 17 9 233 8 66 0 0
8 29 8 17 9 232 8 66 0 0
8 36 8 17 9 237 8 66 0 0
8 26 8 17 9 231 8 70 0 0
8 38 8 17 9 242 8 64 0 0
8 27 8 17 9 231 8 70 0 0
8 33 8 18 9 234 8 68 0 0
8 32 8 17 9 234 8 60 0 0
8 29 8 17 9 230 8 67 0 0
8 28 8 16 9 238 8 66 0 0
8 36 8 16 9 246 8 67 0 0
8 37 8 17 9 250 8 68 0 0
8 30 8 17 9 210 8 69 0 0
8 24 8 16 9 246 8 68 0 0
8 36 8 16 9 246 8 66 0 0
7 252 8 16 10 25 8 68 0 0
8 35 8 15 9 222 8 70 0 0
8 30 8 16 9 179 8 71 0 0
7 239 8 16 10 51 8 71 0 0
8 48 8 16 9 248 8 70 0 0
8 0 8 16 9 205 8 71 0 0
8 30 8 17 9 238 8 67 0 0
8 31 8 18 9 239 8 68 0 0
8 30 8 17 9 225 8 70 0 0
8 31 8 17 9 234 8 67 0 0
8 30 8 17 10 4 8 69 0 0
8 36 8 17 9 246 8 68 0 0
8 31 8 16 9 238 8 68 0 0
8 37 8 16 9 221 8 67 0 0
8 48 8 17 10 2 8 70 0 0
8 42 8 16 9 231 8 69 0 0
8 34 8 16 9 252 8 69 0 0
8 33 8 16 10 23 8 69 0 0
8 21 8 16 9 249 8 67 0 0
8 50 8 17 9 211 8 68 0 0
8 27 8 17 10 1 8 67 0 0
8 37 8 17 9 243 8 65 0 0
8 28 8 17 10 12 8 67 0 0
8 38 8 17 9 240 8 65 0 0
8 29 8 17 9 246 8 69 0 0
8 26 8 17 9 246 8 70 0 0
8 32 8 17 9 236 8 71 0 0
8 36 8 17 9 236 8 73 0 0
8 34 8 17 9 225 8 69 0 0
8 28 8 17 9 226 8 70 0 0
8 30 8 17 9 235 8 70 0 0
8 32 8 17 10 7 8 76 0 0
8 52 8 25 9 227 8 75 0 0
8 33 8 24 9 235 8 75 0 0
7 255 8 24 10 67 8 75 0 0
8 41 8 24 9 238 8 75 0 0
8 32 8 23 9 244 8 74 0 0
8 33 8 24 9 237 8 75 0 0
8 34 8 23 10 19 8 75 0 0
8 31 8 23 9 213 8 72 0 0
8 34 8 23 9 252 8 74 0 0
8 38 8 23 9 243 8 75 0 0
8 61 8 22 9 218 8 78 0 0
8 38 8 22 9 211 8 75 0 0
8 47 8 22 9 197 8 72 0 0
8 44 8 22 9 81 8 76 0 0
8 47 8 22 10 2 8 72 0 0
8 26 8 20 9 234 8 75 0 0
8 34 8 20 9 237 8 74 0 0
8 32 8 20 9 231 8 74 0 0
8 30 8 20 9 231 8 74 0 0
7 28 8 20 9 233 8 71 0 0
8 26 8 19 9 243 8 73 0 0
8 39 8 20 9 237 8 70 0 0
8 30 8 20 9 239 8 71 0 0
8 33 8 20 9 234 8 72 0 0
8 33 8 20 9 235 8 73 0 0
8 36 8 20 9 235 8 72 0 0
8 33 8 20 9 240 8 73 0 0
8 31 8 20 9 252 8 72 0 0
8 43 8 21 9 90 8 71 0 0
8 28 8 21 9 244 8 73 0 0
8 64 8 19 9 245 8 75 0 0
8 16 8 18 9 241 8 75 0 0
8 29 8 18 9 236 8 75 0 0
8 38 8 18 9 225 8 76 0 0
8 34 8 19 9 240 8 76 0 0
7 235 8 18 9 228 8 75 0 0
8 42 8 18 9 231 8 75 0 0
8 28 8 18 9 236 8 73 0 0
8 32 8 18 9 238 8 75 0 0
8 37 8 18 9 234 8 75 0 0
8 29 8 18 9 226 8 76 0 0
8 34 8 19 9 235 8 75 0 0
8 50 8 18 9 195 8 72 0 0
8 48 8 18 9 206 8 74 0 0
8 49 8 18 9 196 8 76 0 0
8 66 8 19 10 0 8 76 0 0
8 27 8 19 9 79 8 72 0 0
8 32 8 19 9 230 8 73 0 0
8 66 8 18 9 206 8 74 0 0
8 28 8 17 9 236 8 75 0 0
8 31 8 17 9 238 8 75 0 0
8 30 8 17 9 236 8 72 0 0
8 16 8 17 9 239 8 74 0 0
8 54 8 18 9 243 8 76 0 0
8 34 8 17 9 237 8 74 0 0
8 34 8 18 9 233 8 75 0 0
8 33 8 18 9 234 8 76 0 0
8 28 8 18 9 242 8 77 0 0
8 30 8 18 9 231 8 75 0 0
8 40 8 18 9 218 8 76 0 0
8 20 8 18 9 223 8 77 0 0
8 36 8 18 9 232 8 76 0 0
8 22 8 18 9 225 8 75 0 0
8 14 8 18 9 140 8 74 0 0
8 104 8 18 9 190 8 73 0 0
7 243 8 19 9 146 8 78 0 0
8 59 8 18 9 235 8 74 0 0
8 31 8 18 9 236 8 75 0 0
8 37 8 18 9 226 8 72 0 0
8 33 8 18 9 240 8 71 0 0
8 30 8 18 9 239 8 72 0 0
8 28 8 18 9 230 8 72 0 0
8 27 8 10 9 238 8 73 0 0
8 39 8 10 9 224 8 73 0 0
8 24 8 10 10 23 8 73 0 0
8 61 8 11 10 57 8 72 0 0
8 73 8 11 10 83 8 70 0 0
8 73 8 11 10 26 8 69 0 0
8 34 8 11 9 144 8 69 0 0
7 255 8 13 10 53 8 70 0 0
8 19 8 12 10 26 8 69 0 0
8 63 8 13 10 35 8 63 0 0
8 36 8 13 9 237 8 67 0 0
8 29 8 13 9 226 8 69 0 0
8 65 8 13 9 248 8 67 0 0
8 26 8 13 9 228 8 64 0 0
8 24 8 13 9 235 8 66 0 0
8 30 8 13 9 196 8 66 0 0
8 22 8 14 9 246 8 67 0 0
8 33 8 14 9 244 8 68 0 0
8 31 8 14 9 232 8 66 0 0
8 32 8 14 10 16 8 67 0 0
8 31 8 14 9 218 8 67 0 0
8 33 8 15 10 1 8 66 0 0
8 24 8 15 9 229 8 65 0 0
8 41 8 16 10 2 8 76 0 0
8 30 8 15 9 230 8 68 0 0
8 39 8 16 9 221 8 69 0 0
8 29 8 16 9 228 8 66 0 0
8 33 8 16 9 204 8 67 0 0
8 26 8 16 9 248 8 67 0 0
8 37 8 17 9 243 8 69 0 0
8 38 8 16 9 236 8 72 0 0
8 38 8 16 9 230 8 66 0 0
8 58 8 16 9 213 8 66 0 0
8 10 8 16 10 54 8 65 0 0
8 16 8 17 10 43 8 65 0 0
8 32 8 17 9 220 8 65 0 0
8 4 8 17 10 18 8 67 0 0
8 67 8 17 10 48 8 67 0 0
8 71 8 18 10 58 8 67 0 0
8 56 8 17 10 71 8 67 0 0
8 19 8 17 9 233 8 72 0 0
8 35 8 17 9 240 8 67 0 0
8 19 8 17 9 229 8 66 0 0
8 38 8 17 9 254 8 67 0 0
8 38 8 17 9 223 8 68 0 0
8 36 8 17 9 200 8 65 0 0
8 22 8 17 9 241 8 68 0 0
8 21 8 17 9 233 8 69 0 0
8 27 8 18 9 254 8 70 0 0
8 40 8 17 10 18 8 68 0 0
8 25 8 16 9 254 8 68 0 0
8 34 8 17 9 221 8 65 0 0
8 36 8 17 9 246 8 73 0 0
8 36 8 17 9 236 8 73 0 0
8 33 8 18 9 231 8 65 0 0
8 35 8 18 9 234 8 66 0 0
8 28 8 18 9 228 8 67 0 0
8 27 8 18 9 252 8 66 0 0
8 28 8 18 9 217 8 70 0 0
8 33 8 17 9 236 8 67 0 0
8 28 8 17 9 238 8 68 0 0
8 37 8 17 9 231 8 69 0 0
8 35 8 17 10 5 8 74 0 0
8 29 8 17 9 251 8 66 0 0
8 38 8 17 9 229 8 66 0 0
8 25 8 17 9 254 8 69 0 0
8 28 8 18 9 191 8 64 0 0
8 31 8 17 9 232 8 74 0 0
8 30 8 18 9 232 8 72 0 0
8 35 8 18 9 233 8 74 0 0
8 30 8 18 9 229 8 71 0 0
8 37 8 24 10 22 8 77 0 0
8 27 8 24 9 214 8 76 0 0
8 3 8 23 9 142 8 77 0 0
8 46 8 24 9 67 8 74 0 0
8 20 8 21 10 5 8 75 0 0
8 27 8 20 9 235 8 76 0 0
8 35 8 20 9 236 8 74 0 0
8 24 8 19 10 4 8 73 0 0
7 234 8 19 10 17 8 75 0 0
8 49 8 20 9 206 8 76 0 0
8 44 8 20 9 224 8 71 0 0
8 37 8 19 9 229 8 76 0 0
8 42 8 19 9 239 8 74 0 0
8 37 8 19 9 252 8 76 0 0
8 51 8 19 10 96 8 74 0 0
7 200 8 19 9 255 8 72 0 0
7 219 8 19 10 43 8 73 0 0
8 28 8 18 9 233 8 74 0 0
8 27 8 19 9 203 8 73 0 0
8 24 8 18 9 239 8 73 0 0
8 31 8 18 9 244 8 77 0 0
8 34 8 19 9 237 8 76 0 0
8 42 8 19 9 231 8 72 0 0
8 36 8 18 9 238 8 72 0 0
8 16 8 19 10 1 8 72 0 0
7 89 8 19 9 233 8 74 0 0
8 10 8 18 9 133 8 75 0 0
8 35 8 18 9 243 8 72 0 0
8 41 8 18 9 232 8 73 0 0
8 91 8 18 9 229 8 73 0 0
8 34 8 18 9 194 8 75 0 0
8 72 8 19 9 226 8 76 0 0
8 44 8 18 9 249 8 71 0 0
8 31 8 19 9 238 8 74 0 0
8 34 8 19 9 237 8 74 0 0
8 28 8 19 9 237 8 74 0 0
8 37 8 19 9 225 8 74 0 0
8 91 8 19 9 231 8 75 0 0
8 8 8 18 9 238 8 74 0 0
8 35 8 19 9 221 8 73 0 0
8 35 8 18 9 249 8 74 0 0
8 9 8 19 10 6 8 74 0 0
8 24 8 19 9 238 8 73 0 0
8 36 8 18 9 234 8 73 0 0
8 33 8 19 9 219 8 73 0 0
8 30 8 19 9 237 8 75 0 0
8 36 8 18 9 235 8 75 0 0
8 30 8 18 9 234 8 73 0 0
8 32 8 18 9 239 8 73 0 0
8 30 8 19 9 239 8 75 0 0
8 23 8 19 9 215 8 74 0 0
7 245 8 19 10 118 8 72 0 0
8 48 8 19 9 237 8 73 0 0
8 40 8 19 9 235 8 73 0 0
8 16 8 19 9 235 8 75 0 0
8 33 8 18 9 221 8 75 0 0
8 34 8 18 9 244 8 74 0 0
8 35 8 18 9 237 8 74 0 0
8 32 8 18 9 227 8 74 0 0
8 36 8 18 9 227 8 72 0 0
8 43 8 19 9 127 8 75 0 0
8 121 8 20 9 43 8 75 0 0
8 123 8 20 9 92 8 76 0 0
8 63 8 20 9 205 8 76 0 0
8 31 8 13 9 233 8 68 0 0
8 40 8 12 9 248 8 70 0 0
8 38 8 13 9 240 8 68 0 0
8 27 8 13 9 238 8 71 0 0
8 34 8 13 9 247 8 69 0 0
8 35 8 12 9 240 8 67 0 0
8 27 8 13 10 16 8 72 0 0
8 16 8 13 9 147 8 69 0 0
8 13 8 13 9 213 8 71 0 0
8 33 8 13 9 238 8 68 0 0
8 30 8 13 9 240 8 67 0 0
8 29 8 14 9 240 8 66 0 0
8 16 8 13 9 242 8 68 0 0
8 33 8 13 9 241 8 66 0 0
8 30 8 14 9 212 8 69 0 0
8 38 8 13 9 248 8 70 0 0
8 31 8 14 9 230 8 68 0 0
8 34 8 13 9 251 8 65 0 0
8 38 8 14 9 238 8 67 0 0
8 46 8 14 9 248 8 70 0 0
8 35 8 15 9 239 8 66 0 0
8 33 8 14 9 237 8 65 0 0
8 32 8 15 9 221 8 68 0 0
8 35 8 15 9 244 8 70 0 0
8 40 8 15 9 253 8 66 0 0
8 31 8 15 9 185 8 66 0 0
8 6 8 15 9 175 8 67 0 0
8 23 8 15 9 244 8 65 0 0
8 39 8 15 9 223 8 66 0 0
8 33 8 16 9 238 8 68 0 0
8 28 8 17 9 231 8 70 0 0
8 33 8 16 9 228 8 69 0 0
8 30 8 16 9 233 8 66 0 0
8 35 8 16 9 241 8 66 0 0
8 28 8 16 9 231 8 68 0 0
8 26 8 16 9 231 8 69 0 0
8 26 8 16 10 21 8 65 0 0
7 254 8 15 9 172 8 70 0 0
8 24 8 16 9 228 8 68 0 0
8 34 8 15 9 233 8 67 0 0
8 31 8 17 9 228 8 67 0 0
8 57 8 17 10 34 8 64 0 0
8 32 8 16 9 233 8 70 0 0
8 49 8 16 10 0 8 67 0 0
8 36 8 16 9 226 8 72 0 0
8 35 8 17 9 231 8 67 0 0
8 36 8 16 9 217 8 64 0 0
8 38 8 17 10 24 8 68 0 0
8 42 8 17 9 242 8 70 0 0
8 38 8 17 10 8 8 69 0 0
8 63 8 17 9 198 8 71 0 0
7 235 8 17 9 126 8 71 0 0
8 45 8 17 10 42 8 72 0 0
8 68 8 17 9 195 8 71 0 0
8 69 8 18 10 74 8 68 0 0
8 58 8 18 10 82 8 67 0 0
8 67 8 17 9 171 8 67 0 0
7 229 8 17 9 207 8 74 0 0
8 29 8 18 9 229 8 67 0 0
8 36 8 17 9 226 8 66 0 0
8 16 8 17 9 232 8 67 0 0
8 33 8 17 9 235 8 67 0 0
8 31 8 17 9 250 8 64 0 0
8 22 8 17 9 227 8 66 0 0
8 40 8 17 9 239 8 65 0 0
8 24 8 18 10 9 8 68 0 0
8 44 8 17 9 246 8 66 0 0
8 58 8 17 9 252 8 68 0 0
8 34 8 18 9 235 8 68 0 0
8 34 8 17 9 225 8 68 0 0
8 26 8 18 9 216 8 69 0 0
8 50 8 17 9 251 8 69 0 0
8 20 8 17 9 208 8 70 0 0
8 43 8 17 9 254 8 68 0 0
8 11 8 17 9 222 8 66 0 0
8 42 8 17 9 186 8 67 0 0
8 32 8 17 9 236 8 64 0 0
8 48 8 17 10 20 8 62 0 0
8 39 8 17 9 226 8 66 0 0
8 42 8 17 9 235 8 63 0 0
8 27 8 17 9 241 8 64 0 0
8 24 8 18 9 228 8 62 0 0
8 26 8 17 9 242 8 67 0 0
8 44 8 17 9 226 8 63 0 0
8 30 8 18 9 242 8 72 0 0
8 32 8 24 9 234 8 76 0 0
8 27 8 25 9 232 8 75 0 0
8 27 8 24 9 233 8 73 0 0
8 31 8 24 9 238 8 74 0 0
8 30 8 24 9 233 8 74 0 0
8 27 8 25 9 242 8 71 0 0
8 38 8 24 9 218 8 74 0 0
8 42 8 24 9 241 8 76 0 0
8 32 8 24 10 41 8 76 0 0
7 211 8 24 10 99 8 74 0 0
8 18 8 23 9 247 8 75 0 0
8 32 8 22 9 233 8 75 0 0
8 33 8 22 9 233 8 75 0 0
8 30 8 22 9 230 8 75 0 0
8 26 8 22 9 238 8 73 0 0
8 30 8 21 9 231 8 73 0 0
8 19 8 22 9 251 8 74 0 0
8 17 8 21 9 237 8 72 0 0
8 36 8 21 9 239 8 72 0 0
8 29 8 22 9 240 8 74 0 0
8 32 8 20 9 245 8 76 0 0
8 33 8 21 9 235 8 74 0 0
8 36 8 21 9 228 8 75 0 0
8 33 8 21 9 237 8 75 0 0
8 31 8 19 9 233 8 73 0 0
8 31 8 19 9 240 8 72 0 0
8 29 8 20 10 56 8 73 0 0
7 236 8 19 10 7 8 71 0 0
8 31 8 19 9 246 8 74 0 0
8 33 8 19 9 235 8 73 0 0
8 29 8 19 9 235 8 73 0 0
8 33 8 19 10 51 8 74 0 0
8 6 8 19 9 252 8 73 0 0
8 28 8 19 9 237 8 72 0 0
8 25 8 18 9 240 8 74 0 0
8 33 8 18 9 235 8 70 0 0
8 34 8 18 9 220 8 72 0 0
8 30 8 18 9 228 8 72 0 0
8 32 8 18 9 242 8 73 0 0
8 26 8 19 9 239 8 73 0 0
8 33 8 18 9 235 8 74 0 0
8 34 8 19 9 236 8 75 0 0
8 31 8 18 9 237 8 75 0 0
8 25 8 19 9 220 8 76 0 0
7 247 8 19 10 77 8 72 0 0
8 26 8 19 9 214 8 71 0 0
8 134 8 20 9 147 8 73 0 0
8 42 8 19 9 225 8 72 0 0
8 34 8 18 9 231 8 73 0 0
8 36 8 19 9 234 8 75 0 0
8 30 8 18 9 234 8 73 0 0
8 30 8 19 10 9 8 76 0 0
8 31 8 19 9 243 8 72 0 0
8 33 8 18 9 240 8 73 0 0
8 25 8 19 9 237 8 73 0 0
8 31 8 19 9 242 8 74 0 0
8 27 8 20 9 226 8 73 0 0
8 35 8 20 9 238 8 74 0 0
8 21 8 20 9 229 8 74 0 0
8 30 8 20 10 23 8 72 0 0
8 48 8 20 9 249 8 75 0 0
8 38 8 20 9 254 8 75 0 0
8 25 8 20 10 75 8 73 0 0
7 202 8 19 10 196 8 75 0 0
8 12 8 20 9 191 8 73 0 0
8 83 8 19 9 71 8 74 0 0
8 27 8 18 9 241 8 74 0 0
8 37 8 18 9 240 8 75 0 0
8 36 8 18 9 233 8 75 0 0
8 23 8 17 9 230 8 74 0 0
8 38 8 18 9 234 8 75 0 0
8 34 8 18 9 235 8 68 0 0
8 33 8 11 10 43 8 67 0 0
8 42 8 11 9 234 8 65 0 0
8 46 8 11 9 166 8 64 0 0
8 50 8 11 10 68 8 65 0 0
8 58 8 12 9 212 8 66 0 0
8 13 8 12 10 50 8 67 0 0
8 0 8 12 9 182 8 69 0 0
7 244 8 12 9 186 8 69 0 0
8 34 8 12 9 242 8 67 0 0
8 30 8 14 9 242 8 65 0 0
8 55 8 13 10 11 8 65 0 0
8 44 8 13 9 233 8 64 0 0
8 37 8 13 9 251 8 67 0 0
8 42 8 14 9 210 8 67 0 0
8 26 8 13 9 239 8 70 0 0
8 35 8 14 9 253 8 69 0 0
7 238 8 13 9 207 8 66 0 0
8 1 8 14 9 160 8 65 0 0
8 37 8 14 9 245 8 69 0 0
7 251 8 14 9 193 8 68 0 0
8 31 8 14 10 52 8 67 0 0
7 243 8 13 9 142 8 67 0 0
8 13 8 14 10 6 8 68 0 0
7 229 8 13 10 27 8 67 0 0
8 15 8 13 10 26 8 69 0 0
8 4 8 13 9 167 8 76 0 0
8 30 8 13 9 237 8 73 0 0
8 15 8 13 10 28 8 70 0 0
8 35 8 14 9 212 8 66 0 0
8 28 8 14 9 234 8 65 0 0
8 34 8 13 9 226 8 68 0 0
8 28 8 14 9 255 8 67 0 0
8 43 8 14 9 251 8 68 0 0
8 27 8 14 9 223 8 69 0 0
8 25 8 14 9 249 8 67 0 0
7 243 8 14 10 24 8 66 0 0
8 32 8 14 9 245 8 68 0 0
8 61 8 15 9 189 8 69 0 0
8 24 8 15 10 29 8 67 0 0
8 21 8 15 10 73 8 69 0 0
8 72 8 15 9 194 8 68 0 0
8 47 8 15 9 186 8 67 0 0
8 44 8 16 9 246 8 68 0 0
8 31 8 16 9 234 8 64 0 0
8 26 8 16 9 222 8 66 0 0
8 36 8 15 9 221 8 70 0 0
8 37 8 15 9 234 8 68 0 0
8 27 8 16 9 237 8 68 0 0
8 38 8 16 10 16 8 67 0 0
8 38 8 16 9 236 8 67 0 0
8 25 8 16 9 229 8 69 0 0
8 35 8 16 9 244 8 72 0 0
8 30 8 16 9 237 8 71 0 0
8 35 8 16 9 233 8 68 0 0
8 24 8 16 9 225 8 70 0 0
8 35 8 16 9 244 8 71 0 0
8 34 8 16 9 230 8 61 0 0
8 53 8 16 9 142 8 68 0 0
8 17 8 16 10 23 8 68 0 0
8 49 8 16 9 211 8 70 0 0
7 232 8 16 9 153 8 68 0 0
8 27 8 16 9 243 8 68 0 0
8 46 8 17 9 255 8 68 0 0
8 33 8 17 9 251 8 65 0 0
8 45 8 16 9 212 8 67 0 0
8 37 8 16 9 235 8 67 0 0
8 45 8 16 9 254 8 68 0 0
8 23 8 17 9 221 8 66 0 0
8 30 8 16 9 247 8 67 0 0
8 4 8 16 9 237 8 73 0 0
8 32 8 17 10 0 8 67 0 0
8 38 8 17 9 244 8 62 0 0
8 0 8 16 10 36 8 69 0 0
8 66 8 17 9 203 8 72 0 0
8 18 8 17 9 247 8 71 0 0
7 246 8 17 9 134 8 72 0 0
8 28 8 24 9 230 8 73 0 0
8 17 8 25 9 214 8 75 0 0
8 17 8 25 9 206 8 73 0 0
8 33 8 24 9 244 8 71 0 0
8 31 8 24 9 232 8 73 0 0
8 37 8 24 9 222 8 74 0 0
8 35 8 24 9 222 8 74 0 0
8 35 8 23 9 230 8 78 0 0
8 37 8 23 9 237 8 78 0 0
8 18 8 24 9 191 8 75 0 0
8 34 8 22 9 230 8 73 0 0
8 29 8 23 9 240 8 71 0 0
8 25 8 23 9 225 8 74 0 0
8 35 8 23 9 239 8 75 0 0
8 33 8 22 9 220 8 73 0 0
8 29 8 22 9 244 8 77 0 0
8 29 8 22 9 238 8 75 0 0
8 29 8 22 9 233 8 74 0 0
8 32 8 22 9 238 8 74 0 0
8 27 8 22 9 243 8 75 0 0
8 40 8 22 10 73 8 72 0 0
7 207 8 21 10 40 8 72 0 0
8 29 8 21 9 239 8 72 0 0
8 35 8 21 9 248 8 75 0 0
8 31 8 22 9 143 8 76 0 0
8 30 8 21 9 242 8 73 0 0
7 220 8 21 10 6 8 74 0 0
8 30 8 21 9 237 8 73 0 0
8 30 8 20 9 244 8 73 0 0
8 34 8 21 9 242 8 72 0 0
8 36 8 21 9 238 8 74 0 0
8 29 8 21 9 230 8 73 0 0
8 32 8 21 9 241 8 74 0 0
8 34 8 21 9 237 8 75 0 0
8 31 8 20 9 225 8 74 0 0
8 17 8 21 10 27 8 74 0 0
8 36 8 20 10 5 8 76 0 0
8 19 8 21 10 113 8 76 0 0
8 29 8 20 9 236 8 75 0 0
8 37 8 20 9 229 8 73 0 0
8 33 8 20 9 242 8 74 0 0
8 30 8 19 9 232 8 75 0 0
8 46 8 20 10 17 8 74 0 0
8 31 8 20 9 216 8 73 0 0
8 35 8 20 9 216 8 74 0 0
8 32 8 19 9 238 8 73 0 0
8 31 8 19 10 0 8 74 0 0
8 35 8 19 9 235 8 73 0 0
8 29 8 20 9 236 8 73 0 0
8 32 8 19 9 239 8 72 0 0
8 32 8 19 9 225 8 72 0 0
8 35 8 19 9 229 8 74 0 0
8 30 8 19 9 240 8 76 0 0
8 41 8 19 10 5 8 74 0 0
8 47 8 20 10 41 8 74 0 0
8 29 8 19 9 216 8 75 0 0
8 36 8 18 9 234 8 72 0 0
8 32 8 18 9 241 8 74 0 0
8 36 8 19 9 243 8 73 0 0
8 39 8 19 10 32 8 72 0 0
8 38 8 19 9 239 8 75 0 0
8 33 8 18 9 237 8 77 0 0
8 38 8 19 10 130 8 76 0 0
7 233 8 19 9 172 8 76 0 0
7 245 8 20 9 144 8 74 0 0
8 73 8 19 9 148 8 74 0 0
8 3 8 19 9 251 8 73 0 0
8 23 8 19 9 201 8 76 0 0
8 63 8 19 9 169 8 73 0 0
8 87 8 20 9 174 8 72 0 0
7 217 8 19 10 140 8 75 0 0
8 34 8 19 10 125 8 73 0 0
8 72 8 18 9 210 8 73 0 0
8 36 8 18 9 3 8 73 0 0
8 27 8 18 9 233 8 74 0 0
8 29 8 19 10 88 8 75 0 0
8 34 8 12 9 218 8 66 0 0
8 32 8 12 9 233 8 67 0 0
8 28 8 12 9 243 8 66 0 0
8 27 8 12 9 234 8 67 0 0
8 44 8 13 9 250 8 68 0 0
8 35 8 13 9 234 8 69 0 0
8 29 8 13 9 232 8 69 0 0
8 35 8 14 9 236 8 69 0 0
8 33 8 13 9 231 8 68 0 0
8 31 8 14 9 232 8 68 0 0
8 27 8 14 9 247 8 68 0 0
8 35 8 14 9 239 8 68 0 0
8 38 8 13 9 243 8 68 0 0
8 28 8 13 9 239 8 66 0 0
8 29 8 13 9 197 8 65 0 0
8 13 8 14 9 253 8 66 0 0
8 45 8 14 9 252 8 66 0 0
8 37 8 13 9 223 8 65 0 0
8 45 8 14 9 230 8 66 0 0
8 33 8 14 9 232 8 73 0 0
8 28 8 14 10 6 8 71 0 0
7 253 8 15 9 254 8 65 0 0
8 30 8 15 10 21 8 64 0 0
7 247 8 14 10 40 8 66 0 0
8 39 8 16 10 2 8 69 0 0
8 70 8 15 9 242 8 67 0 0
8 27 8 15 9 241 8 68 0 0
8 32 8 15 9 230 8 69 0 0
8 34 8 16 10 35 8 66 0 0
8 36 8 17 9 203 8 67 0 0
8 21 8 18 9 219 8 74 0 0
8 40 8 17 10 37 8 69 0 0
8 36 8 17 9 223 8 71 0 0
8 38 8 17 9 246 8 72 0 0
8 33 8 17 9 244 8 63 0 0
8 32 8 17 9 243 8 68 0 0
8 35 8 17 9 252 8 70 0 0
8 36 8 17 9 227 8 71 0 0
8 34 8 17 9 243 8 71 0 0
8 37 8 17 9 239 8 66 0 0
8 57 8 18 10 15 8 66 0 0
8 67 8 17 10 45 8 71 0 0
8 38 8 17 9 238 8 69 0 0
8 30 8 17 9 223 8 68 0 0
8 30 8 16 9 242 8 67 0 0
8 19 8 16 9 252 8 64 0 0
8 30 8 17 9 223 8 63 0 0
8 44 8 17 10 50 8 67 0 0
8 39 8 17 9 241 8 69 0 0
8 21 8 17 9 247 8 66 0 0
7 249 8 17 9 174 8 69 0 0
8 36 8 17 9 255 8 69 0 0
8 39 8 16 9 204 8 67 0 0
8 46 8 16 9 150 8 69 0 0
8 31 8 17 10 25 8 65 0 0
8 19 8 16 9 227 8 67 0 0
8 58 8 17 9 195 8 66 0 0
8 53 8 17 10 46 8 66 0 0
8 37 8 17 9 242 8 69 0 0
8 37 8 18 9 230 8 68 0 0
8 34 8 17 9 236 8 68 0 0
8 41 8 17 9 238 8 70 0 0
8 21 8 18 9 247 8 70 0 0
8 48 8 17 9 213 8 68 0 0
8 33 8 18 9 236 8 71 0 0
8 23 8 17 9 238 8 66 0 0
8 15 8 17 10 2 8 66 0 0
8 35 8 24 9 250 8 67 0 0
8 34 8 24 9 234 8 74 0 0
8 40 8 24 9 238 8 75 0 0
8 25 8 24 9 237 8 74 0 0
8 33 8 24 9 238 8 74 0 0
8 28 8 24 9 232 8 73 0 0
8 36 8 23 9 236 8 75 0 0
8 30 8 22 9 236 8 74 0 0
8 34 8 22 9 227 8 75 0 0
8 32 8 23 9 240 8 74 0 0
8 18 8 22 9 225 8 73 0 0
7 236 8 22 10 8 8 73 0 0
8 22 8 21 9 239 8 72 0 0
8 29 8 22 9 220 8 72 0 0
8 34 8 22 9 233 8 72 0 0
8 36 8 21 9 236 8 74 0 0
8 37 8 22 9 99 8 77 0 0
8 65 8 22 9 211 8 75 0 0
8 37 8 21 9 236 8 75 0 0
8 33 8 20 9 237 8 73 0 0
8 32 8 21 9 238 8 74 0 0
8 28 8 20 9 234 8 74 0 0
8 33 8 21 9 230 8 73 0 0
8 32 8 21 9 231 8 74 0 0
8 33 8 21 9 236 8 75 0 0
8 32 8 21 9 238 8 76 0 0
8 32 8 21 9 232 8 76 0 0
8 27 8 21 9 231 8 74 0 0
8 59 8 21 9 92 8 74 0 0
8 46 8 21 9 223 8 75 0 0
8 58 8 21 9 196 8 75 0 0
8 41 8 21 9 227 8 75 0 0
8 33 8 21 9 222 8 74 0 0
8 31 8 21 9 236 8 73 0 0
8 44 8 22 9 215 8 74 0 0
8 40 8 21 9 222 8 73 0 0
8 28 8 21 9 239 8 73 0 0
8 32 8 21 9 229 8 74 0 0
8 35 8 20 9 236 8 74 0 0
8 34 8 21 9 240 8 77 0 0
8 29 8 21 9 245 8 75 0 0
8 32 8 21 9 228 8 75 0 0
8 32 8 20 9 237 8 72 0 0
8 34 8 20 9 231 8 73 0 0
8 33 8 20 9 224 8 71 0 0
8 18 8 21 9 192 8 74 0 0
8 45 8 21 9 188 8 73 0 0
8 30 8 20 9 236 8 71 0 0
8 59 8 21 9 229 8 72 0 0
8 28 8 20 9 241 8 75 0 0
8 29 8 21 9 235 8 74 0 0
8 30 8 21 9 229 8 72 0 0
8 50 8 21 9 253 8 74 0 0
8 31 8 20 9 226 8 74 0 0
8 36 8 21 9 235 8 75 0 0
8 29 8 20 9 215 8 75 0 0
8 40 8 20 9 238 8 74 0 0
8 27 8 20 9 236 8 76 0 0
8 36 8 20 9 221 8 75 0 0
8 29 8 19 9 229 8 75 0 0
8 32 8 19 9 231 8 76 0 0
8 34 8 20 9 252 8 73 0 0
7 254 8 20 10 55 8 73 0 0
8 40 8 19 9 242 8 73 0 0
8 46 8 19 9 238 8 75 0 0
8 31 8 20 9 244 8 75 0 0
8 31 8 20 9 218 8 74 0 0
8 31 8 20 9 230 8 73 0 0
8 31 8 20 9 171 8 74 0 0
8 98 8 20 9 227 8 74 0 0
8 32 8 20 9 233 8 72 0 0
8 28 8 20 9 241 8 75 0 0
8 31 8 19 9 243 8 73 0 0
8 30 8 19 9 231 8 73 0 0
8 35 8 19 9 237 8 75 0 0
8 30 8 19 9 230 8 72 0 0
8 32 8 19 9 228 8 74 0 0
8 58 8 13 9 229 8 67 0 0
8 18 8 13 9 250 8 64 0 0
8 43 8 13 9 214 8 69 0 0
8 38 8 13 9 243 8 69 0 0
8 41 8 13 9 231 8 69 0 0
8 42 8 14 9 233 8 69 0 0
8 30 8 13 9 235 8 67 0 0
8 38 8 14 9 232 8 71 0 0
8 27 8 14 10 22 8 64 0 0
8 44 8 15 9 207 8 66 0 0
8 56 8 15 9 164 8 67 0 0
8 40 8 15 9 245 8 67 0 0
8 59 8 15 9 183 8 68 0 0
8 52 8 15 9 160 8 68 0 0
8 35 8 16 9 235 8 68 0 0
8 28 8 15 9 239 8 63 0 0
8 19 8 16 9 241 8 66 0 0
8 36 8 15 9 233 8 69 0 0
8 25 8 15 9 237 8 70 0 0
8 40 8 16 9 231 8 66 0 0
8 19 8 16 9 239 8 66 0 0
8 30 8 15 9 231 8 68 0 0
8 19 8 16 10 45 8 68 0 0
8 11 8 16 10 27 8 65 0 0
8 42 8 17 9 138 8 66 0 0
7 242 8 16 9 135 8 68 0 0
8 37 8 16 10 9 8 67 0 0
8 37 8 16 9 219 8 65 0 0
8 57 8 16 9 192 8 70 0 0
8 42 8 17 9 250 8 71 0 0
8 29 8 17 9 252 8 67 0 0
8 27 8 16 9 249 8 67 0 0
8 24 8 16 9 229 8 63 0 0
8 26 8 16 9 234 8 66 0 0
8 45 8 17 9 207 8 69 0 0
8 24 8 17 9 236 8 70 0 0
8 36 8 17 9 231 8 66 0 0
8 43 8 17 9 247 8 68 0 0
8 41 8 17 9 152 8 68 0 0
7 249 8 18 10 56 8 68 0 0
8 57 8 18 9 183 8 68 0 0
8 48 8 19 9 185 8 67 0 0
8 53 8 18 10 64 8 69 0 0
8 75 8 19 10 19 8 70 0 0
8 35 8 19 9 227 8 69 0 0
8 34 8 19 9 238 8 69 0 0
8 34 8 19 9 236 8 70 0 0
8 44 8 20 9 244 8 65 0 0
8 24 8 19 9 209 8 67 0 0
8 34 8 20 9 253 8 68 0 0
8 34 8 20 9 242 8 66 0 0
8 32 8 19 9 233 8 67 0 0
8 10 8 20 9 148 8 68 0 0
8 16 8 20 9 227 8 70 0 0
8 41 8 20 9 240 8 66 0 0
8 35 8 20 9 238 8 66 0 0
8 35 8 19 9 224 8 65 0 0
8 28 8 20 9 230 8 66 0 0
8 35 8 19 9 234 8 68 0 0
8 34 8 20 9 233 8 70 0 0
8 39 8 19 9 240 8 68 0 0
8 37 8 19 9 241 8 71 0 0
8 31 8 26 9 210 8 69 0 0
8 29 8 26 9 234 8 76 0 0
8 47 8 27 9 230 8 74 0 0
8 36 8 26 9 233 8 73 0 0
8 36 8 26 9 239 8 74 0 0
8 32 8 26 9 231 8 76 0 0
8 18 8 25 9 214 8 74 0 0
8 20 8 25 10 15 8 72 0 0
8 22 8 25 9 227 8 76 0 0
8 24 8 25 9 246 8 73 0 0
8 33 8 26 9 250 8 77 0 0
7 233 8 25 10 16 8 75 0 0
8 26 8 25 9 239 8 74 0 0
8 22 8 25 9 220 8 73 0 0
8 41 8 25 9 229 8 72 0 0
8 29 8 25 9 196 8 76 0 0
8 62 8 24 9 234 8 73 0 0
8 28 8 24 9 237 8 72 0 0
7 236 8 25 9 234 8 75 0 0
8 64 8 26 10 19 8 72 0 0
8 27 8 23 9 207 8 73 0 0
8 43 8 23 9 217 8 75 0 0
8 5 8 23 9 250 8 74 0 0
8 44 8 22 9 232 8 74 0 0
8 33 8 20 9 234 8 72 0 0
8 32 8 21 10 19 8 74 0 0
8 35 8 21 9 235 8 74 0 0
8 30 8 20 9 233 8 72 0 0
8 30 8 20 9 234 8 73 0 0
8 30 8 20 9 225 8 76 0 0
8 34 8 20 9 226 8 75 0 0
8 30 8 21 10 32 8 73 0 0
8 24 8 20 9 237 8 71 0 0
8 26 8 19 9 232 8 73 0 0
8 26 8 20 9 243 8 75 0 0
8 35 8 20 9 234 8 73 0 0
8 31 8 19 9 241 8 75 0 0
8 33 8 20 9 229 8 76 0 0
8 29 8 20 9 231 8 74 0 0
8 57 8 21 9 73 8 75 0 0
8 133 8 22 9 44 8 76 0 0
8 58 8 22 10 5 8 77 0 0
8 35 8 21 9 235 8 74 0 0
8 30 8 21 9 223 8 75 0 0
8 39 8 21 9 180 8 77 0 0
8 74 8 21 9 224 8 76 0 0
8 57 8 20 9 232 8 74 0 0
8 34 8 20 9 230 8 73 0 0
7 226 8 21 9 195 8 75 0 0
7 214 8 22 9 220 8 75 0 0
8 0 8 21 9 189 8 77 0 0
7 253 8 22 9 211 8 75 0 0
8 24 8 21 9 230 8 71 0 0
7 236 8 21 9 165 8 75 0 0
8 104 8 21 9 170 8 76 0 0
8 39 8 20 9 213 8 75 0 0
8 33 8 20 9 242 8 74 0 0
8 25 8 21 9 222 8 75 0 0
8 38 8 21 10 81 8 75 0 0
8 58 8 21 9 103 8 74 0 0
8 62 8 20 9 211 8 73 0 0
8 38 8 21 10 159 8 75 0 0
8 30 8 21 10 24 8 74 0 0
8 30 8 15 9 249 8 72 0 0
8 37 8 15 9 235 8 74 0 0
8 39 8 15 9 233 8 67 0 0
8 37 8 15 9 236 8 68 0 0
8 37 8 15 9 228 8 74 0 0
8 28 8 16 9 234 8 68 0 0
8 32 8 16 9 230 8 68 0 0
8 36 8 15 9 241 8 67 0 0
8 33 8 15 9 236 8 67 0 0
8 18 8 15 9 206 8 64 0 0
8 28 8 16 9 232 8 67 0 0
8 37 8 16 9 233 8 65 0 0
8 29 8 16 9 226 8 68 0 0
8 32 8 16 9 237 8 63 0 0
8 33 8 16 9 233 8 67 0 0
8 35 8 17 9 240 8 63 0 0
8 27 8 16 9 233 8 70 0 0
8 26 8 16 9 233 8 70 0 0
8 36 8 16 9 235 8 68 0 0
8 33 8 17 9 239 8 69 0 0
8 34 8 17 9 238 8 69 0 0
8 34 8 18 9 238 8 67 0 0
8 31 8 17 9 223 8 68 0 0
8 22 8 16 9 236 8 69 0 0
8 52 8 16 9 230 8 64 0 0
8 41 8 17 9 222 8 70 0 0
8 32 8 17 9 231 8 68 0 0
8 29 8 17 9 234 8 71 0 0
8 33 8 17 9 250 8 66 0 0
8 36 8 17 10 14 8 67 0 0
8 35 8 18 9 230 8 67 0 0
8 33 8 17 9 235 8 69 0 0
8 31 8 17 9 223 8 70 0 0
8 29 8 17 9 237 8 69 0 0
8 35 8 17 10 1 8 65 0 0
8 31 8 18 9 234 8 64 0 0
8 31 8 17 9 222 8 64 0 0
8 31 8 18 10 1 8 68 0 0
8 30 8 18 9 231 8 68 0 0
8 35 8 17 9 201 8 68 0 0
8 33 8 18 9 241 8 68 0 0
8 37 8 18 9 235 8 68 0 0
8 24 8 18 9 180 8 68 0 0
8 66 8 18 10 58 8 69 0 0
8 31 8 18 9 227 8 60 0 0
8 37 8 18 9 232 8 67 0 0
8 28 8 18 9 239 8 65 0 0
8 31 8 18 9 227 8 66 0 0
8 28 8 18 9 230 8 69 0 0
8 35 8 19 9 236 8 70 0 0
8 33 8 18 9 230 8 68 0 0
8 41 8 18 9 247 8 69 0 0
8 29 8 18 9 194 8 68 0 0
8 17 8 18 9 238 8 70 0 0
8 19 8 18 9 229 8 67 0 0
8 32 8 18 9 230 8 67 0 0
8 34 8 17 9 239 8 67 0 0
8 33 8 17 10 4 8 69 0 0
8 39 8 18 9 230 8 65 0 0
8 18 8 18 10 243 8 71 0 0
8 16 8 18 10 12 8 68 0 0
8 33 8 18 9 207 8 70 0 0
8 69 8 19 9 238 8 68 0 0
8 39 8 25 9 240 8 73 0 0
7 203 8 26 10 104 8 73 0 0
8 34 8 24 9 231 8 75 0 0
8 31 8 25 9 246 8 75 0 0
8 28 8 23 9 243 8 76 0 0
8 37 8 24 9 225 8 76 0 0
8 37 8 24 9 245 8 77 0 0
8 31 8 23 9 232 8 74 0 0
8 38 8 23 9 214 8 76 0 0
8 28 8 23 9 242 8 77 0 0
8 41 8 23 9 219 8 73 0 0
8 22 8 23 9 220 8 74 0 0
8 19 8 23 9 230 8 76 0 0
7 188 8 20 10 193 8 75 0 0
7 188 8 19 10 45 8 76 0 0
8 38 8 19 9 231 8 73 0 0
8 35 8 18 9 233 8 74 0 0
8 34 8 19 9 42 8 75 0 0
7 241 8 19 10 191 8 77 0 0
8 26 8 18 9 234 8 76 0 0
8 37 8 18 9 234 8 74 0 0
8 34 8 18 9 239 8 74 0 0
8 30 8 18 9 235 8 76 0 0
8 33 8 18 9 235 8 75 0 0
8 65 8 18 9 120 8 77 0 0
8 33 8 18 9 234 8 73 0 0
8 37 8 19 9 240 8 74 0 0
8 34 8 18 9 227 8 75 0 0
8 36 8 19 10 0 8 76 0 0
8 32 8 18 9 238 8 73 0 0
8 31 8 18 9 244 8 73 0 0
8 30 8 18 9 234 8 74 0 0
8 32 8 18 9 228 8 74 0 0
8 29 8 18 9 226 8 75 0 0
8 12 8 18 9 187 8 75 0 0
8 32 8 18 9 238 8 74 0 0
8 28 8 18 9 233 8 71 0 0
8 29 8 18 9 235 8 75 0 0
8 27 8 19 9 221 8 74 0 0
8 35 8 19 9 226 8 78 0 0
8 26 8 19 9 239 8 76 0 0
8 27 8 19 9 235 8 75 0 0
8 28 8 19 9 241 8 74 0 0
8 29 8 19 9 236 8 75 0 0
8 34 8 19 9 238 8 76 0 0
8 36 8 19 9 229 8 75 0 0
8 41 8 19 10 149 8 74 0 0
8 12 8 19 9 235 8 73 0 0
8 29 8 19 9 238 8 72 0 0
8 29 8 20 9 243 8 71 0 0
8 44 8 19 10 3 8 74 0 0
8 31 8 19 9 244 8 73 0 0
8 35 8 20 9 231 8 75 0 0
8 32 8 20 9 234 8 75 0 0
8 34 8 19 9 226 8 74 0 0
8 33 8 19 9 242 8 75 0 0
8 29 8 19 9 236 8 73 0 0
8 29 8 19 9 217 8 71 0 0
8 29 8 19 9 240 8 75 0 0
8 42 8 19 9 180 8 75 0 0
8 99 8 19 9 171 8 73 0 0
8 45 8 19 9 223 8 75 0 0
8 27 8 19 9 216 8 65 0 0
8 42 8 12 9 209 8 67 0 0
8 26 8 13 9 203 8 68 0 0
8 26 8 13 10 7 8 68 0 0
8 32 8 13 9 218 8 68 0 0
8 36 8 13 9 236 8 68 0 0
8 64 8 13 9 242 8 69 0 0
8 65 8 13 9 223 8 67 0 0
8 55 8 14 9 231 8 69 0 0
8 1 8 14 10 9 8 69 0 0
8 36 8 14 9 230 8 70 0 0
8 39 8 16 9 237 8 68 0 0
8 16 8 15 9 208 8 66 0 0
8 24 8 15 9 226 8 69 0 0
8 39 8 14 9 235 8 72 0 0
8 39 8 16 10 13 8 67 0 0
8 44 8 15 9 231 8 67 0 0
8 44 8 15 9 252 8 65 0 0
8 53 8 16 9 215 8 67 0 0
8 55 8 15 9 251 8 68 0 0
8 54 8 16 9 235 8 67 0 0
8 50 8 17 9 153 8 67 0 0
7 250 8 17 9 253 8 68 0 0
8 52 8 16 9 240 8 69 0 0
8 32 8 17 9 232 8 69 0 0
8 31 8 17 9 253 8 64 0 0
8 45 8 17 9 223 8 68 0 0
8 28 8 17 9 238 8 66 0 0
8 37 8 16 9 239 8 67 0 0
8 36 8 16 10 7 8 70 0 0
8 6 8 17 9 226 8 69 0 0
8 35 8 17 9 233 8 67 0 0
8 36 8 17 9 233 8 65 0 0
8 65 8 17 10 70 8 65 0 0
8 74 8 17 9 168 8 66 0 0
8 72 8 18 9 188 8 69 0 0
8 42 8 18 9 217 8 70 0 0
8 8 8 18 10 50 8 71 0 0
8 38 8 18 9 240 8 72 0 0
8 32 8 18 9 250 8 70 0 0
8 53 8 18 10 32 8 70 0 0
8 32 8 18 9 229 8 66 0 0
8 26 8 17 9 242 8 73 0 0
8 32 8 18 9 185 8 71 0 0
8 50 8 19 9 224 8 67 0 0
8 38 8 18 9 233 8 66 0 0
8 34 8 18 9 236 8 66 0 0
7 253 8 18 10 24 8 69 0 0
8 11 8 18 10 12 8 70 0 0
8 7 8 19 10 13 8 67 0 0
8 22 8 19 9 254 8 67 0 0
8 30 8 19 10 17 8 66 0 0
8 29 8 19 9 243 8 71 0 0
8 45 8 19 9 220 8 67 0 0
8 53 8 18 9 237 8 64 0 0
8 43 8 18 9 232 8 66 0 0
8 28 8 19 9 249 8 67 0 0
8 37 8 18 9 245 8 67 0 0
8 42 8 19 10 3 8 66 0 0
8 38 8 19 9 247 8 67 0 0
8 34 8 19 9 229 8 66 0 0
8 30 8 19 10 7 8 66 0 0
8 37 8 19 9 251 8 68 0 0
8 63 8 19 9 197 8 73 0 0
8 36 8 26 9 223 8 76 0 0
8 32 8 26 9 229 8 75 0 0
8 39 8 26 9 244 8 73 0 0
8 83 8 26 9 72 8 72 0 0
8 31 8 25 10 4 8 74 0 0
8 28 8 23 9 243 8 73 0 0
8 31 8 25 9 237 8 73 0 0
8 24 8 24 9 242 8 73 0 0
8 20 8 23 9 245 8 73 0 0
8 22 8 24 9 233 8 73 0 0
8 36 8 23 9 234 8 73 0 0
8 31 8 22 9 226 8 75 0 0
8 33 8 23 9 241 8 74 0 0
8 27 8 24 9 238 8 74 0 0
8 25 8 24 9 244 8 74 0 0
8 29 8 23 9 233 8 71 0 0
8 29 8 22 9 237 8 73 0 0
8 27 8 23 10 3 8 74 0 0
7 219 8 23 10 112 8 73 0 0
7 240 8 23 10 70 8 74 0 0
8 15 8 22 9 239 8 74 0 0
8 28 8 21 9 235 8 72 0 0
8 27 8 22 9 252 8 72 0 0
8 30 8 21 9 239 8 71 0 0
8 31 8 21 9 228 8 69 0 0
8 43 8 21 9 242 8 70 0 0
8 27 8 21 9 232 8 73 0 0
8 30 8 21 9 235 8 72 0 0
8 33 8 22 9 237 8 74 0 0
8 36 8 22 9 230 8 75 0 0
8 33 8 21 9 232 8 75 0 0
8 35 8 21 9 233 8 73 0 0
8 27 8 21 9 233 8 74 0 0
8 31 8 21 9 249 8 76 0 0
8 34 8 21 9 111 8 75 0 0
8 27 8 21 10 8 8 74 0 0
8 85 8 20 9 222 8 73 0 0
8 30 8 20 9 243 8 74 0 0
8 32 8 20 9 243 8 72 0 0
8 33 8 20 9 233 8 71 0 0
8 32 8 20 10 25 8 72 0 0
7 207 8 20 10 22 8 73 0 0
8 33 8 19 9 243 8 72 0 0
8 5 8 20 9 232 8 73 0 0
8 27 8 20 9 234 8 74 0 0
8 116 8 22 9 47 8 75 0 0
8 133 8 21 9 39 8 72 0 0
8 133 8 22 9 42 8 76 0 0
8 133 8 22 9 47 8 75 0 0
8 52 8 22 9 206 8 71 0 0
8 16 8 22 9 154 8 74 0 0
8 9 8 22 9 117 8 74 0 0
7 203 8 23 10 76 8 77 0 0
8 34 8 22 9 234 8 78 0 0
8 35 8 22 9 235 8 74 0 0
8 34 8 22 9 228 8 72 0 0
8 0 8 22 10 8 8 74 0 0
8 23 8 23 9 143 8 75 0 0
8 33 8 21 9 237 8 74 0 0
8 34 8 22 9 236 8 76 0 0
8 20 8 22 9 228 8 76 0 0
8 50 8 22 9 223 8 76 0 0
8 40 8 21 9 250 8 74 0 0
8 37 8 21 9 226 8 75 0 0
8 24 8 21 9 216 8 72 0 0
7 203 8 21 10 38 8 74 0 0
8 31 8 14 9 232 8 68 0 0
8 37 8 13 9 239 8 66 0 0
8 38 8 13 10 35 8 70 0 0
8 59 8 13 9 238 8 66 0 0
8 43 8 14 9 223 8 66 0 0
8 34 8 13 9 236 8 68 0 0
8 40 8 15 9 242 8 69 0 0
8 43 8 14 9 239 8 69 0 0
8 45 8 15 10 31 8 66 0 0
8 45 8 15 10 8 8 67 0 0
8 41 8 15 9 241 8 63 0 0
8 34 8 16 9 226 8 66 0 0
8 31 8 16 9 238 8 63 0 0
8 37 8 15 9 244 8 70 0 0
8 16 8 15 9 221 8 67 0 0
8 32 8 15 9 237 8 66 0 0
8 43 8 15 9 242 8 66 0 0
8 28 8 16 10 2 8 69 0 0
8 47 8 15 9 247 8 67 0 0
8 34 8 16 9 232 8 67 0 0
8 33 8 16 9 233 8 63 0 0
8 40 8 17 9 228 8 66 0 0
8 58 8 16 9 200 8 69 0 0
8 33 8 17 9 245 8 64 0 0
8 37 8 17 9 239 8 66 0 0
8 28 8 17 9 238 8 66 0 0
8 34 8 17 9 236 8 65 0 0
8 31 8 18 9 232 8 66 0 0
8 47 8 17 10 1 8 65 0 0
8 27 8 17 9 240 8 66 0 0
8 36 8 17 9 243 8 68 0 0
8 26 8 17 9 242 8 68 0 0
8 43 8 18 9 245 8 64 0 0
8 29 8 17 9 1 8 66 0 0
8 28 8 17 9 247 8 65 0 0
8 53 8 18 9 185 8 64 0 0
8 49 8 17 9 231 8 66 0 0
8 23 8 18 10 8 8 69 0 0
8 50 8 18 10 18 8 68 0 0
8 16 8 18 9 251 8 72 0 0
8 33 8 19 9 236 8 64 0 0
8 35 8 19 9 220 8 69 0 0
8 35 8 18 9 227 8 70 0 0
8 46 8 18 9 229 8 67 0 0
8 47 8 19 9 217 8 66 0 0
8 29 8 18 10 0 8 71 0 0
8 25 8 19 9 246 8 68 0 0
8 33 8 18 9 241 8 67 0 0
8 33 8 18 10 23 8 68 0 0
8 57 8 19 9 153 8 69 0 0
8 39 8 19 10 34 8 67 0 0
8 35 8 19 9 124 8 67 0 0
8 2 8 19 10 26 8 68 0 0
8 5 8 19 9 223 8 69 0 0
8 37 8 19 9 234 8 66 0 0
8 41 8 19 9 213 8 70 0 0
8 38 8 18 9 236 8 65 0 0
8 44 8 18 10 2 8 68 0 0
8 44 8 19 9 226 8 71 0 0
8 41 8 26 9 103 8 76 0 0
8 50 8 26 9 229 8 74 0 0
8 27 8 25 9 234 8 75 0 0
8 28 8 26 9 232 8 75 0 0
8 35 8 25 9 250 8 75 0 0
8 30 8 26 9 233 8 75 0 0
8 36 8 26 9 234 8 74 0 0
8 31 8 25 9 242 8 75 0 0
8 32 8 25 9 238 8 73 0 0
8 21 8 26 9 124 8 77 0 0
8 86 8 25 9 82 8 71 0 0
8 46 8 24 9 226 8 71 0 0
8 33 8 24 9 234 8 73 0 0
8 33 8 24 9 238 8 74 0 0
8 29 8 25 10 29 8 74 0 0
7 209 8 24 10 45 8 74 0 0
8 33 8 24 9 213 8 73 0 0
8 32 8 23 9 230 8 71 0 0
8 28 8 23 9 244 8 73 0 0
8 36 8 23 9 227 8 73 0 0
8 36 8 24 9 226 8 74 0 0
8 30 8 24 9 240 8 73 0 0
8 31 8 23 9 230 8 75 0 0
8 38 8 23 9 232 8 75 0 0
8 37 8 23 9 229 8 73 0 0
8 22 8 23 9 213 8 75 0 0
8 22 8 23 9 130 8 74 0 0
8 35 8 22 9 226 8 75 0 0
8 29 8 22 9 240 8 74 0 0
8 26 8 22 9 237 8 75 0 0
8 28 8 23 9 114 8 72 0 0
8 40 8 22 9 231 8 72 0 0
7 250 8 22 10 24 8 76 0 0
8 33 8 21 9 240 8 75 0 0
8 32 8 22 9 230 8 74 0 0
8 31 8 22 9 239 8 72 0 0
8 33 8 22 9 238 8 73 0 0
8 33 8 22 9 232 8 74 0 0
8 24 8 22 9 223 8 75 0 0
8 45 8 22 9 191 8 77 0 0
8 79 8 22 9 166 8 74 0 0
7 34 8 23 9 215 8 75 0 0
8 64 8 23 9 206 8 76 0 0
8 27 8 23 9 184 8 76 0 0
8 27 8 23 10 12 8 75 0 0
8 83 8 23 9 206 8 75 0 0
7 249 8 22 10 3 8 73 0 0
8 2 8 21 9 125 8 77 0 0
8 25 8 20 9 225 8 75 0 0
7 250 8 21 9 221 8 72 0 0
8 50 8 20 9 213 8 75 0 0
8 68 8 21 10 61 8 77 0 0
8 56 8 20 9 188 8 78 0 0
8 51 8 20 9 223 8 76 0 0
8 56 8 21 9 74 8 75 0 0
7 232 8 21 9 221 8 74 0 0
8 10 8 21 9 219 8 74 0 0
8 37 8 20 9 242 8 75 0 0
8 31 8 20 9 241 8 74 0 0
8 31 8 20 10 13 8 75 0 0
8 68 8 20 9 243 8 74 0 0
8 28 8 19 9 227 8 72 0 0
8 40 8 20 9 251 8 74 0 0
8 17 8 20 9 229 8 73 0 0
8 32 8 19 9 254 8 75 0 0
8 33 8 14 9 241 8 69 0 0
8 33 8 14 9 238 8 72 0 0
8 32 8 14 9 235 8 70 0 0
8 28 8 15 9 234 8 69 0 0
8 34 8 14 9 237 8 67 0 0
8 29 8 14 9 245 8 64 0 0
8 38 8 14 9 237 8 65 0 0
8 33 8 14 9 235 8 67 0 0
8 33 8 15 9 225 8 69 0 0
8 28 8 15 9 203 8 68 0 0
8 34 8 15 9 242 8 68 0 0
8 31 8 16 9 238 8 72 0 0
8 38 8 15 9 233 8 71 0 0
8 51 8 15 9 185 8 68 0 0
8 45 8 15 9 183 8 67 0 0
8 34 8 15 9 243 8 68 0 0
8 35 8 16 9 229 8 67 0 0
8 37 8 16 9 224 8 67 0 0
8 30 8 15 9 227 8 69 0 0
8 31 8 15 9 232 8 68 0 0
8 33 8 16 9 201 8 68 0 0
8 23 8 16 9 226 8 67 0 0
8 34 8 16 9 240 8 66 0 0
8 30 8 16 9 234 8 66 0 0
8 28 8 15 9 239 8 66 0 0
8 53 8 16 9 233 8 69 0 0
8 32 8 16 9 230 8 65 0 0
8 25 8 16 10 8 8 67 0 0
8 33 8 16 10 2 8 65 0 0
8 33 8 16 9 232 8 66 0 0
8 35 8 17 9 234 8 66 0 0
8 32 8 17 9 242 8 68 0 0
8 31 8 16 9 235 8 69 0 0
8 34 8 17 9 225 8 69 0 0
8 36 8 17 9 197 8 69 0 0
8 26 8 17 10 4 8 71 0 0
8 37 8 16 9 252 8 71 0 0
8 30 8 17 9 187 8 68 0 0
8 38 8 16 9 249 8 69 0 0
8 26 8 17 9 230 8 64 0 0
8 57 8 16 9 243 8 70 0 0
8 46 8 16 10 7 8 69 0 0
8 51 8 17 9 210 8 67 0 0
8 10 8 17 9 228 8 69 0 0
8 72 8 17 9 254 8 71 0 0
8 31 8 17 9 235 8 73 0 0
8 14 8 17 9 188 8 67 0 0
8 30 8 16 9 215 8 66 0 0
8 35 8 17 10 6 8 64 0 0
8 40 8 17 9 241 8 65 0 0
8 40 8 17 9 228 8 69 0 0
8 35 8 17 9 220 8 70 0 0
8 16 8 16 9 240 8 64 0 0
8 28 8 17 9 237 8 66 0 0
8 58 8 17 9 208 8 65 0 0
8 55 8 17 9 213 8 64 0 0
8 60 8 17 9 204 8 69 0 0
8 51 8 17 9 210 8 67 0 0
8 55 8 17 9 161 8 66 0 0
8 46 8 25 9 247 8 75 0 0
8 60 8 26 9 78 8 76 0 0
8 35 8 24 9 242 8 75 0 0
8 39 8 24 9 236 8 74 0 0
8 30 8 25 9 218 8 74 0 0
8 30 8 23 9 238 8 75 0 0
8 34 8 23 9 232 8 74 0 0
8 31 8 23 9 233 8 74 0 0
8 30 8 23 9 236 8 73 0 0
8 36 8 23 9 223 8 73 0 0
8 29 8 23 9 233 8 75 0 0
8 33 8 22 9 231 8 74 0 0
8 30 8 22 9 234 8 71 0 0
8 34 8 23 10 2 8 75 0 0
8 24 8 22 9 226 8 70 0 0
8 17 8 23 9 114 8 70 0 0
8 106 8 23 9 214 8 71 0 0
8 31 8 22 9 240 8 74 0 0
8 34 8 23 9 232 8 75 0 0
8 34 8 23 10 39 8 74 0 0
8 36 8 21 9 153 8 74 0 0
8 106 8 22 9 230 8 74 0 0
8 36 8 21 9 237 8 74 0 0
8 30 8 21 9 228 8 75 0 0
8 27 8 21 9 227 8 73 0 0
8 30 8 21 9 238 8 74 0 0
8 31 8 22 9 239 8 73 0 0
8 28 8 22 9 238 8 74 0 0
8 31 8 22 9 239 8 75 0 0
8 37 8 22 9 171 8 77 0 0
8 13 8 22 10 80 8 73 0 0
8 8 8 21 9 240 8 74 0 0
8 32 8 21 9 238 8 73 0 0
8 32 8 21 9 232 8 72 0 0
8 33 8 21 9 230 8 72 0 0
8 33 8 22 9 97 8 73 0 0
8 49 8 21 9 231 8 73 0 0
8 37 8 21 9 235 8 74 0 0
8 24 8 21 9 230 8 73 0 0
8 31 8 20 9 230 8 74 0 0
8 32 8 20 9 238 8 73 0 0
8 33 8 20 9 231 8 73 0 0
8 35 8 20 9 228 8 73 0 0
8 99 8 21 10 42 8 72 0 0
7 249 8 21 10 4 8 75 0 0
8 36 8 21 9 229 8 75 0 0
8 28 8 20 9 242 8 74 0 0
8 31 8 20 9 229 8 73 0 0
8 29 8 20 9 243 8 75 0 0
8 59 8 20 9 214 8 75 0 0
8 32 8 20 9 235 8 75 0 0
8 34 8 20 9 231 8 72 0 0
8 46 8 20 9 223 8 76 0 0
8 36 8 20 9 253 8 73 0 0
8 35 8 20 9 230 8 74 0 0
8 34 8 20 9 206 8 74 0 0
8 37 8 19 9 232 8 74 0 0
8 76 8 20 9 85 8 76 0 0
8 24 8 19 9 247 8 75 0 0
8 35 8 18 9 232 8 72 0 0
8 40 8 12 9 242 8 68 0 0
8 34 8 12 9 207 8 67 0 0
8 38 8 12 10 17 8 67 0 0
8 33 8 12 9 231 8 66 0 0
8 33 8 12 9 251 8 67 0 0
8 47 8 13 9 205 8 66 0 0
8 40 8 13 9 204 8 67 0 0
8 31 8 13 9 236 8 68 0 0
8 16 8 13 9 245 8 70 0 0
8 40 8 13 9 241 8 63 0 0
8 28 8 14 9 230 8 69 0 0
8 34 8 14 9 237 8 68 0 0
8 30 8 14 9 229 8 68 0 0
8 32 8 14 9 236 8 68 0 0
8 35 8 15 10 42 8 69 0 0
8 34 8 14 9 242 8 69 0 0
8 32 8 14 9 186 8 66 0 0
8 23 8 14 9 238 8 68 0 0
8 35 8 14 9 225 8 69 0 0
8 31 8 15 9 242 8 68 0 0
8 27 8 15 9 244 8 70 0 0
8 0 8 14 10 47 8 69 0 0
8 71 8 14 9 215 8 68 0 0
8 1 8 15 10 41 8 70 0 0
8 12 8 15 9 158 8 72 0 0
8 10 8 14 10 8 8 69 0 0
8 52 8 15 9 234 8 69 0 0
8 28 8 15 9 233 8 71 0 0
8 17 8 15 9 236 8 68 0 0
8 30 8 15 10 18 8 68 0 0
8 43 8 15 9 222 8 70 0 0
8 34 8 16 9 235 8 64 0 0
8 47 8 16 9 238 8 64 0 0
8 24 8 15 9 236 8 65 0 0
8 34 8 15 9 232 8 69 0 0
8 27 8 15 10 20 8 69 0 0
8 10 8 15 10 35 8 71 0 0
8 45 8 17 9 196 8 69 0 0
8 51 8 17 9 187 8 65 0 0
8 46 8 16 9 189 8 65 0 0
8 51 8 17 10 2 8 69 0 0
8 40 8 17 9 238 8 71 0 0
8 29 8 18 9 218 8 70 0 0
8 28 8 17 10 2 8 66 0 0
8 29 8 17 9 237 8 62 0 0
8 29 8 17 9 239 8 63 0 0
8 30 8 18 9 247 8 68 0 0
8 36 8 18 9 227 8 67 0 0
8 41 8 17 9 220 8 69 0 0
8 28 8 18 9 244 8 69 0 0
8 32 8 18 9 234 8 68 0 0
8 29 8 19 9 233 8 66 0 0
8 35 8 18 9 252 8 69 0 0
8 26 8 17 9 246 8 67 0 0
8 30 8 18 9 221 8 75 0 0
8 27 8 18 9 236 8 69 0 0
8 31 8 18 9 236 8 66 0 0
8 34 8 18 9 242 8 70 0 0
8 38 8 18 9 248 8 68 0 0
8 35 8 17 9 235 8 68 0 0
8 32 8 18 9 243 8 69 0 0
8 15 8 18 9 218 8 69 0 0
8 33 8 17 9 247 8 66 0 0
8 34 8 18 10 10 8 66 0 0
8 5 8 17 9 205 8 64 0 0
8 39 8 18 10 4 8 66 0 0
8 52 8 17 9 239 8 71 0 0
8 39 8 18 9 252 8 66 0 0
8 20 8 18 9 237 8 73 0 0
8 13 8 26 9 130 8 74 0 0
7 210 8 25 10 134 8 76 0 0
8 47 8 25 9 244 8 73 0 0
8 33 8 24 9 235 8 75 0 0
8 29 8 24 9 243 8 74 0 0
8 72 8 25 9 168 8 72 0 0
7 246 8 25 10 49 8 74 0 0
8 35 8 24 9 236 8 78 0 0
8 49 8 24 10 17 8 76 0 0
8 61 8 24 10 14 8 74 0 0
8 48 8 23 9 207 8 73 0 0
8 44 8 23 9 220 8 73 0 0
8 30 8 22 10 4 8 75 0 0
8 30 8 23 9 116 8 77 0 0
8 26 8 22 10 12 8 75 0 0
8 41 8 22 10 130 8 73 0 0
8 17 8 22 9 244 8 74 0 0
8 29 8 22 9 245 8 75 0 0
8 37 8 22 9 237 8 74 0 0
8 41 8 22 9 207 8 75 0 0
8 80 8 22 9 82 8 75 0 0
8 36 8 21 9 237 8 75 0 0
8 33 8 21 9 237 8 73 0 0
8 36 8 21 9 230 8 73 0 0
8 29 8 21 9 235 8 73 0 0
8 31 8 21 9 237 8 76 0 0
8 31 8 21 9 231 8 75 0 0
8 39 8 21 9 235 8 75 0 0
8 74 8 21 9 81 8 73 0 0
8 116 8 22 9 168 8 74 0 0
8 39 8 21 9 221 8 73 0 0
8 31 8 20 9 241 8 75 0 0
8 36 8 21 9 241 8 77 0 0
8 30 8 21 9 233 8 76 0 0
8 44 8 21 9 203 8 75 0 0
7 213 8 20 9 243 8 75 0 0
8 35 8 20 9 239 8 75 0 0
8 35 8 20 9 232 8 73 0 0
8 34 8 20 9 240 8 71 0 0
8 32 8 21 9 226 8 72 0 0
8 33 8 20 9 236 8 72 0 0
8 32 8 19 9 238 8 73 0 0
8 26 8 20 9 200 8 74 0 0
7 234 8 20 10 148 8 75 0 0
8 18 8 19 10 116 8 75 0 0
7 238 8 18 10 12 8 73 0 0
8 34 8 18 9 239 8 72 0 0
8 34 8 18 9 236 8 72 0 0
8 37 8 18 9 231 8 70 0 0
8 37 8 19 9 247 8 73 0 0
8 31 8 18 9 247 8 75 0 0
8 67 8 17 9 242 8 73 0 0
8 31 8 17 9 234 8 74 0 0
8 33 8 17 9 229 8 75 0 0
8 27 8 18 9 245 8 75 0 0
8 28 8 18 9 228 8 75 0 0
8 36 8 17 9 223 8 77 0 0
8 31 8 17 9 237 8 73 0 0
8 31 8 17 9 178 8 71 0 0
8 84 8 18 9 178 8 72 0 0
8 32 8 10 9 243 8 64 0 0
8 31 8 10 9 234 8 66 0 0
8 28 8 10 9 243 8 64 0 0
8 27 8 10 9 245 8 68 0 0
8 41 8 10 9 244 8 68 0 0
8 33 8 12 9 246 8 69 0 0
8 32 8 12 9 236 8 66 0 0
8 34 8 12 9 233 8 67 0 0
8 0 8 11 10 15 8 68 0 0
8 31 8 12 10 2 8 70 0 0
8 33 8 13 10 32 8 69 0 0
8 9 8 13 10 16 8 69 0 0
8 41 8 13 9 235 8 68 0 0
8 26 8 13 9 238 8 67 0 0
8 34 8 14 10 11 8 68 0 0
8 37 8 14 9 242 8 68 0 0
8 27 8 13 9 223 8 66 0 0
8 29 8 14 10 18 8 67 0 0
8 27 8 13 9 220 8 70 0 0
8 30 8 13 10 23 8 65 0 0
8 37 8 14 9 240 8 71 0 0
8 49 8 15 9 242 8 71 0 0
8 24 8 15 9 203 8 68 0 0
8 26 8 15 10 15 8 65 0 0
8 30 8 15 9 248 8 66 0 0
8 49 8 15 9 142 8 67 0 0
8 31 8 15 9 241 8 66 0 0
8 31 8 16 9 241 8 68 0 0
8 42 8 15 9 253 8 66 0 0
8 45 8 16 9 234 8 69 0 0
8 17 8 15 9 230 8 66 0 0
8 25 8 16 9 230 8 67 0 0
8 26 8 16 9 232 8 69 0 0
8 33 8 16 9 245 8 67 0 0
8 30 8 16 9 234 8 65 0 0
8 27 8 16 9 129 8 67 0 0
8 12 8 16 9 143 8 67 0 0
8 2 8 17 9 188 8 68 0 0
8 39 8 16 9 228 8 69 0 0
8 3 8 17 9 232 8 71 0 0
8 27 8 17 9 230 8 69 0 0
8 21 8 17 9 205 8 69 0 0
8 38 8 17 9 238 8 70 0 0
8 31 8 17 9 239 8 67 0 0
8 22 8 17 9 255 8 66 0 0
8 45 8 18 9 249 8 67 0 0
8 39 8 17 9 248 8 66 0 0
8 32 8 17 9 240 8 64 0 0
8 30 8 17 9 236 8 64 0 0
8 243 8 17 10 12 8 67 0 0
8 33 8 17 10 13 8 68 0 0
8 28 8 18 10 28 8 67 0 0
8 35 8 18 9 218 8 66 0 0
8 39 8 18 9 241 8 65 0 0
8 31 8 18 10 5 8 64 0 0
8 33 8 18 9 236 8 66 0 0
8 30 8 18 9 253 8 68 0 0
8 26 8 18 9 170 8 67 0 0
8 24 8 18 9 223 8 67 0 0
8 34 8 18 9 239 8 71 0 0
8 34 8 17 9 241 8 67 0 0
8 35 8 18 9 241 8 64 0 0
8 65 8 18 9 182 8 67 0 0
8 13 8 18 10 11 8 66 0 0
8 34 8 25 9 231 8 74 0 0
8 29 8 25 9 234 8 76 0 0
8 26 8 25 9 204 8 74 0 0
8 4 8 25 10 98 8 74 0 0
8 23 8 24 9 192 8 74 0 0
8 29 8 23 9 238 8 75 0 0
8 29 8 23 9 236 8 76 0 0
8 24 8 23 9 240 8 76 0 0
8 32 8 24 10 250 8 75 0 0
8 110 8 24 9 174 8 75 0 0
8 33 8 22 9 237 8 75 0 0
8 28 8 23 9 231 8 74 0 0
8 34 8 22 9 236 8 73 0 0
8 27 8 23 9 231 8 74 0 0
8 33 8 23 9 230 8 76 0 0
8 29 8 23 9 240 8 74 0 0
8 33 8 23 9 227 8 71 0 0
8 35 8 23 9 243 8 71 0 0
8 33 8 23 9 226 8 73 0 0
7 231 8 24 10 139 8 73 0 0
8 31 8 22 9 209 8 73 0 0
8 35 8 22 9 235 8 70 0 0
8 34 8 22 9 237 8 74 0 0
8 30 8 21 9 232 8 73 0 0
8 18 8 23 10 12 8 73 0 0
8 44 8 23 9 231 8 74 0 0
8 12 8 23 9 174 8 73 0 0
8 17 8 22 9 255 8 75 0 0
7 242 8 22 10 58 8 74 0 0
8 125 8 22 9 40 8 73 0 0
8 34 8 22 10 29 8 75 0 0
8 76 8 22 9 180 8 73 0 0
8 77 8 23 9 111 8 74 0 0
8 67 8 22 9 245 8 75 0 0
8 87 8 23 9 206 8 73 0 0
8 27 8 22 9 235 8 74 0 0
8 31 8 21 9 249 8 74 0 0
8 35 8 22 10 23 8 76 0 0
8 47 8 22 9 238 8 75 0 0
8 36 8 22 9 231 8 75 0 0
8 33 8 21 9 230 8 75 0 0
8 6 8 22 10 11 8 77 0 0
8 15 8 22 9 228 8 78 0 0
8 36 8 22 9 251 8 76 0 0
8 29 8 21 9 243 8 76 0 0
8 45 8 21 9 193 8 74 0 0
7 249 8 21 9 222 8 74 0 0
8 34 8 21 9 232 8 75 0 0
8 31 8 22 10 28 8 70 0 0
8 50 8 20 9 207 8 73 0 0
8 32 8 20 9 225 8 73 0 0
8 30 8 20 9 225 8 72 0 0
8 22 8 20 9 225 8 72 0 0
8 32 8 20 9 217 8 71 0 0
8 10 8 20 9 191 8 74 0 0
7 241 8 19 9 235 8 73 0 0
8 35 8 19 9 235 8 75 0 0
8 16 8 20 9 117 8 74 0 0
8 27 8 13 9 236 8 66 0 0
8 40 8 13 9 251 8 61 0 0
8 27 8 13 9 233 8 69 0 0
8 37 8 13 9 245 8 69 0 0
8 40 8 12 10 4 8 71 0 0
8 29 8 13 9 210 8 73 0 0
8 31 8 13 9 220 8 66 0 0
8 35 8 12 9 242 8 69 0 0
8 24 8 12 9 240 8 64 0 0
8 32 8 13 9 235 8 62 0 0
8 23 8 13 9 255 8 66 0 0
8 22 8 13 9 241 8 69 0 0
8 33 8 13 9 213 8 71 0 0
8 14 8 13 9 226 8 70 0 0
8 30 8 13 9 203 8 67 0 0
8 23 8 14 9 204 8 69 0 0
8 63 8 14 9 212 8 69 0 0
8 40 8 14 9 246 8 70 0 0
8 19 8 15 9 236 8 70 0 0
8 4 8 14 10 41 8 69 0 0
8 32 8 15 10 9 8 64 0 0
8 25 8 15 9 232 8 68 0 0
8 34 8 16 9 238 8 67 0 0
8 11 8 15 9 193 8 69 0 0
8 37 8 15 9 235 8 71 0 0
8 39 8 16 9 237 8 70 0 0
8 46 8 16 10 17 8 67 0 0
8 29 8 16 10 53 8 67 0 0
8 47 8 16 9 247 8 66 0 0
8 50 8 16 9 234 8 66 0 0
8 23 8 16 10 47 8 65 0 0
8 49 8 17 9 166 8 68 0 0
8 2 8 17 9 194 8 68 0 0
8 17 8 16 10 3 8 67 0 0
8 3 8 16 9 197 8 66 0 0
8 62 8 17 10 23 8 65 0 0
8 30 8 17 9 241 8 69 0 0
8 30 8 16 9 235 8 67 0 0
8 29 8 17 9 251 8 64 0 0
8 32 8 17 9 249 8 66 0 0
8 47 8 17 9 250 8 67 0 0
8 30 8 16 9 216 8 71 0 0
8 33 8 17 9 236 8 68 0 0
8 34 8 17 9 232 8 70 0 0
8 37 8 18 10 79 8 66 0 0
8 74 8 17 10 52 8 69 0 0
8 14 8 18 10 2 8 69 0 0
8 41 8 18 9 196 8 68 0 0
8 50 8 18 9 48 8 58 0 0
8 32 8 18 9 238 8 68 0 0
8 36 8 18 9 249 8 66 0 0
8 41 8 18 9 244 8 71 0 0
8 37 8 18 9 236 8 72 0 0
8 23 8 18 9 244 8 71 0 0
8 32 8 18 9 234 8 67 0 0
8 35 8 17 9 247 8 71 0 0
8 41 8 17 9 242 8 68 0 0
8 29 8 18 9 212 8 67 0 0
8 47 8 17 9 236 8 68 0 0
8 6 8 18 9 229 8 64 0 0
8 45 8 18 9 175 8 67 0 0
7 230 8 18 9 120 8 67 0 0
8 29 8 19 10 13 8 64 0 0
8 68 8 19 9 250 8 64 0 0
8 44 8 19 10 46 8 69 0 0
8 38 8 18 9 226 8 70 0 0
8 42 8 19 10 16 8 72 0 0
8 29 8 25 9 233 8 74 0 0
8 31 8 24 9 239 8 74 0 0
8 37 8 25 10 98 8 75 0 0
8 35 8 24 9 222 8 76 0 0
8 32 8 25 9 250 8 78 0 0
8 37 8 24 9 237 8 76 0 0
8 31 8 24 9 232 8 74 0 0
8 26 8 24 9 238 8 74 0 0
8 27 8 24 9 232 8 75 0 0
8 28 8 24 9 232 8 75 0 0
8 31 8 23 9 237 8 73 0 0
8 31 8 24 9 229 8 73 0 0
7 226 8 24 10 50 8 75 0 0
8 17 8 23 9 252 8 74 0 0
8 32 8 23 9 236 8 74 0 0
8 33 8 23 9 231 8 75 0 0
8 33 8 23 9 237 8 74 0 0
8 39 8 22 9 224 8 74 0 0
8 32 8 22 9 233 8 74 0 0
8 3 8 23 10 91 8 74 0 0
8 25 8 22 9 231 8 73 0 0
8 34 8 21 9 229 8 75 0 0
8 36 8 23 9 226 8 74 0 0
8 31 8 21 9 235 8 75 0 0
8 35 8 21 9 226 8 75 0 0
8 34 8 21 9 244 8 74 0 0
8 27 8 21 9 243 8 73 0 0
8 3 8 21 9 174 8 75 0 0
8 55 8 21 10 73 8 75 0 0
8 49 8 20 9 210 8 74 0 0
8 34 8 20 9 237 8 74 0 0
8 32 8 20 9 236 8 73 0 0
8 28 8 20 9 243 8 73 0 0
8 35 8 20 9 166 8 76 0 0
8 112 8 20 9 189 8 75 0 0
8 32 8 20 9 232 8 73 0 0
8 31 8 20 9 232 8 74 0 0
8 30 8 20 9 233 8 75 0 0
8 30 8 20 9 244 8 76 0 0
8 31 8 20 9 227 8 76 0 0
8 31 8 20 9 232 8 75 0 0
8 31 8 20 9 233 8 74 0 0
8 32 8 19 9 233 8 73 0 0
8 31 8 19 9 234 8 75 0 0
8 24 8 19 9 207 8 73 0 0
8 14 8 20 9 209 8 75 0 0
8 40 8 19 9 237 8 75 0 0
8 33 8 19 9 236 8 71 0 0
8 34 8 19 9 238 8 71 0 0
8 24 8 20 9 109 8 72 0 0
8 37 8 19 9 236 8 73 0 0
8 32 8 19 9 241 8 74 0 0
8 32 8 19 9 221 8 74 0 0
8 33 8 20 9 230 8 72 0 0
8 37 8 20 9 230 8 74 0 0
8 26 8 20 9 231 8 75 0 0
8 32 8 20 9 225 8 76 0 0
8 40 8 21 9 227 8 74 0 0
8 31 8 19 9 237 8 75 0 0
8 28 8 20 9 243 8 74 0 0
8 87 8 20 9 64 8 74 0 0
8 44 8 19 9 239 8 72 0 0
8 26 8 19 9 236 8 73 0 0
8 35 8 20 9 232 8 66 0 0
8 26 8 13 9 237 8 67 0 0
8 30 8 13 9 181 8 68 0 0
8 31 8 13 9 234 8 67 0 0
8 17 8 13 10 31 8 66 0 0
8 45 8 14 9 191 8 67 0 0
8 7 8 14 10 19 8 68 0 0
7 252 8 14 10 32 8 65 0 0
8 15 8 14 10 14 8 65 0 0
8 54 8 15 9 161 8 71 0 0
8 35 8 15 9 239 8 68 0 0
8 59 8 15 9 230 8 70 0 0
8 38 8 15 9 240 8 69 0 0
8 34 8 14 9 227 8 65 0 0
8 41 8 14 9 242 8 66 0 0
8 37 8 15 9 232 8 70 0 0
8 43 8 14 9 254 8 70 0 0
8 37 8 14 9 242 8 66 0 0
8 1 8 15 10 27 8 67 0 0
8 45 8 15 9 126 8 68 0 0
7 246 8 15 10 41 8 67 0 0
8 45 8 16 9 238 8 68 0 0
8 30 8 16 9 237 8 65 0 0
8 31 8 16 9 242 8 68 0 0
8 35 8 16 9 238 8 68 0 0
8 35 8 15 9 241 8 65 0 0
8 37 8 16 9 242 8 70 0 0
8 27 8 16 9 251 8 63 0 0
8 26 8 17 9 221 8 64 0 0
8 35 8 17 9 209 8 65 0 0
8 36 8 17 9 243 8 67 0 0
8 36 8 16 9 239 8 69 0 0
8 36 8 17 10 42 8 70 0 0
8 70 8 17 9 187 8 69 0 0
8 19 8 17 10 43 8 69 0 0
8 9 8 17 10 14 8 66 0 0
8 28 8 16 10 0 8 66 0 0
8 25 8 18 10 28 8 71 0 0
8 63 8 18 10 4 8 69 0 0
8 32 8 17 9 240 8 65 0 0
8 31 8 17 9 234 8 66 0 0
8 38 8 18 9 242 8 64 0 0
8 34 8 18 9 245 8 66 0 0
8 47 8 19 9 227 8 73 0 0
8 27 8 18 9 230 8 68 0 0
8 36 8 18 9 239 8 66 0 0
8 29 8 17 9 234 8 65 0 0
8 36 8 18 9 245 8 67 0 0
8 42 8 18 9 252 8 68 0 0
8 60 8 18 10 10 8 72 0 0
8 19 8 18 9 243 8 70 0 0
8 45 8 18 9 124 8 66 0 0
8 30 8 18 9 236 8 68 0 0
8 255 8 18 9 227 8 64 0 0
8 22 8 17 9 233 8 66 0 0
8 35 8 18 9 230 8 66 0 0
8 22 8 18 9 253 8 66 0 0
8 40 8 17 9 227 8 66 0 0
8 34 8 18 9 238 8 69 0 0
8 37 8 18 9 255 8 69 0 0
8 9 8 17 9 231 8 65 0 0
8 29 8 18 9 236 8 68 0 0
8 23 8 18 10 20 8 68 0 0
8 50 8 19 9 250 8 66 0 0
8 0 8 19 10 41 8 65 0 0
8 61 8 19 10 60 8 65 0 0
8 18 8 19 10 6 8 68 0 0
8 53 8 19 9 231 8 68 0 0
8 34 8 25 9 223 8 73 0 0
8 12 8 26 9 136 8 74 0 0
8 38 8 25 9 233 8 72 0 0
8 33 8 25 9 227 8 73 0 0
8 36 8 25 9 252 8 75 0 0
8 32 8 25 9 236 8 75 0 0
8 29 8 24 9 244 8 74 0 0
8 28 8 24 9 239 8 76 0 0
8 36 8 24 9 234 8 72 0 0
8 37 8 24 9 231 8 72 0 0
8 37 8 24 9 224 8 75 0 0
8 33 8 22 9 237 8 74 0 0
8 30 8 23 9 236 8 74 0 0
8 34 8 23 9 242 8 75 0 0
8 35 8 23 9 235 8 76 0 0
8 35 8 22 9 233 8 72 0 0
8 36 8 22 10 6 8 72 0 0
8 33 8 21 9 231 8 74 0 0
8 32 8 21 9 234 8 73 0 0
8 36 8 21 9 234 8 75 0 0
8 26 8 21 9 241 8 75 0 0
8 28 8 22 9 212 8 73 0 0
8 30 8 21 9 230 8 73 0 0
8 27 8 21 9 242 8 74 0 0
8 32 8 21 9 222 8 74 0 0
8 28 8 21 9 244 8 73 0 0
8 44 8 21 9 229 8 75 0 0
8 18 8 20 9 243 8 73 0 0
8 51 8 21 10 51 8 72 0 0
7 210 8 22 10 61 8 73 0 0
8 51 8 22 9 184 8 76 0 0
8 44 8 22 10 1 8 75 0 0
8 43 8 22 9 230 8 75 0 0
8 28 8 22 9 233 8 75 0 0
8 22 8 22 9 190 8 73 0 0
8 9 8 19 9 209 8 73 0 0
8 25 8 19 9 232 8 73 0 0
8 81 8 21 9 184 8 75 0 0
8 16 8 20 9 233 8 75 0 0
8 52 8 20 10 77 8 74 0 0
8 13 8 19 9 146 8 74 0 0
8 27 8 19 10 6 8 75 0 0
8 9 8 19 9 189 8 76 0 0
8 72 8 19 10 27 8 73 0 0
8 70 8 19 10 11 8 72 0 0
7 252 8 19 9 151 8 74 0 0
8 44 8 19 10 78 8 73 0 0
8 29 8 19 9 228 8 72 0 0
8 37 8 18 9 234 8 72 0 0
8 30 8 19 9 242 8 74 0 0
8 33 8 18 9 239 8 74 0 0
8 41 8 18 9 238 8 75 0 0
8 22 8 19 9 143 8 73 0 0
8 51 8 18 9 224 8 71 0 0
8 38 8 18 9 230 8 72 0 0
8 29 8 18 10 11 8 71 0 0
8 65 8 19 10 56 8 77 0 0
8 75 8 19 9 67 8 74 0 0
8 11 8 22 9 145 8 77 0 0
7 231 8 21 9 205 8 71 0 0
8 24 8 21 10 25 8 77 0 0
8 16 8 22 9 255 8 73 0 0
8 46 8 22 9 242 8 75 0 0
8 43 8 21 9 239 8 75 0 0
8 35 8 21 10 1 8 74 0 0
8 39 8 22 10 101 8 74 0 0
7 253 8 22 10 4 8 74 0 0
8 29 8 14 10 12 8 67 0 0
8 37 8 14 9 241 8 68 0 0
8 28 8 14 9 242 8 67 0 0
8 14 8 14 10 15 8 70 0 0
8 18 8 15 10 7 8 68 0 0
8 24 8 15 10 30 8 67 0 0
8 31 8 15 9 251 8 69 0 0
8 33 8 16 9 236 8 68 0 0
8 41 8 16 9 231 8 69 0 0
8 24 8 15 9 245 8 74 0 0
8 38 8 15 9 236 8 67 0 0
8 2 8 15 9 158 8 66 0 0
8 27 8 16 10 8 8 70 0 0
8 35 8 16 9 231 8 67 0 0
8 31 8 16 9 233 8 67 0 0
8 35 8 16 9 234 8 67 0 0
8 32 8 16 9 234 8 69 0 0
8 43 8 16 10 17 8 67 0 0
8 14 8 16 10 9 8 67 0 0
8 40 8 16 9 210 8 70 0 0
8 24 8 16 9 240 8 64 0 0
8 31 8 17 9 235 8 69 0 0
8 35 8 17 9 237 8 69 0 0
8 32 8 16 9 231 8 67 0 0
8 28 8 17 9 238 8 66 0 0
8 34 8 17 9 248 8 69 0 0
8 53 8 17 9 249 8 70 0 0
8 38 8 17 9 241 8 69 0 0
8 33 8 17 9 231 8 69 0 0
8 34 8 17 9 234 8 74 0 0
8 29 8 17 9 230 8 74 0 0
8 47 8 17 10 26 8 66 0 0
8 80 8 17 10 59 8 66 0 0
8 19 8 17 9 254 8 69 0 0
8 64 8 17 9 171 8 70 0 0
8 7 8 18 9 219 8 71 0 0
7 238 8 17 9 140 8 66 0 0
8 40 8 16 9 181 8 67 0 0
8 26 8 17 9 243 8 67 0 0
8 36 8 16 9 243 8 69 0 0
8 37 8 16 9 243 8 66 0 0
7 252 8 17 9 248 8 66 0 0
8 27 8 17 9 220 8 67 0 0
8 28 8 17 9 206 8 66 0 0
8 25 8 16 9 237 8 69 0 0
8 73 8 16 9 177 8 67 0 0
8 3 8 17 10 39 8 65 0 0
8 49 8 16 9 194 8 66 0 0
8 56 8 17 9 220 8 68 0 0
8 33 8 17 10 72 8 71 0 0
8 40 8 17 9 245 8 69 0 0
8 30 8 17 9 244 8 71 0 0
8 45 8 17 9 209 8 68 0 0
8 24 8 16 9 230 8 66 0 0
8 34 8 16 9 246 8 69 0 0
8 19 8 17 10 12 8 66 0 0
8 31 8 17 9 243 8 71 0 0
8 15 8 17 9 226 8 68 0 0
8 23 8 16 9 241 8 68 0 0
8 34 8 16 9 222 8 69 0 0
8 38 8 17 9 254 8 66 0 0
8 14 8 17 10 34 8 64 0 0
8 33 8 24 9 241 8 73 0 0
8 33 8 23 9 231 8 73 0 0
8 38 8 24 9 226 8 73 0 0
8 31 8 24 9 150 8 73 0 0
8 24 8 24 10 48 8 72 0 0
8 16 8 22 9 244 8 74 0 0
8 29 8 23 9 237 8 77 0 0
8 29 8 23 9 234 8 74 0 0
8 26 8 22 9 183 8 77 0 0
8 88 8 22 9 201 8 76 0 0
8 39 8 21 9 217 8 74 0 0
8 32 8 21 9 236 8 72 0 0
8 32 8 21 9 228 8 74 0 0
8 37 8 22 9 239 8 75 0 0
8 34 8 22 9 226 8 73 0 0
8 30 8 21 9 229 8 74 0 0
8 36 8 21 9 242 8 72 0 0
7 246 8 22 10 104 8 75 0 0
8 87 8 21 9 187 8 75 0 0
8 39 8 20 9 234 8 74 0 0
8 29 8 21 9 234 8 75 0 0
8 24 8 21 9 238 8 74 0 0
8 29 8 22 9 101 8 74 0 0
8 57 8 21 9 235 8 74 0 0
8 36 8 20 9 226 8 77 0 0
8 29 8 20 9 230 8 75 0 0
8 30 8 20 9 231 8 74 0 0
8 30 8 20 9 232 8 74 0 0
8 31 8 20 9 238 8 72 0 0
8 36 8 19 9 233 8 73 0 0
8 23 8 20 10 14 8 76 0 0
8 101 8 21 9 46 8 77 0 0
8 54 8 20 9 201 8 74 0 0
8 36 8 19 9 237 8 73 0 0
8 33 8 19 9 239 8 73 0 0
8 30 8 19 9 229 8 70 0 0
8 67 8 21 9 235 8 71 0 0
7 242 8 19 9 249 8 70 0 0
8 35 8 19 9 243 8 73 0 0
8 29 8 19 9 235 8 74 0 0
8 35 8 19 9 232 8 74 0 0
8 31 8 19 9 239 8 73 0 0
8 29 8 18 9 239 8 77 0 0
8 28 8 18 9 241 8 76 0 0
8 33 8 18 9 244 8 76 0 0
7 222 8 18 10 54 8 76 0 0
8 84 8 19 9 56 8 73 0 0
8 30 8 17 9 236 8 75 0 0
8 32 8 18 9 205 8 73 0 0
8 35 8 18 9 232 8 74 0 0
8 35 8 17 9 237 8 73 0 0
8 6 8 18 9 237 8 75 0 0
8 31 8 18 9 243 8 75 0 0
8 35 8 18 9 241 8 75 0 0
8 28 8 18 9 238 8 74 0 0
8 30 8 18 9 243 8 74 0 0
8 40 8 18 9 251 8 77 0 0
8 32 8 18 10 10 8 73 0 0
8 89 8 18 9 153 8 75 0 0
8 55 8 18 9 232 8 75 0 0
8 13 8 11 9 230 8 69 0 0
8 37 8 11 9 254 8 67 0 0
8 48 8 12 9 246 8 68 0 0
8 35 8 12 9 232 8 69 0 0
8 49 8 13 9 217 8 67 0 0
8 59 8 14 9 184 8 66 0 0
8 46 8 13 10 74 8 67 0 0
8 57 8 14 9 196 8 66 0 0
8 2 8 14 10 42 8 68 0 0
8 10 8 14 10 46 8 68 0 0
8 34 8 15 9 235 8 71 0 0
8 19 8 14 10 10 8 66 0 0
8 33 8 15 9 240 8 65 0 0
8 34 8 14 9 240 8 67 0 0
8 37 8 15 9 203 8 68 0 0
8 61 8 15 9 240 8 64 0 0
8 35 8 15 9 250 8 64 0 0
8 29 8 15 9 239 8 68 0 0
8 35 8 16 9 224 8 64 0 0
8 76 8 16 9 221 8 67 0 0
7 248 8 16 10 39 8 68 0 0
8 62 8 17 9 207 8 66 0 0
8 12 8 16 10 7 8 67 0 0
8 36 8 16 9 136 8 65 0 0
8 55 8 16 9 241 8 68 0 0
8 33 8 15 9 249 8 68 0 0
8 43 8 16 9 229 8 68 0 0
8 33 8 16 9 245 8 69 0 0
8 39 8 16 9 0 8 61 0 0
8 35 8 16 9 236 8 67 0 0
8 25 8 16 9 225 8 70 0 0
8 28 8 16 9 241 8 66 0 0
8 59 8 16 9 196 8 68 0 0
8 41 8 16 9 243 8 66 0 0
8 43 8 17 9 203 8 70 0 0
8 54 8 17 9 188 8 68 0 0
8 17 8 17 10 36 8 68 0 0
8 58 8 17 9 158 8 69 0 0
8 24 8 16 10 24 8 71 0 0
8 7 8 16 10 21 8 70 0 0
7 255 8 15 9 168 8 68 0 0
8 25 8 16 9 233 8 69 0 0
8 26 8 16 9 222 8 71 0 0
8 13 8 16 9 234 8 66 0 0
8 55 8 16 9 241 8 64 0 0
8 36 8 16 9 229 8 69 0 0
8 35 8 17 10 11 8 67 0 0
8 37 8 16 10 19 8 66 0 0
8 43 8 17 9 233 8 66 0 0
8 33 8 16 9 242 8 66 0 0
8 47 8 16 9 225 8 69 0 0
8 20 8 17 10 13 8 69 0 0
8 70 8 18 9 238 8 67 0 0
8 21 8 17 9 154 8 66 0 0
8 54 8 18 10 16 8 67 0 0
8 5 8 18 9 241 8 67 0 0
7 234 8 18 9 196 8 77 0 0
8 27 8 18 9 209 8 68 0 0
8 29 8 17 9 229 8 67 0 0
8 35 8 17 9 238 8 63 0 0
8 34 8 18 9 240 8 65 0 0
8 30 8 17 9 242 8 67 0 0
8 32 8 18 9 231 8 67 0 0
8 35 8 17 9 231 8 69 0 0
8 31 8 25 9 236 8 75 0 0
8 14 8 25 9 253 8 77 0 0
8 20 8 25 9 226 8 72 0 0
8 96 8 28 9 80 8 74 0 0
8 71 8 28 9 102 8 74 0 0
8 106 8 28 9 38 8 74 0 0
8 62 8 30 9 236 8 73 0 0
8 1 8 27 9 249 8 75 0 0
8 29 8 26 9 233 8 74 0 0
8 33 8 26 9 249 8 75 0 0
8 26 8 26 9 236 8 74 0 0
8 49 8 27 9 234 8 75 0 0
8 71 8 26 9 215 8 73 0 0
8 32 8 26 9 201 8 75 0 0
8 20 8 27 10 5 8 73 0 0
8 5 8 26 9 151 8 75 0 0
8 49 8 26 10 36 8 76 0 0
7 245 8 26 9 182 8 75 0 0
8 3 8 25 10 27 8 74 0 0
8 80 8 26 9 64 8 76 0 0
8 59 8 27 9 253 8 74 0 0
8 1 8 23 9 250 8 78 0 0
7 228 8 22 10 49 8 76 0 0
8 25 8 22 9 241 8 76 0 0
8 28 8 23 9 235 8 75 0 0
8 25 8 22 10 7 8 75 0 0
7 242 8 23 10 206 8 73 0 0
8 47 8 21 9 219 8 75 0 0
8 33 8 21 9 236 8 72 0 0
8 31 8 21 9 233 8 73 0 0
8 32 8 21 9 234 8 74 0 0
8 35 8 21 9 246 8 76 0 0
7 225 8 20 10 82 8 73 0 0
7 222 8 19 10 169 8 76 0 0
7 191 8 19 10 161 8 76 0 0
7 202 8 19 10 172 8 77 0 0
7 200 8 19 10 38 8 76 0 0
8 74 8 19 9 138 8 73 0 0
8 29 8 18 9 242 8 75 0 0
8 22 8 19 9 205 8 77 0 0