8 5 7 250 9 241 8 81 0 0
8 7 7 250 9 245 8 68 0 0
8 7 7 250 9 245 8 71 0 0
8 6 7 250 9 234 8 81 0 0
8 7 7 250 9 238 8 76 0 0
8 5 7 250 9 241 8 77 0 0
8 6 7 250 9 234 8 80 0 0
8 4 7 250 9 234 8 77 0 0
8 1 7 250 9 235 8 78 0 0
8 3 7 250 9 242 8 78 0 0
8 2 7 250 9 253 8 77 0 0
8 7 7 250 9 240 8 79 0 0
8 1 7 250 9 242 8 79 0 0
8 0 7 249 9 240 8 77 0 0
8 4 7 249 9 240 8 76 0 0
8 3 7 249 9 236 8 78 0 0
8 7 7 250 9 235 8 78 0 0
8 9 7 249 9 241 8 75 0 0
8 4 7 249 9 237 8 76 0 0
8 7 7 249 9 235 8 79 0 0
8 3 7 249 9 241 8 77 0 0
8 5 7 249 9 234 8 79 0 0
8 4 7 249 9 236 8 79 0 0
8 4 7 249 9 235 8 78 0 0
8 7 7 249 9 238 8 78 0 0
8 4 7 249 9 239 8 78 0 0
8 8 7 249 9 239 8 78 0 0
8 5 7 249 9 235 8 79 0 0
8 4 7 250 9 237 8 79 0 0
8 9 7 248 9 241 8 76 0 0
8 6 7 249 9 236 8 79 0 0
8 2 7 248 9 239 8 79 0 0
8 6 7 248 9 231 8 77 0 0
8 6 7 249 9 237 8 75 0 0
8 4 7 249 9 238 8 74 0 0
8 4 7 248 9 240 8 76 0 0
8 6 7 248 9 237 8 75 0 0
8 6 7 249 9 237 8 78 0 0
8 4 7 249 9 241 8 78 0 0
8 4 7 248 9 240 8 76 0 0
8 3 7 249 9 237 8 78 0 0
8 4 7 249 9 236 8 79 0 0
8 2 7 241 9 234 8 72 0 0
8 4 7 242 9 233 8 72 0 0
8 5 7 242 9 242 8 70 0 0
8 1 7 241 9 233 8 71 0 0
8 8 7 242 9 231 8 69 0 0
8 0 7 243 9 246 8 72 0 0
8 9 7 243 9 233 8 71 0 0
8 2 7 242 9 239 8 71 0 0
8 8 7 243 9 237 8 70 0 0
8 9 7 243 9 233 8 73 0 0
8 9 7 243 9 241 8 72 0 0
8 3 7 242 9 232 8 74 0 0
8 8 7 243 9 242 8 72 0 0
8 10 7 243 9 242 8 72 0 0
8 0 7 243 9 242 8 71 0 0
8 3 7 243 9 238 8 71 0 0
8 4 7 243 9 237 8 71 0 0
8 4 7 243 9 246 8 71 0 0
8 4 7 243 9 240 8 69 0 0
8 4 7 243 9 237 8 70 0 0
8 4 7 244 9 234 8 69 0 0
8 5 7 244 9 241 8 72 0 0
8 4 7 244 9 239 8 72 0 0
8 7 7 244 9 235 8 71 0 0
8 5 7 244 9 241 8 72 0 0
7 255 7 244 9 228 8 71 0 0
8 3 7 245 9 230 8 72 0 0
8 10 7 245 9 245 8 72 0 0
8 5 7 244 9 230 8 71 0 0
8 3 7 244 9 233 8 71 0 0
8 5 7 244 9 237 8 72 0 0
8 6 7 244 9 242 8 72 0 0
8 9 7 244 9 244 8 72 0 0
8 7 7 244 9 237 8 72 0 0
8 3 7 245 9 233 8 70 0 0
8 4 7 245 9 241 8 69 0 0
7 253 7 245 9 234 8 70 0 0
8 4 7 245 9 242 8 72 0 0
8 6 7 245 9 245 8 72 0 0
8 2 7 246 9 242 8 72 0 0
8 5 7 245 9 239 8 72 0 0
8 4 7 246 9 237 8 72 0 0
8 10 7 245 9 238 8 72 0 0
8 4 7 245 9 237 8 72 0 0
8 1 7 245 9 235 8 72 0 0
8 6 7 245 9 226 8 72 0 0
8 5 7 246 9 241 8 72 0 0
7 251 7 246 9 246 8 71 0 0
8 7 7 246 9 234 8 71 0 0
8 4 7 246 9 244 8 71 0 0
8 5 7 246 9 237 8 73 0 0
8 1 7 245 9 233 8 71 0 0
8 2 7 246 9 246 8 71 0 0
8 5 7 246 9 238 8 71 0 0
8 8 7 246 9 249 8 69 0 0
8 11 7 245 9 242 8 70 0 0
8 5 7 245 9 242 8 71 0 0
7 255 7 246 9 234 8 71 0 0
8 4 7 246 9 238 8 70 0 0
8 3 7 246 9 234 8 73 0 0
8 2 7 246 9 240 8 75 0 0
8 3 7 246 9 236 8 71 0 0
8 6 7 246 9 238 8 71 0 0
8 6 7 247 9 239 8 71 0 0
8 8 7 246 9 239 8 70 0 0
8 6 7 247 9 232 8 71 0 0
8 7 7 247 9 242 8 72 0 0
8 3 7 247 9 242 8 72 0 0
8 7 7 247 9 234 8 73 0 0
8 4 7 246 9 232 8 73 0 0
8 3 7 254 9 235 8 81 0 0
8 7 7 253 9 240 8 68 0 0
8 4 7 254 9 237 8 79 0 0
8 4 7 253 9 238 8 77 0 0
8 0 7 253 9 240 8 82 0 0
8 7 7 253 9 239 8 82 0 0
8 2 7 253 9 230 8 81 0 0
8 2 7 254 9 245 8 81 0 0
8 3 7 253 9 244 8 78 0 0
7 250 7 253 9 220 8 80 0 0
8 6 7 252 9 245 8 81 0 0
8 5 7 252 9 239 8 82 0 0
8 7 7 252 9 239 8 79 0 0
8 4 7 252 9 235 8 79 0 0
8 6 7 252 9 237 8 78 0 0
8 6 7 251 9 234 8 79 0 0
8 9 7 251 9 236 8 80 0 0
8 7 7 251 9 240 8 79 0 0
8 7 7 252 9 240 8 79 0 0
8 1 7 252 9 238 8 79 0 0
8 10 7 251 9 234 8 78 0 0
8 3 7 251 9 244 8 77 0 0
8 1 7 251 9 234 8 82 0 0
8 5 7 251 9 239 8 79 0 0
8 3 7 251 9 243 8 74 0 0
8 4 7 251 9 241 8 72 0 0
7 252 7 251 9 236 8 76 0 0
8 5 7 250 9 253 8 71 0 0
8 5 7 250 9 248 8 75 0 0
8 4 7 250 9 232 8 73 0 0
8 7 7 250 9 238 8 80 0 0
8 5 7 250 9 235 8 75 0 0
8 3 7 250 9 244 8 77 0 0
8 3 7 250 9 240 8 78 0 0
8 3 7 250 9 240 8 79 0 0
8 5 7 250 9 235 8 79 0 0
8 8 7 250 9 241 8 80 0 0
8 3 7 250 9 238 8 82 0 0
8 5 7 250 9 235 8 81 0 0
8 0 7 250 9 235 8 79 0 0
8 10 7 250 9 239 8 78 0 0
8 7 7 249 9 235 8 74 0 0
8 3 7 249 9 240 8 79 0 0
8 3 7 249 9 237 8 74 0 0
8 5 7 249 9 244 8 78 0 0
7 255 7 249 9 238 8 83 0 0
8 3 7 249 9 238 8 75 0 0
8 6 7 249 9 235 8 75 0 0
8 3 7 249 9 236 8 71 0 0
8 6 7 249 9 233 8 76 0 0
8 5 7 249 9 239 8 76 0 0
8 4 7 249 9 242 8 76 0 0
8 7 7 249 9 236 8 81 0 0
8 3 7 249 9 228 8 79 0 0
8 7 7 249 9 241 8 80 0 0
8 5 7 249 9 238 8 81 0 0
8 9 7 249 9 243 8 77 0 0
8 5 7 249 9 233 8 79 0 0
8 3 7 249 9 234 8 77 0 0
8 5 7 249 9 242 8 79 0 0
8 7 7 249 9 242 8 81 0 0
8 7 7 249 9 221 8 81 0 0
8 2 7 249 9 243 8 77 0 0
8 4 7 248 9 238 8 79 0 0
8 1 7 248 9 240 8 76 0 0
8 3 7 249 9 237 8 76 0 0
8 1 7 249 9 241 8 77 0 0
8 1 7 248 9 241 8 76 0 0
8 1 7 248 9 240 8 71 0 0
8 1 7 250 9 237 8 77 0 0
8 1 7 248 9 234 8 79 0 0
8 7 7 241 9 230 8 71 0 0
8 2 7 241 9 238 8 70 0 0
8 2 7 242 9 235 8 71 0 0
8 4 7 242 9 242 8 70 0 0
8 3 7 242 9 236 8 73 0 0
8 2 7 242 9 245 8 72 0 0
8 2 7 242 9 244 8 73 0 0
8 6 7 243 9 245 8 71 0 0
8 2 7 242 9 238 8 73 0 0
8 5 7 242 9 239 8 72 0 0
8 3 7 243 9 241 8 70 0 0
8 5 7 243 9 237 8 72 0 0
8 5 7 243 9 238 8 72 0 0
8 7 7 244 9 246 8 73 0 0
8 1 7 242 9 232 8 72 0 0
8 3 7 243 9 229 8 72 0 0
8 4 7 243 9 248 8 70 0 0
8 5 7 243 9 234 8 74 0 0
8 3 7 244 9 229 8 72 0 0
8 6 7 243 9 236 8 71 0 0
8 1 7 243 9 240 8 71 0 0
8 3 7 243 9 238 8 70 0 0
8 4 7 243 9 231 8 71 0 0
8 3 7 243 9 222 8 71 0 0
8 3 7 244 9 229 8 72 0 0
8 6 7 244 9 235 8 69 0 0
8 6 7 244 9 240 8 68 0 0
8 7 7 244 9 238 8 69 0 0
8 7 7 243 9 243 8 70 0 0
8 9 7 244 9 244 8 72 0 0
8 7 7 244 9 243 8 73 0 0
8 5 7 245 9 244 8 70 0 0
8 4 7 244 9 242 8 70 0 0
8 5 7 245 9 243 8 72 0 0
8 2 7 245 9 237 8 70 0 0
8 1 7 244 9 233 8 71 0 0
8 8 7 245 9 239 8 71 0 0
8 1 7 244 9 232 8 71 0 0
8 3 7 245 9 225 8 71 0 0
8 4 7 246 9 241 8 71 0 0
8 6 7 244 9 230 8 70 0 0
8 4 7 245 9 229 8 70 0 0
8 6 7 245 9 240 8 72 0 0
8 7 7 245 9 240 8 69 0 0
8 4 7 245 9 244 8 69 0 0
8 2 7 245 9 232 8 71 0 0
7 254 7 245 9 234 8 70 0 0
8 1 7 245 9 244 8 71 0 0
8 1 7 245 9 233 8 71 0 0
8 1 7 245 9 237 8 70 0 0
8 2 7 246 9 237 8 71 0 0
8 3 7 246 9 245 8 69 0 0
8 7 7 246 9 241 8 71 0 0
8 8 7 246 9 236 8 72 0 0
8 0 7 246 9 236 8 72 0 0
8 4 7 246 9 229 8 71 0 0
8 8 7 245 9 235 8 71 0 0
8 9 7 246 9 245 8 72 0 0
8 7 7 246 9 239 8 71 0 0
8 3 7 245 9 230 8 72 0 0
8 8 7 246 9 236 8 71 0 0
8 4 7 246 9 241 8 71 0 0
8 6 7 246 9 237 8 70 0 0
7 252 7 246 9 238 8 71 0 0
8 7 7 246 9 242 8 70 0 0
8 7 7 246 9 237 8 72 0 0
8 4 7 246 9 236 8 73 0 0
8 10 7 246 9 242 8 72 0 0
8 4 7 246 9 235 8 71 0 0
8 7 7 247 9 239 8 70 0 0
8 2 7 246 9 243 8 72 0 0
8 5 7 246 9 240 8 71 0 0
8 4 7 247 9 245 8 71 0 0
8 6 7 246 9 235 8 73 0 0
8 2 7 246 9 232 8 74 0 0
8 1 7 247 9 248 8 72 0 0
8 3 7 247 9 238 8 70 0 0
8 2 7 246 9 234 8 70 0 0
8 5 7 247 9 249 8 70 0 0
8 7 7 246 9 233 8 68 0 0
8 6 7 246 9 236 8 72 0 0
8 3 7 246 9 234 8 71 0 0
8 12 7 247 9 237 8 78 0 0
8 6 7 254 9 238 8 79 0 0
8 7 7 253 9 236 8 79 0 0
8 5 7 254 9 237 8 79 0 0
8 2 7 254 9 235 8 80 0 0
8 8 7 253 9 242 8 78 0 0
8 5 7 253 9 235 8 78 0 0
8 3 7 253 9 242 8 77 0 0
8 5 7 253 9 239 8 78 0 0
8 7 7 254 9 238 8 78 0 0
8 4 7 253 9 236 8 80 0 0
8 7 7 252 9 235 8 80 0 0
8 6 7 253 9 227 8 79 0 0
8 3 7 253 9 236 8 79 0 0
8 7 7 252 9 245 8 83 0 0
8 6 7 252 9 237 8 81 0 0
8 3 7 252 9 241 8 79 0 0
8 3 7 252 9 241 8 77 0 0
8 4 7 251 9 240 8 78 0 0
8 9 7 252 9 244 8 80 0 0
8 2 7 252 9 230 8 84 0 0
8 7 7 251 9 235 8 77 0 0
8 4 7 251 9 243 8 79 0 0
8 6 7 252 9 238 8 80 0 0
8 7 7 252 9 247 8 79 0 0
8 8 7 252 9 238 8 80 0 0
8 4 7 251 9 239 8 77 0 0
8 4 7 251 9 237 8 79 0 0
8 6 7 251 9 242 8 80 0 0
8 6 7 251 9 241 8 78 0 0
8 4 7 251 9 246 8 79 0 0
8 3 7 250 9 242 8 79 0 0
8 2 7 251 9 250 8 80 0 0
8 8 7 251 9 241 8 78 0 0
8 3 7 250 9 235 8 86 0 0
8 5 7 251 9 247 8 80 0 0
8 5 7 250 9 240 8 80 0 0
8 6 7 250 9 242 8 80 0 0
8 7 7 251 9 231 8 79 0 0
8 4 7 251 9 240 8 76 0 0
8 8 7 250 9 237 8 70 0 0
8 8 7 250 9 237 8 70 0 0
8 7 7 250 9 245 8 79 0 0
8 5 7 251 9 238 8 78 0 0
8 7 7 251 9 242 8 77 0 0
8 0 7 250 9 238 8 81 0 0
8 5 7 250 9 237 8 80 0 0
8 5 7 250 9 242 8 79 0 0
8 4 7 250 9 239 8 77 0 0
8 4 7 250 9 230 8 78 0 0
8 5 7 251 9 240 8 78 0 0
8 1 7 250 9 223 8 78 0 0
8 2 7 250 9 230 8 78 0 0
8 4 7 250 9 234 8 73 0 0
8 8 7 250 9 239 8 78 0 0
8 6 7 250 9 239 8 80 0 0
8 7 7 250 9 244 8 85 0 0
8 2 7 249 9 239 8 77 0 0
8 6 7 250 9 233 8 76 0 0
8 5 7 249 9 238 8 75 0 0
8 9 7 250 9 236 8 69 0 0
8 3 7 249 9 236 8 78 0 0
8 4 7 249 9 237 8 74 0 0
8 8 7 250 9 243 8 75 0 0
8 4 7 249 9 240 8 77 0 0
8 7 7 249 9 242 8 77 0 0
8 5 7 249 9 245 8 77 0 0
8 7 7 249 9 240 8 80 0 0
8 6 7 249 9 240 8 80 0 0
8 12 7 249 9 235 8 80 0 0
8 4 7 250 9 244 8 80 0 0
7 255 7 249 9 217 8 81 0 0
8 3 7 249 9 237 8 80 0 0
8 8 7 249 9 236 8 73 0 0
8 6 7 249 9 240 8 79 0 0
8 4 7 249 9 238 8 78 0 0
8 8 7 249 9 241 8 71 0 0
8 5 7 248 9 236 8 76 0 0
8 5 7 249 9 235 8 78 0 0
8 4 7 248 9 244 8 78 0 0
8 9 7 249 9 241 8 78 0 0
8 8 7 248 9 241 8 73 0 0
8 4 7 248 9 239 8 76 0 0
8 5 7 249 9 243 8 77 0 0
8 9 7 248 9 240 8 79 0 0
8 4 7 248 9 241 8 78 0 0
7 251 7 241 9 212 8 71 0 0
8 2 7 241 9 236 8 72 0 0
8 19 7 241 9 243 8 72 0 0
8 6 7 242 9 236 8 73 0 0
8 5 7 241 9 242 8 73 0 0
8 12 7 242 9 242 8 72 0 0
8 5 7 242 9 240 8 71 0 0
8 3 7 243 9 234 8 72 0 0
8 2 7 242 9 241 8 71 0 0
8 1 7 242 9 223 8 73 0 0
8 3 7 242 9 239 8 73 0 0
8 4 7 241 9 232 8 72 0 0
8 3 7 241 9 235 8 71 0 0
8 4 7 243 9 241 8 74 0 0
8 5 7 243 9 236 8 72 0 0
8 6 7 242 9 243 8 73 0 0
8 2 7 242 9 230 8 71 0 0
8 6 7 243 9 239 8 71 0 0
8 5 7 243 9 239 8 69 0 0
8 8 7 243 9 237 8 72 0 0
8 3 7 243 9 240 8 72 0 0
8 5 7 243 9 240 8 72 0 0
8 4 7 243 9 231 8 72 0 0
8 5 7 244 9 243 8 71 0 0
8 4 7 243 9 241 8 72 0 0
8 6 7 244 9 250 8 72 0 0
8 4 7 244 9 233 8 73 0 0
8 4 7 244 9 243 8 72 0 0
8 4 7 245 9 246 8 72 0 0
8 3 7 244 9 237 8 71 0 0
8 6 7 244 9 233 8 71 0 0
8 6 7 244 9 245 8 72 0 0
8 5 7 244 9 232 8 71 0 0
8 5 7 245 9 251 8 71 0 0
8 10 7 245 9 241 8 72 0 0
8 6 7 245 9 239 8 72 0 0
8 5 7 244 9 239 8 74 0 0
7 255 7 244 9 233 8 72 0 0
8 4 7 245 9 250 8 73 0 0
8 12 7 244 9 234 8 73 0 0
8 1 7 244 9 240 8 72 0 0
8 2 7 245 9 242 8 72 0 0
8 3 7 245 9 241 8 71 0 0
8 5 7 245 9 239 8 71 0 0
8 4 7 246 9 244 8 70 0 0
8 9 7 245 9 240 8 71 0 0
8 6 7 245 9 232 8 71 0 0
8 3 7 246 9 239 8 72 0 0
8 12 7 246 9 246 8 73 0 0
7 255 7 246 9 234 8 74 0 0
8 3 7 245 9 231 8 72 0 0
8 3 7 245 9 233 8 71 0 0
8 5 7 246 9 236 8 70 0 0
8 5 7 245 9 236 8 69 0 0
8 7 7 245 9 240 8 72 0 0
8 3 7 246 9 232 8 69 0 0
8 6 7 246 9 239 8 73 0 0
8 2 7 245 9 238 8 71 0 0
8 2 7 245 9 239 8 70 0 0
8 4 7 246 9 233 8 71 0 0
8 4 7 245 9 245 8 72 0 0
8 7 7 245 9 240 8 72 0 0
8 4 7 245 9 235 8 71 0 0
8 3 7 246 9 249 8 73 0 0
8 4 7 247 9 246 8 71 0 0
8 7 7 246 9 238 8 70 0 0
8 5 7 246 9 234 8 70 0 0
8 4 7 246 9 252 8 71 0 0
8 3 7 247 9 243 8 71 0 0
8 3 7 247 9 245 8 73 0 0
8 0 7 247 9 234 8 71 0 0
8 4 7 246 9 229 8 69 0 0
8 7 7 246 9 233 8 72 0 0
8 0 7 246 9 246 8 72 0 0
8 2 7 246 9 238 8 71 0 0
8 9 7 246 9 238 8 70 0 0
8 3 7 247 9 242 8 69 0 0
8 6 7 246 9 251 8 71 0 0
8 5 7 246 9 235 8 72 0 0
8 2 7 246 9 246 8 70 0 0
8 6 7 246 9 242 8 69 0 0
8 6 7 246 9 240 8 71 0 0
8 3 7 246 9 236 8 72 0 0
8 5 7 247 9 240 8 69 0 0
8 4 7 246 9 239 8 71 0 0
8 8 7 246 9 238 8 72 0 0
8 8 7 246 9 239 8 71 0 0
8 6 7 247 9 231 8 71 0 0
8 4 7 247 9 229 8 72 0 0
8 5 7 247 9 244 8 72 0 0
8 7 7 246 9 248 8 71 0 0
8 6 7 246 9 244 8 71 0 0
8 5 7 246 9 244 8 72 0 0
8 4 7 246 9 241 8 70 0 0
8 4 7 246 9 230 8 72 0 0
8 7 7 247 9 247 8 72 0 0
8 4 7 246 9 236 8 69 0 0
8 11 7 254 9 235 8 72 0 0
8 3 7 253 9 241 8 76 0 0
8 3 7 253 9 244 8 67 0 0
8 4 7 253 9 237 8 79 0 0
8 5 7 253 9 240 8 77 0 0
8 4 7 253 9 242 8 79 0 0
8 4 7 253 9 238 8 78 0 0
8 7 7 253 9 240 8 78 0 0
7 249 7 253 9 247 8 77 0 0
8 6 7 253 9 242 8 78 0 0
7 255 7 253 9 233 8 79 0 0
8 3 7 254 9 237 8 80 0 0
8 2 7 252 9 235 8 78 0 0
8 2 7 252 9 235 8 87 0 0
8 4 7 252 9 235 8 70 0 0
8 4 7 252 9 239 8 82 0 0
8 7 7 252 9 241 8 90 0 0
8 5 7 252 9 237 8 86 0 0
8 3 7 252 9 234 8 78 0 0
8 10 7 252 9 243 8 73 0 0
8 4 7 251 9 242 8 78 0 0
8 3 7 251 9 243 8 79 0 0
7 253 7 252 9 245 8 78 0 0
8 5 7 252 9 232 8 79 0 0
8 10 7 252 9 242 8 80 0 0
8 2 7 252 9 242 8 79 0 0
8 14 7 251 9 225 8 78 0 0
8 4 7 251 9 245 8 76 0 0
8 7 7 251 9 245 8 77 0 0
8 1 7 252 9 233 8 80 0 0
8 7 7 252 9 243 8 76 0 0
8 5 7 252 9 246 8 80 0 0
8 4 7 251 9 236 8 86 0 0
8 5 7 250 9 235 8 77 0 0
8 8 7 250 9 240 8 81 0 0
8 5 7 250 9 236 8 88 0 0
8 7 7 250 9 241 8 76 0 0
8 4 7 251 9 237 8 82 0 0
7 255 7 250 9 241 8 81 0 0
8 4 7 251 9 238 8 79 0 0
8 3 7 250 9 241 8 77 0 0
8 7 7 250 9 235 8 77 0 0
8 5 7 250 9 240 8 78 0 0
8 6 7 250 9 246 8 79 0 0
8 5 7 250 9 236 8 78 0 0
8 6 7 250 9 233 8 77 0 0
8 8 7 250 9 239 8 79 0 0
8 5 7 250 9 240 8 78 0 0
8 11 7 250 9 225 8 78 0 0
8 5 7 250 9 230 8 79 0 0
8 3 7 250 9 238 8 78 0 0
8 7 7 250 9 241 8 79 0 0
7 255 7 250 9 241 8 78 0 0
8 6 7 249 9 238 8 76 0 0
8 6 7 249 9 237 8 79 0 0
8 5 7 249 9 236 8 76 0 0
8 7 7 250 9 243 8 78 0 0
8 7 7 249 9 243 8 76 0 0
8 3 7 250 9 237 8 76 0 0
8 12 7 249 9 237 8 79 0 0
8 5 7 249 9 238 8 89 0 0
8 6 7 248 9 238 8 78 0 0
8 3 7 249 9 241 8 75 0 0
8 9 7 249 9 238 8 76 0 0
8 6 7 249 9 240 8 76 0 0
8 4 7 249 9 237 8 77 0 0
8 7 7 249 9 240 8 79 0 0
8 7 7 249 9 236 8 78 0 0
8 8 7 249 9 239 8 76 0 0
8 4 7 249 9 238 8 75 0 0
8 5 7 249 9 238 8 77 0 0
7 248 7 250 9 239 8 77 0 0
8 7 7 249 9 240 8 78 0 0
8 5 7 249 9 235 8 79 0 0
8 6 7 249 9 235 8 80 0 0
8 8 7 248 9 247 8 81 0 0
8 5 7 249 9 241 8 84 0 0
8 8 7 248 9 243 8 79 0 0
8 0 7 249 9 235 8 78 0 0
8 4 7 249 9 235 8 80 0 0
8 3 7 249 9 234 8 79 0 0
8 4 7 248 9 241 8 74 0 0
8 0 7 241 9 241 8 73 0 0
8 3 7 241 9 238 8 71 0 0
8 6 7 241 9 237 8 73 0 0
8 7 7 241 9 238 8 72 0 0
8 5 7 241 9 233 8 71 0 0
8 6 7 242 9 241 8 70 0 0
8 7 7 242 9 228 8 70 0 0
8 2 7 242 9 237 8 71 0 0
8 3 7 242 9 242 8 71 0 0
7 255 7 242 9 233 8 74 0 0
8 4 7 243 9 236 8 74 0 0
8 0 7 243 9 241 8 71 0 0
8 5 7 243 9 241 8 70 0 0
8 4 7 242 9 232 8 69 0 0
8 4 7 243 9 233 8 70 0 0
8 8 7 244 9 232 8 71 0 0
8 7 7 243 9 246 8 71 0 0
8 6 7 243 9 232 8 71 0 0
8 4 7 244 9 221 8 72 0 0
8 4 7 244 9 246 8 72 0 0
8 4 7 243 9 232 8 71 0 0
8 5 7 243 9 237 8 72 0 0
8 6 7 243 9 240 8 72 0 0
8 1 7 243 9 243 8 72 0 0
8 3 7 243 10 0 8 73 0 0
8 1 7 243 9 241 8 73 0 0
8 6 7 244 9 242 8 72 0 0
8 4 7 244 9 247 8 73 0 0
8 5 7 243 9 235 8 73 0 0
8 8 7 244 9 233 8 70 0 0
8 8 7 244 9 249 8 72 0 0
8 5 7 244 9 246 8 72 0 0
8 3 7 244 9 238 8 71 0 0
8 3 7 244 9 240 8 72 0 0
8 7 7 244 9 242 8 72 0 0
8 6 7 244 9 240 8 71 0 0
8 4 7 244 9 234 8 71 0 0
8 4 7 244 9 241 8 70 0 0
8 7 7 244 9 239 8 71 0 0
8 6 7 245 9 238 8 72 0 0
8 10 7 245 9 235 8 69 0 0
8 10 7 244 9 229 8 70 0 0
7 251 7 244 9 249 8 72 0 0
8 6 7 245 9 234 8 71 0 0
8 5 7 245 9 238 8 71 0 0
8 6 7 245 9 238 8 72 0 0
8 3 7 246 9 237 8 73 0 0
8 2 7 245 9 241 8 73 0 0
8 8 7 246 9 235 8 72 0 0
8 1 7 245 9 242 8 71 0 0
8 5 7 246 9 234 8 71 0 0
8 5 7 246 9 236 8 73 0 0
7 251 7 246 9 240 8 73 0 0
8 10 7 246 9 231 8 72 0 0
8 3 7 245 9 233 8 70 0 0
8 4 7 245 9 236 8 69 0 0
8 5 7 246 9 235 8 71 0 0
8 6 7 245 9 235 8 71 0 0
8 4 7 245 9 234 8 71 0 0
7 254 7 245 9 226 8 69 0 0
8 7 7 246 9 249 8 71 0 0
8 3 7 245 9 228 8 72 0 0
8 2 7 245 9 247 8 71 0 0
8 6 7 246 9 240 8 70 0 0
8 3 7 246 9 233 8 71 0 0
8 6 7 246 9 237 8 72 0 0
8 4 7 246 9 242 8 71 0 0
8 5 7 246 9 233 8 72 0 0
8 5 7 246 9 233 8 71 0 0
8 10 7 246 9 236 8 72 0 0
8 7 7 247 9 234 8 72 0 0
8 3 7 247 9 233 8 72 0 0
8 5 7 246 9 235 8 71 0 0
8 5 7 246 9 238 8 69 0 0
8 8 7 246 9 241 8 69 0 0
8 3 7 246 9 240 8 69 0 0
8 6 7 246 9 239 8 71 0 0
7 255 7 247 9 229 8 73 0 0
7 4 7 247 9 235 8 72 0 0
8 4 7 246 9 235 8 72 0 0
8 2 7 247 9 237 8 72 0 0
8 5 7 247 9 235 8 71 0 0
8 9 7 246 9 242 8 70 0 0
8 5 7 247 9 240 8 71 0 0
8 4 7 247 9 246 8 72 0 0
7 254 7 246 9 237 8 74 0 0
8 2 7 247 9 243 8 73 0 0
8 8 7 246 9 239 8 70 0 0
8 0 7 247 9 236 8 70 0 0
8 3 7 247 9 239 8 72 0 0
8 8 7 247 9 243 8 72 0 0
7 249 7 247 9 235 8 72 0 0
8 6 7 247 9 246 8 72 0 0
8 10 7 254 9 245 8 78 0 0
8 4 7 253 9 235 8 79 0 0
8 3 7 253 9 240 8 68 0 0
8 3 7 253 9 239 8 77 0 0
8 4 7 253 9 241 8 76 0 0
8 5 7 253 9 243 8 77 0 0
8 5 7 254 9 237 8 80 0 0
8 4 7 253 9 237 8 75 0 0
8 3 7 253 9 237 8 77 0 0
8 4 7 252 9 241 8 83 0 0
8 6 7 253 9 242 8 80 0 0
8 5 7 253 9 242 8 79 0 0
8 6 7 252 9 234 8 79 0 0
8 3 7 252 9 239 8 77 0 0
8 10 7 253 9 241 8 81 0 0
8 6 7 252 9 238 8 76 0 0
8 6 7 252 9 239 8 78 0 0
8 2 7 252 9 245 8 76 0 0
8 4 7 252 9 232 8 76 0 0
8 7 7 253 9 241 8 79 0 0
8 2 7 253 9 238 8 77 0 0
8 7 7 252 9 245 8 70 0 0
8 4 7 251 9 245 8 75 0 0
8 6 7 251 9 240 8 80 0 0
8 5 7 252 9 243 8 77 0 0
8 4 7 251 9 241 8 73 0 0
8 8 7 251 9 240 8 78 0 0
8 4 7 251 9 244 8 74 0 0
8 6 7 251 9 242 8 86 0 0
8 8 7 251 9 245 8 89 0 0
8 5 7 251 9 236 8 80 0 0
8 4 7 250 9 233 8 79 0 0
8 5 7 251 9 237 8 79 0 0
8 3 7 251 9 235 8 79 0 0
8 5 7 251 9 234 8 80 0 0
8 2 7 250 9 233 8 77 0 0
8 6 7 251 9 241 8 78 0 0
8 2 7 250 9 244 8 79 0 0
8 3 7 251 9 236 8 79 0 0
8 9 7 251 9 249 8 80 0 0
8 5 7 250 9 247 8 78 0 0
8 6 7 251 9 238 8 77 0 0
8 3 7 250 9 236 8 77 0 0
8 4 7 249 9 241 8 81 0 0
8 7 7 250 9 229 8 81 0 0
8 7 7 250 9 237 8 81 0 0
8 6 7 250 9 239 8 76 0 0
8 10 7 251 9 243 8 78 0 0
8 3 7 250 9 249 8 75 0 0
8 5 7 249 9 238 8 70 0 0
8 4 7 249 9 234 8 80 0 0
8 6 7 250 9 238 8 81 0 0
8 2 7 250 9 232 8 78 0 0
8 6 7 249 9 239 8 78 0 0
8 6 7 250 9 235 8 75 0 0
8 4 7 250 9 238 8 78 0 0
8 3 7 249 9 237 8 77 0 0
8 7 7 249 9 239 8 77 0 0
8 5 7 249 9 244 8 76 0 0
8 5 7 249 9 240 8 78 0 0
7 254 7 250 9 230 8 79 0 0
8 4 7 249 9 237 8 76 0 0
8 7 7 250 9 240 8 79 0 0
8 3 7 249 9 237 8 79 0 0
8 6 7 249 9 239 8 73 0 0
8 6 7 249 9 245 8 78 0 0
8 5 7 248 9 249 8 81 0 0
8 4 7 249 9 239 8 76 0 0
8 5 7 250 9 242 8 78 0 0
8 3 7 248 9 240 8 67 0 0
8 3 7 249 9 247 8 74 0 0
8 3 7 249 9 247 8 74 0 0
8 7 7 249 9 238 8 83 0 0
8 7 7 249 9 238 8 83 0 0
8 10 7 249 9 236 8 78 0 0
8 7 7 249 9 235 8 80 0 0
8 3 7 248 9 241 8 79 0 0
8 4 7 249 9 233 8 78 0 0
8 4 7 249 9 243 8 79 0 0
8 5 7 249 9 237 8 77 0 0
8 5 7 249 9 237 8 77 0 0
8 4 7 249 9 240 8 78 0 0
8 4 7 249 9 239 8 76 0 0
8 6 7 249 9 235 8 77 0 0
8 15 7 250 9 247 8 77 0 0
8 6 7 249 9 249 8 77 0 0
8 10 7 249 9 243 8 75 0 0
8 5 7 248 9 247 8 85 0 0
8 3 7 249 9 243 8 76 0 0
8 6 7 249 9 236 8 76 0 0
8 6 7 248 9 246 8 75 0 0
8 5 7 248 9 239 8 78 0 0
8 7 7 248 9 243 8 75 0 0
8 9 7 242 9 235 8 72 0 0
7 254 7 242 9 238 8 73 0 0
8 3 7 241 9 235 8 71 0 0
8 6 7 242 9 243 8 71 0 0
8 3 7 242 9 237 8 72 0 0
8 8 7 241 9 235 8 70 0 0
8 7 7 242 9 235 8 71 0 0
8 5 7 243 9 237 8 71 0 0
8 8 7 242 9 241 8 70 0 0
8 7 7 243 9 241 8 72 0 0
8 5 7 242 9 236 8 74 0 0
8 7 7 244 9 239 8 73 0 0
8 8 7 243 9 233 8 72 0 0
8 0 7 243 9 246 8 73 0 0
8 0 7 243 9 243 8 70 0 0
8 2 7 243 9 235 8 71 0 0
8 8 7 243 9 242 8 72 0 0
8 5 7 243 9 234 8 72 0 0
8 8 7 243 9 232 8 72 0 0
8 5 7 244 9 243 8 70 0 0
8 10 7 243 9 231 8 67 0 0
8 2 7 244 9 229 8 70 0 0
8 3 7 243 9 231 8 71 0 0
8 8 7 243 9 236 8 73 0 0
8 6 7 244 9 237 8 74 0 0
8 3 7 244 9 244 8 72 0 0
8 4 7 244 9 241 8 71 0 0
8 5 7 244 9 240 8 71 0 0
8 9 7 245 9 242 8 71 0 0
8 0 7 245 9 237 8 71 0 0
8 6 7 244 9 234 8 72 0 0
8 2 7 245 9 233 8 71 0 0
8 12 7 245 9 240 8 72 0 0
8 0 7 245 9 243 8 71 0 0
8 4 7 246 9 244 8 70 0 0
8 7 7 245 9 234 8 70 0 0
8 3 7 244 9 239 8 71 0 0
8 5 7 245 9 241 8 72 0 0
8 3 7 244 9 233 8 71 0 0
8 3 7 244 9 248 8 69 0 0
8 2 7 245 9 234 8 73 0 0
8 5 7 245 9 233 8 72 0 0
8 2 7 245 9 254 8 71 0 0
8 3 7 245 9 239 8 71 0 0
8 5 7 245 9 244 8 73 0 0
8 4 7 245 9 241 8 70 0 0
8 6 7 246 9 237 8 71 0 0
8 5 7 245 9 238 8 69 0 0
8 7 7 246 9 234 8 72 0 0
8 5 7 246 9 237 8 70 0 0
8 2 7 246 9 241 8 72 0 0
8 2 7 246 9 243 8 73 0 0
8 4 7 246 9 243 8 71 0 0
8 10 7 246 9 247 8 69 0 0
8 3 7 246 9 241 8 69 0 0
8 7 7 247 9 242 8 71 0 0
7 255 7 246 9 238 8 71 0 0
8 4 7 246 9 238 8 70 0 0
8 6 7 247 9 248 8 72 0 0
8 7 7 246 9 238 8 72 0 0
8 8 7 246 9 249 8 73 0 0
8 4 7 247 9 237 8 71 0 0
8 9 7 246 9 226 8 70 0 0
8 4 7 246 9 229 8 72 0 0
8 4 7 246 9 237 8 70 0 0
8 7 7 246 10 0 8 69 0 0
8 4 7 246 9 235 8 68 0 0
8 8 7 246 9 241 8 69 0 0
8 8 7 246 9 242 8 70 0 0
8 5 7 247 9 236 8 72 0 0
8 8 7 246 9 233 8 73 0 0
8 4 7 247 9 232 8 73 0 0
8 7 7 247 9 242 8 71 0 0
8 2 7 247 9 233 8 72 0 0
8 0 7 247 9 233 8 70 0 0
8 4 7 247 9 237 8 67 0 0
8 7 7 247 9 242 8 70 0 0
8 7 7 246 9 237 8 70 0 0
8 7 7 247 9 246 8 72 0 0
8 9 7 247 9 227 8 73 0 0
8 4 7 246 9 235 8 73 0 0
8 7 7 247 9 236 8 73 0 0
8 1 7 247 9 241 8 71 0 0
8 6 7 246 9 238 8 71 0 0
8 6 7 246 9 241 8 72 0 0
8 7 7 247 9 238 8 71 0 0
8 6 7 247 9 240 8 72 0 0
8 3 7 247 9 242 8 71 0 0
8 3 7 247 9 240 8 69 0 0
8 3 7 247 9 242 8 70 0 0
8 5 7 247 9 236 8 71 0 0
8 3 7 254 9 238 8 77 0 0
8 5 7 254 9 237 8 76 0 0
8 6 7 254 9 235 8 79 0 0
8 6 7 254 9 239 8 80 0 0
8 14 7 255 9 248 8 81 0 0
8 4 7 253 9 243 8 81 0 0
8 5 7 254 9 243 8 74 0 0
8 1 7 253 9 236 8 77 0 0
8 3 7 253 9 245 8 75 0 0
8 2 7 254 9 244 8 78 0 0
8 3 7 253 9 245 8 78 0 0
8 6 7 253 9 240 8 79 0 0
7 255 7 253 9 239 8 80 0 0
8 2 7 253 9 239 8 75 0 0
8 3 7 252 9 246 8 75 0 0
8 7 7 252 9 240 8 68 0 0
8 5 7 253 9 235 8 76 0 0
8 7 7 252 9 240 8 75 0 0
8 4 7 253 9 242 8 78 0 0
8 5 7 253 9 239 8 79 0 0
8 7 7 253 9 244 8 79 0 0
8 3 7 252 9 238 8 76 0 0
8 5 7 252 9 239 8 77 0 0
8 8 7 252 9 244 8 79 0 0
8 4 7 253 9 241 8 80 0 0
8 9 7 253 9 248 8 78 0 0
8 4 7 252 9 235 8 78 0 0
8 6 7 251 9 238 8 80 0 0
8 7 7 251 9 242 8 78 0 0
8 7 7 251 9 242 8 75 0 0
8 7 7 251 9 240 8 75 0 0
8 6 7 251 9 246 8 77 0 0
8 10 7 251 9 239 8 77 0 0
8 3 7 251 9 244 8 82 0 0
8 5 7 250 9 235 8 82 0 0
8 0 7 251 9 238 8 81 0 0
8 3 7 251 9 235 8 80 0 0
8 0 7 251 9 242 8 79 0 0
8 4 7 251 9 240 8 81 0 0
8 4 7 251 9 244 8 79 0 0
8 6 7 251 9 240 8 78 0 0
8 2 7 250 9 236 8 79 0 0
8 5 7 250 9 240 8 78 0 0
8 6 7 251 9 239 8 78 0 0
8 5 7 251 9 246 8 79 0 0
8 11 7 251 9 238 8 73 0 0
8 3 7 250 9 235 8 78 0 0
8 4 7 250 9 231 8 77 0 0
8 4 7 250 9 239 8 81 0 0
8 4 7 250 9 238 8 78 0 0
8 3 7 250 9 236 8 80 0 0
8 4 7 250 9 244 8 83 0 0
8 2 7 250 9 241 8 79 0 0
8 6 7 250 9 238 8 79 0 0
8 4 7 250 9 236 8 68 0 0
8 5 7 250 9 239 8 73 0 0
8 9 7 249 9 238 8 79 0 0
8 5 7 250 9 234 8 78 0 0
8 7 7 250 9 236 8 78 0 0
8 4 7 250 9 243 8 77 0 0
8 8 7 250 9 238 8 79 0 0
8 5 7 250 9 236 8 78 0 0
8 7 7 249 9 245 8 79 0 0
8 5 7 250 9 238 8 80 0 0
8 3 7 250 9 237 8 79 0 0
8 6 7 250 9 225 8 80 0 0
8 0 7 250 9 234 8 83 0 0
8 5 7 249 9 239 8 75 0 0
8 5 7 249 9 240 8 79 0 0
8 6 7 249 9 243 8 78 0 0
8 5 7 249 9 238 8 78 0 0
8 7 7 249 9 237 8 78 0 0
8 6 7 248 9 241 8 81 0 0
8 4 7 249 9 249 8 79 0 0
8 6 7 249 9 240 8 78 0 0
8 4 7 249 9 240 8 78 0 0
8 4 7 249 9 240 8 79 0 0
8 6 7 249 9 242 8 75 0 0
8 2 7 249 9 239 8 77 0 0
8 2 7 249 9 239 8 77 0 0
8 10 7 249 9 242 8 76 0 0
8 2 7 249 9 242 8 77 0 0
8 3 7 249 9 239 8 80 0 0
8 3 7 249 9 231 8 79 0 0
8 5 7 249 9 229 8 79 0 0
8 2 7 249 9 236 8 80 0 0
8 5 7 249 9 241 8 80 0 0
8 8 7 249 9 236 8 77 0 0
8 5 7 249 9 240 8 78 0 0
8 4 7 248 9 236 8 80 0 0
8 1 7 241 9 237 8 69 0 0
8 3 7 242 9 242 8 69 0 0
8 4 7 241 9 238 8 71 0 0
8 7 7 241 9 240 8 72 0 0
8 7 7 242 9 252 8 72 0 0
8 7 7 242 9 236 8 72 0 0
8 7 7 242 9 233 8 70 0 0
8 8 7 243 9 246 8 71 0 0
8 6 7 243 9 242 8 72 0 0
8 3 7 243 9 247 8 71 0 0
8 5 7 243 9 238 8 71 0 0
8 3 7 243 9 243 8 70 0 0
8 5 7 243 9 233 8 70 0 0
8 4 7 243 9 245 8 71 0 0
8 5 7 243 9 243 8 71 0 0
8 1 7 244 9 231 8 73 0 0
8 6 7 243 9 238 8 71 0 0
8 6 7 243 9 237 8 72 0 0
7 254 7 244 9 225 8 69 0 0
8 5 7 244 9 233 8 71 0 0
8 5 7 243 9 224 8 72 0 0
8 1 7 243 9 241 8 71 0 0
8 2 7 244 9 232 8 73 0 0
8 1 7 244 9 242 8 71 0 0
8 1 7 243 9 233 8 70 0 0
7 255 7 244 9 251 8 70 0 0
8 4 7 243 9 233 8 70 0 0
8 8 7 244 9 246 8 70 0 0
8 4 7 244 9 237 8 70 0 0
8 5 7 244 9 243 8 71 0 0
8 8 7 244 9 243 8 70 0 0
8 6 7 244 9 238 8 69 0 0
8 5 7 245 9 247 8 69 0 0
8 5 7 245 9 234 8 71 0 0
8 4 7 245 9 232 8 71 0 0
8 10 7 245 9 241 8 71 0 0
8 11 7 246 9 236 8 72 0 0
8 2 7 245 9 233 8 70 0 0
8 3 7 245 9 239 8 70 0 0
8 4 7 245 9 235 8 71 0 0
8 1 7 245 9 237 8 70 0 0
8 6 7 246 9 234 8 70 0 0
8 6 7 245 9 231 8 71 0 0
8 4 7 245 9 236 8 72 0 0
8 2 7 246 9 237 8 71 0 0
8 0 7 245 9 232 8 70 0 0
8 5 7 245 10 0 8 71 0 0
8 5 7 245 9 238 8 72 0 0
8 2 7 245 9 231 8 73 0 0
8 2 7 245 9 238 8 71 0 0
8 5 7 245 9 241 8 73 0 0
8 7 7 246 9 244 8 71 0 0
8 1 7 245 9 236 8 70 0 0
8 9 7 245 9 239 8 72 0 0
8 5 7 245 9 243 8 72 0 0
8 6 7 246 9 247 8 71 0 0
8 12 7 247 9 229 8 70 0 0
8 4 7 246 9 237 8 70 0 0
8 3 7 245 9 237 8 72 0 0
8 5 7 246 9 245 8 71 0 0
8 4 7 246 9 243 8 72 0 0
8 4 7 246 9 236 8 70 0 0
8 3 7 246 9 234 8 70 0 0
8 2 7 246 9 237 8 70 0 0
8 5 7 246 9 246 8 71 0 0
8 4 7 246 9 240 8 70 0 0
8 7 7 246 9 247 8 72 0 0
8 8 7 246 9 241 8 71 0 0
8 9 7 246 9 241 8 71 0 0
8 7 7 246 9 242 8 70 0 0
8 3 7 246 9 236 8 71 0 0
8 9 7 246 9 240 8 70 0 0
8 7 7 246 9 235 8 69 0 0
8 2 7 246 9 242 8 70 0 0
8 8 7 246 9 243 8 72 0 0
8 4 7 246 9 240 8 71 0 0
8 2 7 247 9 233 8 71 0 0
8 2 7 247 9 239 8 71 0 0
8 4 7 246 9 234 8 69 0 0
8 6 7 246 9 235 8 69 0 0
8 3 7 247 9 234 8 69 0 0
8 5 7 247 9 248 8 72 0 0
8 1 7 246 9 243 8 72 0 0
8 5 7 246 9 236 8 70 0 0
8 5 7 247 9 249 8 70 0 0
8 4 7 246 9 236 8 70 0 0
8 4 7 246 9 233 8 70 0 0
8 6 7 247 9 236 8 70 0 0
8 7 7 246 9 239 8 71 0 0
8 6 7 253 9 240 8 90 0 0
8 3 7 253 9 247 8 79 0 0
8 3 7 253 9 239 8 78 0 0
8 6 7 253 9 237 8 77 0 0
8 3 7 254 9 242 8 79 0 0
8 4 7 253 9 232 8 78 0 0
8 8 7 253 9 241 8 79 0 0
8 2 7 253 9 236 8 79 0 0
8 4 7 253 9 235 8 81 0 0
8 3 7 252 9 241 8 81 0 0
8 6 7 253 9 235 8 80 0 0
8 8 7 253 9 241 8 79 0 0
8 4 7 252 9 238 8 81 0 0
8 5 7 252 9 238 8 79 0 0
8 5 7 251 9 244 8 76 0 0
8 5 7 253 9 253 8 77 0 0
8 5 7 252 9 238 8 77 0 0
8 3 7 251 9 238 8 82 0 0
8 1 7 252 9 237 8 79 0 0
8 1 7 252 9 237 8 79 0 0
8 0 7 252 9 241 8 77 0 0
8 4 7 251 9 244 8 78 0 0
8 5 7 252 9 236 8 77 0 0
8 6 7 252 9 241 8 78 0 0
8 6 7 252 9 241 8 78 0 0
8 4 7 252 9 232 8 77 0 0
8 5 7 251 9 237 8 77 0 0
8 7 7 251 9 237 8 79 0 0
8 6 7 251 9 250 8 79 0 0
8 6 7 252 9 232 8 78 0 0
8 5 7 250 9 239 8 79 0 0
8 5 7 251 9 244 8 75 0 0
8 2 7 251 9 240 8 77 0 0
8 4 7 250 9 240 8 74 0 0
8 2 7 250 9 240 8 76 0 0
8 7 7 250 9 242 8 79 0 0
8 4 7 251 9 244 8 77 0 0
8 4 7 250 9 237 8 77 0 0
8 3 7 250 9 240 8 74 0 0
8 3 7 251 9 242 8 76 0 0
8 5 7 250 9 234 8 80 0 0
8 2 7 250 9 232 8 79 0 0
8 3 7 250 9 240 8 77 0 0
8 5 7 250 9 241 8 78 0 0
8 4 7 250 9 242 8 80 0 0
8 3 7 250 9 239 8 78 0 0
8 6 7 250 9 239 8 79 0 0
8 8 7 250 9 236 8 78 0 0
8 9 7 250 9 225 8 80 0 0
8 4 7 251 9 235 8 80 0 0
8 3 7 249 9 247 8 79 0 0
8 5 7 250 9 238 8 77 0 0
8 9 7 249 9 236 8 75 0 0
8 3 7 250 9 234 8 76 0 0
8 4 7 249 9 240 8 76 0 0
8 5 7 249 9 234 8 76 0 0
8 5 7 250 9 237 8 80 0 0
8 3 7 249 9 238 8 79 0 0
8 5 7 249 9 243 8 92 0 0
8 4 7 249 9 240 8 82 0 0
8 1 7 250 9 241 8 80 0 0
8 2 7 249 9 234 8 78 0 0
8 4 7 249 9 236 8 77 0 0
8 6 7 249 9 239 8 77 0 0
8 4 7 249 9 236 8 80 0 0
8 5 7 249 9 237 8 77 0 0
8 3 7 249 9 238 8 76 0 0
8 3 7 249 9 243 8 78 0 0
8 2 7 249 9 239 8 80 0 0
8 0 7 249 9 239 8 79 0 0
8 4 7 249 9 236 8 76 0 0
8 5 7 249 9 237 8 85 0 0
8 4 7 248 9 248 8 79 0 0
8 4 7 248 9 240 8 77 0 0
8 5 7 249 9 241 8 78 0 0
8 2 7 248 9 232 8 78 0 0
8 7 7 248 9 240 8 76 0 0
8 15 7 249 9 236 8 84 0 0
8 5 7 248 9 233 8 77 0 0
8 7 7 248 9 242 8 74 0 0
8 8 7 248 9 242 8 79 0 0
8 7 7 249 9 240 8 79 0 0
8 4 7 249 9 242 8 76 0 0
8 6 7 249 9 240 8 76 0 0
8 2 7 249 9 234 8 75 0 0
8 9 7 248 9 243 8 78 0 0
8 6 7 249 9 237 8 78 0 0
8 3 7 249 9 232 8 80 0 0
8 2 7 241 9 241 8 73 0 0
8 8 7 242 9 227 8 72 0 0
8 5 7 242 9 242 8 74 0 0
8 0 7 241 9 233 8 70 0 0
8 2 7 242 9 242 8 68 0 0
8 5 7 242 9 244 8 67 0 0
8 8 7 242 9 238 8 69 0 0
8 2 7 242 9 238 8 69 0 0
8 4 7 242 9 236 8 69 0 0
8 8 7 242 9 232 8 69 0 0
8 8 7 242 9 232 8 69 0 0
8 2 7 242 9 238 8 71 0 0
8 5 7 242 9 239 8 71 0 0
8 4 7 242 9 237 8 72 0 0
8 1 7 242 9 237 8 72 0 0
8 5 7 243 9 242 8 71 0 0
8 7 7 243 9 241 8 70 0 0
8 5 7 243 9 239 8 70 0 0
8 2 7 243 9 240 8 71 0 0
8 3 7 243 9 239 8 74 0 0
8 12 7 243 9 239 8 72 0 0
8 7 7 244 9 238 8 72 0 0
8 8 7 244 9 228 8 71 0 0
8 4 7 244 9 247 8 71 0 0
8 2 7 244 9 227 8 69 0 0
8 3 7 244 9 245 8 69 0 0
8 4 7 244 9 243 8 69 0 0
7 255 7 243 9 236 8 70 0 0
8 7 7 244 9 241 8 70 0 0
8 4 7 244 9 247 8 70 0 0
8 6 7 244 9 245 8 70 0 0
8 8 7 244 9 245 8 71 0 0
8 6 7 244 9 238 8 70 0 0
8 5 7 244 9 250 8 70 0 0
8 6 7 244 9 243 8 71 0 0
8 7 7 245 9 239 8 73 0 0
8 7 7 245 9 241 8 72 0 0
8 4 7 245 9 240 8 71 0 0
8 8 7 245 9 242 8 71 0 0
8 4 7 245 9 244 8 71 0 0
8 3 7 245 9 237 8 72 0 0
8 9 7 245 9 249 8 71 0 0
8 10 7 245 9 243 8 72 0 0
8 4 7 246 9 247 8 71 0 0
8 9 7 246 9 248 8 68 0 0
8 1 7 245 9 229 8 69 0 0
8 7 7 245 9 239 8 72 0 0
8 9 7 245 9 245 8 72 0 0
8 9 7 245 9 245 8 72 0 0
8 6 7 245 9 238 8 73 0 0
8 7 7 245 9 242 8 71 0 0
8 7 7 245 9 242 8 71 0 0
8 6 7 245 9 231 8 71 0 0
8 2 7 246 9 239 8 71 0 0
8 8 7 245 9 235 8 71 0 0
8 3 7 245 9 236 8 71 0 0
8 3 7 245 9 240 8 71 0 0
8 7 7 246 9 239 8 70 0 0
8 10 7 246 9 240 8 68 0 0
8 6 7 245 9 242 8 71 0 0
8 7 7 246 9 236 8 71 0 0
8 7 7 245 9 234 8 70 0 0
8 4 7 246 9 237 8 72 0 0
8 6 7 246 9 234 8 71 0 0
8 3 7 246 9 245 8 72 0 0
8 3 7 246 9 242 8 72 0 0
8 6 7 247 9 240 8 72 0 0
8 4 7 247 9 232 8 71 0 0
8 5 7 246 9 236 8 69 0 0
8 0 7 246 9 238 8 70 0 0
8 2 7 247 9 240 8 73 0 0
8 2 7 246 9 234 8 73 0 0
8 2 7 246 9 230 8 74 0 0
8 6 7 246 9 236 8 73 0 0
8 7 7 247 9 247 8 72 0 0
8 6 7 246 9 228 8 72 0 0
8 7 7 246 9 233 8 72 0 0
8 4 7 247 9 248 8 72 0 0
8 5 7 246 9 245 8 72 0 0
8 5 7 247 9 235 8 72 0 0
8 4 7 246 9 232 8 70 0 0
8 5 7 247 9 236 8 69 0 0
8 5 7 246 9 237 8 71 0 0
8 6 7 246 9 240 8 69 0 0
8 1 7 246 9 236 8 68 0 0
8 4 7 246 9 233 8 70 0 0
8 3 7 247 9 234 8 71 0 0
8 3 7 247 9 234 8 71 0 0
8 8 7 247 9 230 8 72 0 0
8 8 7 247 9 230 8 72 0 0
8 0 7 248 9 243 8 72 0 0
8 0 7 248 9 243 8 72 0 0
8 6 7 247 9 232 8 70 0 0
8 6 7 247 9 242 8 72 0 0
8 4 7 246 9 229 8 71 0 0
7 255 7 247 9 237 8 70 0 0
8 9 7 254 9 237 8 72 0 0
8 6 7 254 9 238 8 79 0 0
7 255 7 255 9 236 8 78 0 0
8 10 7 254 9 243 8 76 0 0
8 3 7 254 9 247 8 74 0 0
8 11 7 254 9 237 8 77 0 0
8 4 7 254 9 231 8 77 0 0
8 6 7 254 9 1 8 80 0 0
8 5 7 253 9 237 8 78 0 0
8 5 7 254 9 230 8 79 0 0
8 12 7 253 9 253 8 79 0 0
8 1 7 253 9 233 8 78 0 0
8 7 7 253 9 239 8 79 0 0
8 2 7 253 9 251 8 77 0 0
8 12 7 253 9 235 8 79 0 0
8 0 7 253 9 233 8 79 0 0
8 6 7 252 9 237 8 79 0 0
8 5 7 252 9 236 8 80 0 0
8 5 7 252 9 236 8 80 0 0
8 5 7 253 9 236 8 79 0 0
8 6 7 252 9 242 8 83 0 0
8 7 7 252 9 237 8 77 0 0
8 7 7 251 9 242 8 79 0 0
8 4 7 252 9 242 8 78 0 0
8 6 7 253 9 241 8 78 0 0
8 1 7 252 9 237 8 79 0 0
8 5 7 252 9 239 8 78 0 0
8 6 7 252 9 239 8 78 0 0
8 4 7 252 9 236 8 78 0 0
8 2 7 252 9 238 8 81 0 0
8 8 7 252 9 241 8 81 0 0
8 6 7 252 9 240 8 80 0 0
8 7 7 252 9 243 8 77 0 0
8 11 7 251 9 230 8 78 0 0
8 4 7 251 9 237 8 87 0 0
8 3 7 250 9 239 8 86 0 0
8 6 7 251 9 235 8 82 0 0
8 4 7 250 9 242 8 90 0 0
8 6 7 251 9 236 8 76 0 0
8 3 7 250 9 240 8 76 0 0
8 3 7 250 9 238 8 86 0 0
8 3 7 249 9 237 8 78 0 0
8 6 7 250 9 240 8 77 0 0
8 8 7 250 9 239 8 77 0 0
8 3 7 250 9 234 8 78 0 0
8 6 7 250 9 241 8 81 0 0
8 14 7 250 9 234 8 79 0 0
8 2 7 250 9 215 8 80 0 0
8 8 7 250 9 244 8 80 0 0
8 7 7 250 9 237 8 80 0 0
8 4 7 250 9 242 8 79 0 0
8 11 7 250 9 239 8 77 0 0
8 18 7 249 9 244 8 79 0 0
8 4 7 250 9 244 8 79 0 0
8 10 7 249 9 238 8 76 0 0
8 9 7 249 9 236 8 80 0 0
8 5 7 249 9 241 8 78 0 0
8 2 7 249 9 242 8 77 0 0
8 8 7 249 9 242 8 81 0 0
8 4 7 250 9 240 8 80 0 0
8 4 7 249 9 244 8 79 0 0
8 4 7 249 9 238 8 80 0 0
8 5 7 249 9 239 8 75 0 0
8 5 7 249 9 240 8 76 0 0
8 7 7 249 9 234 8 77 0 0
8 5 7 249 9 234 8 78 0 0
8 0 7 249 9 241 8 78 0 0
8 9 7 249 9 241 8 78 0 0
8 5 7 249 9 242 8 78 0 0
8 8 7 249 9 241 8 79 0 0
8 2 7 248 9 243 8 77 0 0
8 4 7 249 9 242 8 79 0 0
8 17 7 249 9 247 8 80 0 0
8 6 7 249 9 240 8 77 0 0
8 2 7 250 9 233 8 79 0 0
8 1 7 249 9 234 8 78 0 0
8 4 7 248 9 239 8 79 0 0
8 2 7 249 9 238 8 81 0 0
7 254 7 248 9 236 8 75 0 0
8 0 7 249 9 239 8 79 0 0
8 9 7 249 9 236 8 79 0 0
8 3 7 249 9 239 8 79 0 0
8 6 7 248 9 240 8 87 0 0
8 4 7 248 9 237 8 76 0 0
8 5 7 248 9 237 8 76 0 0
8 3 7 248 9 236 8 78 0 0
8 3 7 248 9 234 8 77 0 0
8 6 7 249 9 237 8 76 0 0
8 8 7 242 9 235 8 74 0 0
8 8 7 242 9 241 8 73 0 0
8 7 7 242 9 235 8 74 0 0
8 6 7 242 9 237 8 72 0 0
8 5 7 242 9 227 8 72 0 0
8 7 7 243 9 236 8 73 0 0
7 255 7 243 9 237 8 71 0 0
8 9 7 243 9 240 8 73 0 0
8 5 7 243 9 234 8 71 0 0
7 255 7 242 9 232 8 71 0 0
8 7 7 243 9 230 8 70 0 0
8 6 7 242 9 255 8 74 0 0
8 5 7 243 10 3 8 72 0 0
8 9 7 244 9 252 8 73 0 0
8 3 7 243 9 234 8 74 0 0
7 255 7 242 9 242 8 72 0 0
7 255 7 242 9 234 8 71 0 0
8 3 7 242 9 244 8 71 0 0
8 0 7 243 9 241 8 71 0 0
8 3 7 243 9 239 8 72 0 0
7 254 7 243 9 232 8 71 0 0
8 3 7 243 9 245 8 73 0 0
8 10 7 244 9 233 8 73 0 0
8 10 7 243 9 233 8 74 0 0
8 20 7 244 10 5 8 73 0 0
8 9 7 244 9 235 8 72 0 0
8 11 7 244 9 231 8 73 0 0
8 4 7 244 9 252 8 72 0 0
8 4 7 244 9 232 8 73 0 0
8 4 7 244 9 235 8 74 0 0
8 5 7 244 9 240 8 71 0 0
8 5 7 244 9 238 8 70 0 0
8 1 7 244 9 227 8 71 0 0
8 8 7 244 9 240 8 71 0 0
8 2 7 245 9 228 8 72 0 0
8 4 7 244 9 244 8 70 0 0
8 9 7 245 9 248 8 71 0 0
8 3 7 245 9 242 8 71 0 0
7 253 7 245 9 239 8 70 0 0
7 246 7 245 9 229 8 71 0 0
8 8 7 245 9 231 8 71 0 0
8 5 7 245 9 231 8 72 0 0
7 252 7 245 9 223 8 71 0 0
8 1 7 245 9 223 8 70 0 0
7 249 7 245 9 218 8 72 0 0
7 255 7 246 9 237 8 70 0 0
8 8 7 246 9 232 8 73 0 0
8 2 7 246 9 232 8 73 0 0
8 5 7 245 9 241 8 71 0 0
8 10 7 246 9 250 8 72 0 0
7 253 7 246 9 245 8 71 0 0
8 10 7 245 9 250 8 72 0 0
8 3 7 246 9 234 8 75 0 0
8 10 7 246 9 230 8 73 0 0
8 11 7 247 9 237 8 72 0 0
8 3 7 245 9 229 8 71 0 0
8 5 7 245 9 247 8 71 0 0
8 5 7 245 9 236 8 72 0 0
8 4 7 245 9 234 8 72 0 0
7 254 7 246 9 237 8 72 0 0
8 8 7 245 9 243 8 71 0 0
8 1 7 246 9 251 8 71 0 0
8 5 7 246 9 241 8 73 0 0
8 2 7 246 9 237 8 73 0 0
8 8 7 246 9 244 8 72 0 0
8 1 7 246 9 232 8 73 0 0
8 4 7 246 9 249 8 73 0 0
8 8 7 246 9 247 8 72 0 0
8 5 7 246 9 246 8 69 0 0
8 3 7 246 9 231 8 70 0 0
8 7 7 246 9 239 8 71 0 0
8 7 7 245 9 235 8 71 0 0
8 2 7 246 9 243 8 71 0 0
8 6 7 246 9 237 8 72 0 0
8 4 7 246 9 246 8 71 0 0
8 6 7 246 9 235 8 70 0 0
8 3 7 247 9 247 8 71 0 0
8 7 7 246 9 240 8 69 0 0
8 3 7 246 9 239 8 70 0 0
8 5 7 246 9 232 8 70 0 0
8 4 7 246 9 231 8 71 0 0
8 7 7 246 9 233 8 72 0 0
8 3 7 246 9 237 8 73 0 0
7 254 7 247 9 239 8 73 0 0
8 6 7 247 9 244 8 72 0 0
8 2 7 247 9 232 8 78 0 0
8 9 7 254 9 241 8 77 0 0
8 7 7 254 9 244 8 79 0 0
8 1 7 255 9 238 8 80 0 0
8 5 7 254 9 240 8 83 0 0
8 2 7 254 9 236 8 78 0 0
8 0 7 254 9 235 8 79 0 0
8 4 7 254 9 239 8 70 0 0
8 5 7 253 9 244 8 70 0 0
8 6 7 253 9 239 8 75 0 0
8 4 7 252 9 238 8 79 0 0
8 5 7 253 9 240 8 78 0 0
8 5 7 253 9 237 8 79 0 0
8 6 7 253 9 245 8 78 0 0
8 6 7 253 9 235 8 80 0 0
8 10 7 252 9 241 8 81 0 0
8 6 7 253 9 247 8 80 0 0
8 8 7 252 9 242 8 80 0 0
8 3 7 252 9 235 8 78 0 0
8 6 7 252 9 234 8 78 0 0
8 9 7 253 9 236 8 73 0 0
8 15 7 252 9 241 8 79 0 0
8 5 7 251 9 234 8 79 0 0
8 6 7 252 9 241 8 89 0 0
8 6 7 251 9 234 8 77 0 0
8 4 7 251 9 234 8 77 0 0
8 2 7 251 9 236 8 76 0 0
8 3 7 251 9 240 8 80 0 0
8 4 7 250 9 237 8 86 0 0
8 3 7 251 9 241 8 77 0 0
8 3 7 251 9 239 8 84 0 0
8 2 7 250 9 237 8 84 0 0
8 4 7 251 9 245 8 77 0 0
8 7 7 250 9 242 8 82 0 0
8 5 7 250 9 238 8 80 0 0
8 4 7 250 9 236 8 77 0 0
8 5 7 251 9 235 8 75 0 0
8 2 7 251 9 228 8 78 0 0
8 1 7 251 9 235 8 77 0 0
8 3 7 250 9 240 8 84 0 0
8 5 7 250 9 236 8 79 0 0
8 4 7 249 9 238 8 76 0 0
8 6 7 250 9 238 8 78 0 0
8 8 7 249 9 237 8 73 0 0
8 4 7 249 9 240 8 80 0 0
8 10 7 251 9 244 8 78 0 0
8 6 7 249 9 240 8 75 0 0
8 6 7 250 9 244 8 78 0 0
8 6 7 249 9 241 8 78 0 0
8 3 7 250 9 241 8 77 0 0
8 6 7 249 9 238 8 78 0 0
8 3 7 250 9 236 8 76 0 0
8 4 7 250 9 240 8 80 0 0
8 7 7 250 9 232 8 79 0 0
8 4 7 249 9 244 8 79 0 0
8 8 7 249 9 241 8 79 0 0
8 9 7 250 9 240 8 78 0 0
8 6 7 250 9 248 8 77 0 0
8 2 7 250 9 243 8 80 0 0
8 5 7 249 9 239 8 77 0 0
8 5 7 250 9 238 8 80 0 0
8 7 7 249 9 238 8 78 0 0
8 7 7 249 9 239 8 75 0 0
8 7 7 249 9 243 8 75 0 0
8 2 7 249 9 234 8 80 0 0
8 3 7 249 9 240 8 73 0 0
8 2 7 248 9 237 8 76 0 0
8 3 7 248 9 238 8 78 0 0
8 3 7 249 9 241 8 79 0 0
8 6 7 249 9 234 8 78 0 0
8 4 7 249 9 236 8 77 0 0
8 4 7 249 9 239 8 78 0 0
8 4 7 249 9 239 8 76 0 0
8 10 7 249 9 247 8 78 0 0
8 3 7 249 9 235 8 80 0 0
8 4 7 249 9 238 8 78 0 0
8 7 7 249 9 241 8 78 0 0
8 0 7 249 9 234 8 77 0 0
8 7 7 249 9 242 8 77 0 0
8 8 7 250 9 237 8 78 0 0
8 2 7 249 9 240 8 73 0 0
8 5 7 249 9 244 8 82 0 0
8 8 7 249 9 243 8 73 0 0
8 3 7 248 9 246 8 76 0 0
8 7 7 249 9 236 8 74 0 0
8 8 7 249 9 242 8 77 0 0
8 2 7 241 9 236 8 75 0 0
8 1 7 240 9 233 8 72 0 0
8 6 7 241 9 223 8 71 0 0
8 1 7 242 9 236 8 72 0 0
8 4 7 241 9 236 8 72 0 0
8 5 7 241 9 241 8 73 0 0
8 4 7 241 9 237 8 72 0 0
8 8 7 242 9 241 8 70 0 0
8 5 7 241 9 237 8 69 0 0
8 8 7 242 9 239 8 69 0 0
8 2 7 242 9 223 8 72 0 0
8 0 7 242 9 242 8 73 0 0
8 1 7 242 9 234 8 72 0 0
8 8 7 242 9 239 8 68 0 0
8 4 7 243 9 237 8 70 0 0
8 3 7 242 9 244 8 71 0 0
8 5 7 242 9 229 8 70 0 0
8 1 7 242 9 238 8 71 0 0
8 7 7 243 9 246 8 73 0 0
8 5 7 243 9 243 8 73 0 0
8 5 7 242 9 240 8 72 0 0
8 2 7 243 9 243 8 69 0 0
8 4 7 243 9 250 8 71 0 0
8 10 7 244 9 238 8 71 0 0
8 8 7 243 9 244 8 71 0 0
8 8 7 243 9 238 8 71 0 0
8 10 7 243 9 238 8 71 0 0
8 6 7 244 9 244 8 73 0 0
8 2 7 244 9 238 8 72 0 0
8 0 7 244 9 237 8 71 0 0
8 6 7 244 9 236 8 72 0 0
8 6 7 244 9 244 8 70 0 0
8 2 7 245 9 244 8 70 0 0
8 4 7 244 9 238 8 71 0 0
8 9 7 244 9 234 8 71 0 0
7 255 7 244 9 238 8 71 0 0
8 2 7 244 9 235 8 72 0 0
8 5 7 244 9 232 8 71 0 0
8 6 7 244 9 234 8 70 0 0
8 4 7 245 9 231 8 70 0 0
8 2 7 245 9 238 8 70 0 0
8 4 7 244 9 238 8 67 0 0
8 6 7 244 9 236 8 70 0 0
8 0 7 245 9 241 8 71 0 0
8 2 7 245 9 243 8 71 0 0
8 10 7 245 9 236 8 72 0 0
8 8 7 245 9 241 8 71 0 0
8 5 7 245 9 240 8 70 0 0
8 4 7 245 9 233 8 71 0 0
8 4 7 245 9 238 8 73 0 0
8 6 7 245 9 237 8 72 0 0
8 4 7 245 9 234 8 72 0 0
7 251 7 246 9 230 8 73 0 0
8 3 7 246 9 242 8 72 0 0
8 6 7 245 9 241 8 71 0 0
8 2 7 245 9 230 8 71 0 0
8 0 7 245 9 234 8 72 0 0
8 5 7 246 9 236 8 72 0 0
8 5 7 246 9 240 8 70 0 0
8 4 7 245 9 237 8 70 0 0
8 5 7 246 9 240 8 73 0 0
8 9 7 245 9 240 8 72 0 0
8 4 7 245 9 235 8 70 0 0
8 2 7 245 9 245 8 70 0 0
8 7 7 246 9 242 8 72 0 0
8 4 7 246 9 244 8 71 0 0
8 4 7 246 9 238 8 71 0 0
8 1 7 246 9 243 8 72 0 0
8 2 7 246 9 233 8 72 0 0
8 5 7 246 9 230 8 72 0 0
8 6 7 246 9 237 8 73 0 0
8 4 7 246 9 233 8 70 0 0
8 17 7 246 9 246 8 71 0 0
8 2 7 247 9 246 8 73 0 0
8 4 7 246 9 234 8 72 0 0
8 4 7 246 9 239 8 70 0 0
8 4 7 246 9 241 8 72 0 0
7 251 7 246 9 234 8 71 0 0
8 5 7 246 9 237 8 70 0 0
8 5 7 247 9 242 8 70 0 0
8 4 7 246 9 236 8 71 0 0
8 5 7 246 9 238 8 70 0 0
8 4 7 246 9 226 8 68 0 0
8 8 7 246 9 255 8 71 0 0
8 3 7 246 9 242 8 72 0 0
8 3 7 246 9 242 8 71 0 0
8 0 7 247 9 233 8 71 0 0
8 5 7 246 9 237 8 72 0 0
8 8 7 246 9 235 8 71 0 0
8 6 7 247 9 234 8 73 0 0
8 4 7 247 9 240 8 72 0 0
8 4 7 247 9 235 8 73 0 0
8 16 7 248 9 241 8 71 0 0
7 252 7 248 9 239 8 70 0 0
8 7 7 246 9 240 8 76 0 0
8 5 7 253 9 240 8 76 0 0
8 6 7 253 9 236 8 68 0 0
8 3 7 253 9 242 8 77 0 0
8 5 7 253 9 237 8 78 0 0
7 255 7 253 9 236 8 77 0 0
8 5 7 254 9 237 8 84 0 0
8 8 7 253 9 238 8 78 0 0
8 5 7 253 9 239 8 79 0 0
8 7 7 253 9 237 8 79 0 0
8 7 7 253 9 234 8 76 0 0
8 4 7 253 9 241 8 80 0 0
8 7 7 253 9 239 8 79 0 0
8 3 7 253 9 237 8 77 0 0
8 3 7 253 9 234 8 78 0 0
8 7 7 253 9 240 8 78 0 0
8 9 7 252 9 236 8 75 0 0
8 6 7 252 9 233 8 76 0 0
8 5 7 252 9 242 8 78 0 0
8 7 7 252 9 238 8 80 0 0
8 6 7 251 9 239 8 76 0 0
8 2 7 252 9 233 8 76 0 0
8 5 7 250 9 240 8 76 0 0
8 7 7 251 9 239 8 78 0 0
8 5 7 251 9 241 8 78 0 0
8 2 7 251 9 239 8 80 0 0
8 1 7 251 9 238 8 83 0 0
8 6 7 250 9 238 8 77 0 0
8 4 7 251 9 240 8 83 0 0
8 6 7 251 9 242 8 78 0 0
8 5 7 251 9 236 8 74 0 0
8 3 7 251 9 241 8 78 0 0
8 2 7 251 9 237 8 76 0 0
8 3 7 251 9 236 8 77 0 0
8 5 7 251 9 235 8 80 0 0
8 5 7 251 9 245 8 77 0 0
8 6 7 250 9 236 8 79 0 0
8 2 7 250 9 239 8 79 0 0
8 5 7 250 9 243 8 81 0 0
8 5 7 251 9 241 8 81 0 0
8 5 7 250 9 238 8 79 0 0
8 6 7 250 9 234 8 79 0 0
8 4 7 249 9 241 8 80 0 0
8 5 7 250 9 240 8 75 0 0
7 255 7 250 9 244 8 80 0 0
8 6 7 249 9 237 8 79 0 0
8 7 7 250 9 237 8 80 0 0
8 3 7 250 9 239 8 74 0 0
8 4 7 249 9 240 8 85 0 0
8 6 7 250 9 236 8 76 0 0
8 7 7 249 9 246 8 81 0 0
8 5 7 249 9 241 8 76 0 0
8 6 7 249 9 244 8 77 0 0
8 2 7 249 9 246 8 78 0 0
8 7 7 249 9 241 8 76 0 0
8 0 7 249 9 237 8 79 0 0
8 5 7 250 9 242 8 79 0 0
8 7 7 249 9 235 8 79 0 0
8 6 7 249 9 242 8 79 0 0
8 5 7 249 9 239 8 79 0 0
8 6 7 250 9 251 8 78 0 0
8 2 7 249 9 240 8 76 0 0
8 6 7 249 9 243 8 75 0 0
8 6 7 249 9 249 8 77 0 0
8 7 7 249 9 244 8 74 0 0
8 8 7 249 9 236 8 75 0 0
8 6 7 249 9 241 8 76 0 0
8 8 7 249 9 238 8 76 0 0
8 8 7 249 9 235 8 77 0 0
8 8 7 249 9 235 8 72 0 0
8 6 7 249 9 237 8 76 0 0
8 8 7 249 9 240 8 79 0 0
8 4 7 249 9 243 8 79 0 0
8 6 7 249 9 241 8 81 0 0
8 5 7 249 9 242 8 82 0 0
8 4 7 249 9 237 8 78 0 0
8 1 7 249 9 243 8 77 0 0
8 7 7 249 9 242 8 79 0 0
8 3 7 249 9 237 8 78 0 0
8 4 7 248 9 234 8 76 0 0
8 6 7 249 9 238 8 76 0 0
7 255 7 249 9 247 8 78 0 0
8 2 7 249 9 237 8 77 0 0
8 8 7 249 9 238 8 83 0 0
8 1 7 249 9 245 8 75 0 0
8 8 7 241 9 243 8 71 0 0
7 255 7 241 9 245 8 70 0 0
8 5 7 241 9 241 8 68 0 0
8 7 7 241 9 225 8 70 0 0
8 6 7 241 9 229 8 68 0 0
8 1 7 241 9 230 8 71 0 0
8 8 7 241 9 248 8 72 0 0
8 5 7 241 9 238 8 71 0 0
8 2 7 242 9 228 8 70 0 0
8 1 7 242 9 243 8 71 0 0
8 7 7 242 9 243 8 70 0 0
8 5 7 242 9 242 8 71 0 0
8 10 7 242 9 236 8 72 0 0
8 5 7 243 9 238 8 72 0 0
8 1 7 243 9 230 8 70 0 0
8 5 7 243 9 226 8 73 0 0
8 3 7 243 9 238 8 70 0 0
8 7 7 243 9 237 8 71 0 0
8 4 7 242 9 240 8 70 0 0
8 7 7 242 9 235 8 70 0 0
8 2 7 243 9 236 8 71 0 0
8 1 7 243 9 234 8 70 0 0
8 3 7 242 9 236 8 67 0 0
8 9 7 244 9 237 8 70 0 0
8 3 7 243 9 230 8 74 0 0
8 3 7 243 9 244 8 72 0 0
8 7 7 244 9 244 8 71 0 0
8 4 7 243 9 241 8 71 0 0
8 11 7 244 9 239 8 70 0 0
8 8 7 244 9 243 8 71 0 0
7 255 7 244 9 241 8 73 0 0
8 5 7 244 9 239 8 72 0 0
8 3 7 244 9 243 8 72 0 0
8 6 7 244 9 242 8 71 0 0
8 2 7 244 9 239 8 71 0 0
8 3 7 244 9 238 8 71 0 0
8 5 7 244 9 239 8 72 0 0
8 9 7 245 9 237 8 72 0 0
8 2 7 244 9 230 8 72 0 0
8 2 7 244 9 237 8 70 0 0
8 6 7 244 9 244 8 70 0 0
8 3 7 245 9 245 8 71 0 0
8 7 7 244 9 239 8 73 0 0
8 5 7 244 9 242 8 71 0 0
8 3 7 245 9 237 8 71 0 0
8 1 7 244 9 232 8 71 0 0
8 4 7 244 9 252 8 72 0 0
8 10 7 245 9 249 8 73 0 0
8 3 7 245 9 235 8 70 0 0
8 3 7 245 9 238 8 68 0 0
8 5 7 246 9 241 8 70 0 0
8 8 7 245 9 236 8 70 0 0
8 5 7 245 9 243 8 70 0 0
8 9 7 245 9 244 8 70 0 0
8 6 7 246 9 242 8 70 0 0
8 2 7 246 9 235 8 71 0 0
8 7 7 246 9 241 8 68 0 0
8 4 7 245 9 237 8 70 0 0
8 2 7 246 9 233 8 70 0 0
8 2 7 245 9 242 8 72 0 0
8 5 7 246 9 232 8 72 0 0
7 255 7 245 9 242 8 72 0 0
8 5 7 246 9 247 8 71 0 0
8 6 7 246 9 241 8 69 0 0
8 3 7 245 9 235 8 69 0 0
8 6 7 245 9 235 8 69 0 0
8 6 7 246 9 240 8 70 0 0
8 6 7 246 9 241 8 71 0 0
8 7 7 246 9 244 8 71 0 0
8 5 7 246 9 230 8 71 0 0
8 6 7 246 9 235 8 71 0 0
8 3 7 246 9 241 8 71 0 0
8 6 7 246 9 233 8 70 0 0
8 3 7 247 9 238 8 71 0 0
8 6 7 246 9 240 8 70 0 0
8 3 7 246 9 235 8 71 0 0
8 11 7 246 9 244 8 73 0 0
8 1 7 246 9 243 8 72 0 0
8 4 7 246 9 232 8 69 0 0
8 4 7 246 9 243 8 70 0 0
7 250 7 246 9 234 8 69 0 0
8 9 7 246 9 226 8 71 0 0
8 1 7 246 9 239 8 71 0 0
8 6 7 246 9 232 8 71 0 0
8 4 7 247 9 232 8 69 0 0
7 255 7 246 9 228 8 70 0 0
8 4 7 246 9 250 8 69 0 0
8 9 7 246 9 237 8 71 0 0
8 7 7 246 9 236 8 71 0 0
8 4 7 246 9 241 8 72 0 0
8 9 7 247 9 237 8 71 0 0
8 3 7 246 9 237 8 69 0 0
8 9 7 246 9 239 8 68 0 0
8 5 7 246 9 242 8 69 0 0
8 7 7 246 9 240 8 69 0 0
8 7 7 253 9 245 8 79 0 0
8 4 7 253 9 237 8 78 0 0
8 4 7 254 9 241 8 80 0 0
8 4 7 253 9 236 8 79 0 0
8 5 7 253 9 242 8 85 0 0
8 5 7 253 9 241 8 77 0 0
8 9 7 253 9 248 8 76 0 0
8 6 7 252 9 243 8 76 0 0
8 6 7 252 9 237 8 71 0 0
8 6 7 252 9 239 8 76 0 0
8 0 7 252 9 232 8 81 0 0
8 14 7 252 9 241 8 80 0 0
8 3 7 252 9 237 8 76 0 0
8 6 7 252 9 239 8 73 0 0
8 6 7 252 9 243 8 80 0 0
8 5 7 252 9 237 8 78 0 0
8 6 7 252 9 239 8 79 0 0
8 4 7 252 9 230 8 77 0 0
8 5 7 251 9 238 8 79 0 0
8 4 7 251 9 242 8 79 0 0
8 4 7 252 9 239 8 78 0 0
8 3 7 252 9 238 8 78 0 0
8 6 7 251 9 244 8 80 0 0
7 254 7 252 9 235 8 80 0 0
8 1 7 251 9 235 8 78 0 0
8 7 7 251 9 236 8 72 0 0
8 5 7 251 9 233 8 81 0 0
8 2 7 251 9 236 8 81 0 0
8 5 7 251 9 235 8 79 0 0
8 6 7 250 9 239 8 82 0 0
8 4 7 250 9 247 8 75 0 0
8 2 7 251 9 245 8 75 0 0
8 5 7 250 9 237 8 63 0 0
8 7 7 250 9 236 8 71 0 0
8 8 7 251 9 241 8 77 0 0
8 5 7 251 9 241 8 79 0 0
8 6 7 250 9 242 8 80 0 0
8 5 7 250 9 237 8 78 0 0
8 5 7 250 9 243 8 80 0 0
8 3 7 250 9 235 8 80 0 0
8 4 7 250 9 241 8 80 0 0
8 5 7 250 9 238 8 78 0 0
8 4 7 250 9 238 8 79 0 0
8 5 7 250 9 238 8 79 0 0
8 11 7 250 9 250 8 74 0 0
8 4 7 249 9 243 8 78 0 0
8 4 7 250 9 234 8 79 0 0
8 4 7 250 9 237 8 79 0 0
8 7 7 249 9 242 8 81 0 0
8 6 7 250 9 234 8 78 0 0
8 3 7 249 9 238 8 78 0 0
8 3 7 249 9 237 8 76 0 0
8 7 7 250 9 235 8 76 0 0
7 254 7 249 9 241 8 76 0 0
8 7 7 249 9 237 8 82 0 0
8 3 7 249 9 237 8 74 0 0
8 6 7 249 9 236 8 78 0 0
8 5 7 249 9 240 8 81 0 0
8 5 7 249 9 241 8 78 0 0
8 6 7 249 9 239 8 78 0 0
8 3 7 249 9 238 8 76 0 0
8 6 7 249 9 241 8 79 0 0
8 4 7 250 9 236 8 77 0 0
8 3 7 249 9 245 8 79 0 0
8 4 7 249 9 235 8 80 0 0
8 3 7 250 9 235 8 76 0 0
8 5 7 249 9 237 8 77 0 0
8 2 7 249 9 237 8 77 0 0
8 6 7 249 9 236 8 78 0 0
8 4 7 249 9 242 8 79 0 0
8 7 7 248 9 244 8 77 0 0
8 5 7 248 9 242 8 76 0 0
8 6 7 249 9 248 8 79 0 0
8 9 7 248 9 234 8 78 0 0
8 3 7 248 9 239 8 76 0 0
8 4 7 248 9 243 8 77 0 0
8 4 7 249 9 238 8 76 0 0
7 255 7 249 9 238 8 75 0 0
8 7 7 249 9 233 8 78 0 0
8 6 7 248 9 239 8 78 0 0
8 7 7 249 9 239 8 76 0 0
8 4 7 248 9 238 8 76 0 0
8 5 7 248 9 243 8 79 0 0
8 7 7 249 9 239 8 78 0 0
8 7 7 248 9 240 8 75 0 0
8 6 7 249 9 254 8 77 0 0
8 7 7 250 9 245 8 82 0 0
8 7 7 248 9 240 8 79 0 0
8 4 7 242 9 246 8 69 0 0
8 5 7 241 9 241 8 70 0 0
8 1 7 242 9 244 8 69 0 0
8 7 7 242 9 239 8 71 0 0
8 3 7 243 9 237 8 70 0 0
8 7 7 241 9 235 8 70 0 0
8 5 7 242 9 241 8 71 0 0
8 0 7 242 9 236 8 70 0 0
8 1 7 242 9 241 8 72 0 0
8 3 7 242 9 236 8 74 0 0
8 8 7 242 9 241 8 71 0 0
8 5 7 243 9 235 8 72 0 0
8 4 7 243 9 242 8 71 0 0
8 1 7 243 9 238 8 72 0 0
8 4 7 243 9 237 8 71 0 0
8 3 7 242 10 0 8 71 0 0
8 3 7 243 9 245 8 72 0 0
8 1 7 244 9 238 8 74 0 0
8 5 7 244 9 234 8 70 0 0
8 4 7 244 9 229 8 70 0 0
8 15 7 243 9 234 8 71 0 0
8 4 7 243 9 237 8 72 0 0
8 9 7 243 9 243 8 72 0 0
8 6 7 244 9 232 8 71 0 0
8 9 7 244 9 235 8 72 0 0
8 10 7 244 9 242 8 70 0 0
8 4 7 244 9 235 8 71 0 0
8 5 7 244 9 233 8 73 0 0
8 4 7 244 9 240 8 72 0 0
8 6 7 245 9 239 8 71 0 0
8 3 7 245 9 236 8 72 0 0
8 3 7 245 9 237 8 72 0 0
8 7 7 245 9 234 8 70 0 0
8 3 7 245 9 239 8 70 0 0
8 3 7 245 9 239 8 70 0 0
8 4 7 245 9 246 8 71 0 0
8 5 7 245 9 232 8 72 0 0
8 3 7 246 9 233 8 71 0 0
8 12 7 245 9 241 8 72 0 0
8 2 7 245 9 240 8 71 0 0
8 10 7 245 9 237 8 70 0 0
8 10 7 245 9 237 8 70 0 0
8 3 7 245 9 246 8 73 0 0
7 254 7 245 9 238 8 71 0 0
8 3 7 246 9 235 8 71 0 0
8 9 7 245 9 236 8 70 0 0
8 4 7 245 9 233 8 71 0 0
8 2 7 245 9 234 8 72 0 0
8 4 7 245 9 236 8 74 0 0
8 0 7 246 9 240 8 72 0 0
8 6 7 246 9 243 8 70 0 0
8 3 7 246 9 237 8 69 0 0
8 10 7 246 9 238 8 68 0 0
8 4 7 246 9 244 8 71 0 0
8 8 7 246 9 236 8 72 0 0
8 6 7 246 9 225 8 72 0 0
8 2 7 246 9 235 8 71 0 0
8 5 7 245 9 239 8 71 0 0
8 6 7 245 9 243 8 73 0 0
8 10 7 246 9 246 8 72 0 0
8 8 7 245 9 239 8 71 0 0
8 5 7 245 9 236 8 72 0 0
8 11 7 246 9 234 8 70 0 0
8 5 7 245 9 235 8 68 0 0
8 5 7 246 9 252 8 70 0 0
8 3 7 246 9 243 8 71 0 0
8 0 7 246 9 237 8 68 0 0
8 5 7 246 9 241 8 71 0 0
8 3 7 246 9 232 8 72 0 0
8 5 7 246 9 242 8 71 0 0
8 5 7 246 9 247 8 70 0 0
8 4 7 246 9 239 8 70 0 0
8 4 7 247 9 241 8 71 0 0
8 6 7 246 9 246 8 70 0 0
8 0 7 246 9 225 8 72 0 0
8 2 7 247 9 230 8 71 0 0
8 1 7 246 9 237 8 69 0 0
8 6 7 245 9 236 8 71 0 0
8 7 7 246 9 250 8 71 0 0
8 9 7 246 9 241 8 71 0 0
8 7 7 246 9 233 8 71 0 0
8 3 7 247 9 241 8 71 0 0
8 8 7 247 9 241 8 73 0 0
8 1 7 246 9 243 8 71 0 0
8 6 7 246 9 240 8 71 0 0
8 5 7 247 9 246 8 71 0 0
8 6 7 247 9 237 8 71 0 0
8 5 7 246 9 237 8 70 0 0
8 4 7 247 9 239 8 72 0 0
8 7 7 253 9 233 8 79 0 0
8 6 7 254 9 237 8 77 0 0
8 1 7 253 9 234 8 79 0 0
8 7 7 254 9 244 8 80 0 0
8 6 7 254 9 238 8 78 0 0
8 7 7 254 9 255 8 80 0 0
8 3 7 253 9 232 8 78 0 0
8 3 7 253 9 243 8 77 0 0
8 4 7 253 9 237 8 78 0 0
8 5 7 252 9 241 8 82 0 0
8 6 7 253 9 240 8 78 0 0
8 4 7 252 9 240 8 73 0 0
8 4 7 253 9 236 8 78 0 0
8 10 7 254 9 238 8 80 0 0
8 5 7 252 9 231 8 79 0 0
8 5 7 252 9 243 8 77 0 0
8 8 7 252 9 239 8 80 0 0
8 7 7 252 9 233 8 77 0 0
8 6 7 252 9 241 8 78 0 0
8 4 7 252 9 239 8 75 0 0
8 7 7 252 9 244 8 76 0 0
8 3 7 252 9 241 8 76 0 0
8 5 7 251 9 239 8 78 0 0
8 5 7 252 9 239 8 79 0 0
8 2 7 252 9 243 8 79 0 0
8 5 7 251 9 237 8 79 0 0
7 255 7 252 9 239 8 70 0 0
8 5 7 251 9 237 8 79 0 0
8 5 7 251 9 240 8 77 0 0
8 0 7 250 9 237 8 75 0 0
8 4 7 250 9 243 8 71 0 0
8 9 7 251 9 240 8 75 0 0
8 5 7 251 9 235 8 76 0 0
8 5 7 250 9 237 8 80 0 0
8 7 7 250 9 243 8 71 0 0
8 5 7 251 9 239 8 80 0 0
8 6 7 251 9 231 8 79 0 0
8 1 7 250 9 232 8 79 0 0
8 7 7 250 9 235 8 79 0 0
8 8 7 250 9 238 8 76 0 0
8 6 7 250 9 238 8 76 0 0
8 6 7 250 9 240 8 78 0 0
8 9 7 251 9 234 8 79 0 0
8 3 7 251 9 236 8 80 0 0
8 3 7 251 9 236 8 78 0 0
8 6 7 250 9 238 8 77 0 0
8 3 7 250 9 246 8 80 0 0
8 4 7 250 9 246 8 80 0 0
8 7 7 250 9 247 8 79 0 0
8 6 7 250 9 244 8 78 0 0
8 4 7 250 9 238 8 74 0 0
8 6 7 250 9 250 8 74 0 0
8 1 7 249 9 236 8 71 0 0
8 3 7 249 9 240 8 80 0 0
8 6 7 250 9 234 8 77 0 0
8 2 7 250 9 230 8 78 0 0
8 4 7 250 9 231 8 79 0 0
8 4 7 250 9 235 8 77 0 0
8 2 7 250 9 237 8 77 0 0
8 7 7 249 9 236 8 79 0 0
8 8 7 249 9 233 8 78 0 0
8 3 7 249 9 241 8 79 0 0
8 5 7 249 9 238 8 77 0 0
8 12 7 249 9 235 8 77 0 0
8 3 7 249 9 241 8 81 0 0
8 5 7 249 9 241 8 77 0 0
8 3 7 249 9 246 8 78 0 0
8 6 7 249 9 238 8 72 0 0
8 9 7 249 9 241 8 77 0 0
8 9 7 249 9 235 8 75 0 0
8 10 7 250 9 242 8 75 0 0
8 3 7 249 9 239 8 84 0 0
8 7 7 249 9 237 8 69 0 0
8 6 7 249 9 236 8 74 0 0
8 2 7 249 9 235 8 75 0 0
8 6 7 249 9 244 8 78 0 0
8 3 7 249 9 234 8 76 0 0
8 5 7 249 9 241 8 78 0 0
8 0 7 249 9 236 8 77 0 0
8 4 7 249 9 238 8 78 0 0
8 5 7 249 9 243 8 79 0 0
8 4 7 249 9 244 8 80 0 0
8 7 7 250 9 240 8 80 0 0
8 5 7 243 9 241 8 72 0 0
8 0 7 242 9 238 8 70 0 0
8 2 7 242 9 226 8 69 0 0
8 2 7 242 9 239 8 71 0 0
8 7 7 242 9 237 8 69 0 0
8 5 7 242 9 232 8 71 0 0
8 11 7 242 9 239 8 74 0 0
8 9 7 243 9 232 8 72 0 0
8 5 7 243 9 234 8 71 0 0
7 254 7 243 9 226 8 70 0 0
7 255 7 243 9 242 8 72 0 0
8 5 7 243 9 226 8 73 0 0
8 12 7 243 9 240 8 74 0 0
8 12 7 242 9 232 8 74 0 0
8 6 7 243 9 242 8 72 0 0
8 5 7 243 9 245 8 72 0 0
8 10 7 243 9 236 8 73 0 0
8 0 7 244 9 249 8 72 0 0
7 248 7 244 9 233 8 73 0 0
8 6 7 244 9 237 8 71 0 0
8 12 7 244 9 245 8 71 0 0
8 6 7 244 9 235 8 70 0 0
8 5 7 244 9 229 8 71 0 0
8 6 7 244 9 237 8 70 0 0
8 9 7 244 9 234 8 70 0 0
8 6 7 244 9 232 8 72 0 0
8 1 7 245 9 236 8 70 0 0
8 6 7 244 9 248 8 69 0 0
7 254 7 245 9 246 8 72 0 0
8 1 7 244 9 238 8 69 0 0
8 3 7 244 9 239 8 70 0 0
8 6 7 244 9 242 8 71 0 0
8 6 7 245 9 237 8 72 0 0
8 5 7 245 9 237 8 71 0 0
7 254 7 244 9 232 8 71 0 0
8 9 7 245 9 244 8 72 0 0
8 2 7 245 9 238 8 71 0 0
8 4 7 246 9 245 8 72 0 0
8 1 7 246 9 238 8 72 0 0
8 7 7 246 9 246 8 71 0 0
8 5 7 246 9 240 8 72 0 0
8 2 7 246 9 245 8 70 0 0
8 8 7 245 9 238 8 69 0 0
8 6 7 245 9 240 8 71 0 0
8 11 7 246 9 239 8 72 0 0
8 11 7 246 9 239 8 72 0 0
8 4 7 246 9 236 8 75 0 0
8 5 7 246 9 240 8 73 0 0
8 2 7 246 9 244 8 75 0 0
8 1 7 246 9 244 8 73 0 0
8 8 7 245 9 244 8 72 0 0
8 3 7 246 9 251 8 71 0 0
8 3 7 246 9 240 8 71 0 0
8 4 7 245 9 246 8 70 0 0
8 0 7 246 9 238 8 71 0 0
8 9 7 246 9 234 8 71 0 0
8 7 7 246 9 223 8 73 0 0
8 6 7 246 9 237 8 71 0 0
8 18 7 246 9 238 8 73 0 0
8 7 7 247 9 241 8 73 0 0
8 6 7 246 9 238 8 72 0 0
8 2 7 246 9 235 8 72 0 0
8 8 7 247 9 242 8 74 0 0
8 4 7 246 9 236 8 72 0 0
8 6 7 246 9 240 8 72 0 0
8 4 7 247 9 234 8 71 0 0
8 2 7 247 9 239 8 72 0 0
8 0 7 246 9 246 8 72 0 0
8 3 7 246 9 237 8 71 0 0
8 9 7 246 9 230 8 72 0 0
8 8 7 246 9 241 8 71 0 0
8 7 7 246 9 237 8 71 0 0
8 7 7 246 9 247 8 70 0 0
7 248 7 246 9 245 8 72 0 0
8 5 7 247 9 235 8 72 0 0
8 9 7 247 9 230 8 70 0 0
8 3 7 247 9 234 8 71 0 0
8 11 7 247 9 237 8 74 0 0
8 5 7 247 9 240 8 71 0 0
8 4 7 248 9 242 8 71 0 0
7 255 7 246 9 232 8 69 0 0
8 1 7 246 9 235 8 72 0 0
8 6 7 247 9 243 8 72 0 0
8 3 7 246 9 246 8 73 0 0
8 2 7 246 9 245 8 71 0 0
7 255 7 247 9 243 8 70 0 0
8 6 7 254 9 238 8 75 0 0
8 3 7 253 9 236 8 78 0 0
8 5 7 253 9 238 8 72 0 0
8 8 7 253 9 236 8 77 0 0
8 3 7 254 9 237 8 80 0 0
8 6 7 254 9 239 8 77 0 0
8 6 7 253 9 235 8 77 0 0
8 5 7 253 9 240 8 77 0 0
8 7 7 253 9 240 8 77 0 0
8 5 7 253 9 248 8 78 0 0
8 10 7 253 9 243 8 76 0 0
8 8 7 253 9 243 8 78 0 0
8 8 7 254 9 239 8 78 0 0
8 5 7 252 9 229 8 77 0 0
8 2 7 253 9 235 8 74 0 0
8 9 7 252 9 247 8 77 0 0
8 3 7 252 9 244 8 79 0 0
8 4 7 252 9 234 8 77 0 0
8 6 7 252 9 236 8 70 0 0
8 3 7 252 9 242 8 72 0 0
8 0 7 252 9 238 8 74 0 0
8 6 7 251 9 236 8 80 0 0
8 1 7 251 9 239 8 80 0 0
8 7 7 252 9 240 8 82 0 0
8 4 7 251 9 241 8 80 0 0
8 6 7 251 9 237 8 80 0 0
8 7 7 251 9 239 8 77 0 0
8 3 7 251 9 237 8 78 0 0
8 3 7 251 9 234 8 77 0 0
8 8 7 251 9 239 8 77 0 0
8 9 7 251 9 239 8 77 0 0
8 4 7 251 9 239 8 78 0 0
7 255 7 252 9 234 8 77 0 0
8 6 7 251 9 233 8 78 0 0
8 7 7 251 9 236 8 80 0 0
8 2 7 251 9 242 8 74 0 0
8 5 7 251 9 240 8 78 0 0
8 5 7 251 9 246 8 76 0 0
8 5 7 251 9 237 8 84 0 0
8 4 7 251 9 239 8 77 0 0
8 6 7 251 9 235 8 76 0 0
8 7 7 251 9 240 8 71 0 0
8 5 7 250 9 237 8 68 0 0
8 5 7 250 9 245 8 83 0 0
8 6 7 250 9 235 8 77 0 0
8 2 7 251 9 236 8 78 0 0
8 2 7 250 9 237 8 77 0 0
8 4 7 250 9 237 8 77 0 0
8 5 7 250 9 232 8 78 0 0
8 4 7 249 9 240 8 76 0 0
8 2 7 250 9 238 8 77 0 0
8 4 7 250 9 243 8 78 0 0
8 8 7 250 9 246 8 79 0 0
8 3 7 251 9 244 8 79 0 0
8 9 7 250 9 237 8 78 0 0
8 6 7 249 9 236 8 78 0 0
8 6 7 249 9 234 8 75 0 0
8 6 7 250 9 242 8 76 0 0
8 13 7 250 9 245 8 76 0 0
8 6 7 249 9 244 8 78 0 0
8 7 7 249 9 239 8 73 0 0
8 1 7 249 9 239 8 69 0 0
8 6 7 250 9 241 8 78 0 0
8 6 7 249 9 234 8 81 0 0
8 4 7 249 9 239 8 80 0 0
8 6 7 249 9 238 8 79 0 0
8 6 7 249 9 238 8 82 0 0
8 7 7 249 9 241 8 79 0 0
8 9 7 249 9 243 8 79 0 0
8 3 7 249 9 236 8 77 0 0
8 6 7 249 9 241 8 75 0 0
8 5 7 249 9 235 8 77 0 0
8 8 7 249 9 239 8 78 0 0
8 5 7 249 9 249 8 80 0 0
8 9 7 250 9 242 8 75 0 0
8 1 7 249 9 232 8 78 0 0
8 5 7 248 9 238 8 74 0 0
8 3 7 248 9 242 8 74 0 0
8 6 7 248 9 240 8 81 0 0
8 8 7 248 9 234 8 74 0 0
8 6 7 249 9 236 8 77 0 0
8 4 7 249 9 235 8 78 0 0
8 3 7 249 9 239 8 77 0 0
8 5 7 249 9 237 8 77 0 0
8 5 7 248 9 246 8 75 0 0
8 4 7 248 9 242 8 77 0 0
8 4 7 248 9 241 8 78 0 0
8 3 7 248 9 243 8 78 0 0
8 4 7 248 9 240 8 78 0 0
8 7 7 249 9 239 8 80 0 0
8 3 7 241 9 239 8 72 0 0
8 3 7 242 9 237 8 72 0 0
8 6 7 241 9 231 8 73 0 0
8 3 7 242 9 229 8 73 0 0
8 9 7 242 9 237 8 70 0 0
8 3 7 243 9 246 8 71 0 0
8 8 7 242 9 237 8 72 0 0
8 6 7 242 9 233 8 71 0 0
8 3 7 242 9 232 8 74 0 0
8 1 7 243 9 229 8 71 0 0
7 255 7 242 9 226 8 72 0 0
7 253 7 244 9 239 8 72 0 0
7 253 7 243 9 231 8 71 0 0
8 2 7 243 9 244 8 70 0 0
8 5 7 243 9 241 8 71 0 0
8 4 7 244 9 238 8 72 0 0
7 251 7 243 9 234 8 74 0 0
8 0 7 244 9 255 8 72 0 0
8 16 7 244 9 223 8 73 0 0
8 5 7 243 9 239 8 73 0 0
8 2 7 244 9 242 8 73 0 0
8 7 7 245 9 222 8 73 0 0
8 3 7 244 9 237 8 72 0 0
8 4 7 244 9 241 8 71 0 0
8 6 7 245 9 227 8 74 0 0
8 6 7 245 9 229 8 70 0 0
8 4 7 244 9 238 8 70 0 0
8 6 7 244 9 235 8 69 0 0
8 5 7 244 9 234 8 69 0 0
8 13 7 245 9 233 8 70 0 0
8 8 7 245 9 238 8 69 0 0
8 3 7 245 9 242 8 72 0 0
8 0 7 244 9 241 8 72 0 0
8 8 7 245 9 236 8 74 0 0
8 19 7 245 9 251 8 73 0 0
8 13 7 245 9 243 8 73 0 0
8 0 7 245 9 233 8 72 0 0
8 10 7 244 9 238 8 72 0 0
8 3 7 245 9 245 8 72 0 0
8 12 7 245 9 235 8 71 0 0
8 11 7 246 9 227 8 72 0 0
8 1 7 245 9 247 8 70 0 0
8 3 7 245 9 227 8 71 0 0
8 6 7 245 9 236 8 69 0 0
8 8 7 245 9 233 8 70 0 0
8 7 7 245 9 239 8 74 0 0
8 6 7 246 9 236 8 73 0 0
8 6 7 246 9 236 8 73 0 0
8 7 7 245 9 241 8 74 0 0
8 7 7 245 9 241 8 74 0 0
8 1 7 245 9 229 8 71 0 0
8 1 7 245 9 229 8 71 0 0
8 6 7 245 9 229 8 70 0 0
8 6 7 245 9 229 8 70 0 0
8 5 7 245 9 236 8 71 0 0
8 6 7 246 9 242 8 70 0 0
7 254 7 246 9 243 8 72 0 0
8 9 7 246 9 243 8 70 0 0
8 7 7 246 9 240 8 71 0 0
8 5 7 246 9 245 8 71 0 0
8 3 7 246 9 239 8 70 0 0
8 3 7 246 9 234 8 70 0 0
8 4 7 246 9 239 8 70 0 0
8 12 7 247 9 236 8 72 0 0
8 7 7 246 9 252 8 70 0 0
8 5 7 246 9 235 8 72 0 0
7 254 7 245 9 234 8 69 0 0
8 4 7 246 9 243 8 71 0 0
8 2 7 246 9 240 8 72 0 0
8 5 7 246 9 234 8 72 0 0
8 5 7 246 9 235 8 71 0 0
8 7 7 247 9 239 8 71 0 0
8 4 7 246 9 233 8 71 0 0
8 5 7 245 9 244 8 72 0 0
8 4 7 247 9 244 8 72 0 0
8 4 7 247 9 233 8 72 0 0
8 5 7 246 9 246 8 73 0 0
8 5 7 247 9 237 8 71 0 0
8 12 7 246 9 230 8 73 0 0
8 0 7 246 9 230 8 74 0 0
8 5 7 246 9 242 8 73 0 0
7 255 7 246 9 239 8 73 0 0
8 2 7 247 9 249 8 71 0 0
8 2 7 254 9 243 8 80 0 0
8 5 7 253 9 231 8 78 0 0
8 5 7 253 9 240 8 80 0 0
8 6 7 253 9 237 8 76 0 0
8 2 7 253 9 233 8 77 0 0
8 1 7 253 9 243 8 79 0 0
8 7 7 253 9 244 8 77 0 0
8 9 7 253 9 242 8 72 0 0
8 6 7 252 9 243 8 79 0 0
8 7 7 253 9 238 8 77 0 0
8 9 7 253 9 234 8 80 0 0
8 6 7 253 9 230 8 80 0 0
8 3 7 253 9 235 8 77 0 0
8 6 7 253 9 240 8 80 0 0
8 9 7 252 9 236 8 79 0 0
8 8 7 252 9 235 8 78 0 0
8 9 7 253 9 242 8 78 0 0
8 3 7 252 9 242 8 78 0 0
8 5 7 253 9 245 8 80 0 0
8 8 7 253 9 240 8 84 0 0
8 3 7 252 9 239 8 77 0 0
8 2 7 251 9 241 8 79 0 0
8 6 7 251 9 244 8 77 0 0
8 1 7 251 9 242 8 75 0 0
8 4 7 251 9 237 8 74 0 0
8 6 7 252 9 240 8 77 0 0
8 6 7 251 9 238 8 72 0 0
8 2 7 251 9 235 8 80 0 0
8 5 7 251 9 241 8 75 0 0
8 7 7 251 9 243 8 77 0 0
8 1 7 251 9 232 8 76 0 0
8 4 7 251 9 235 8 77 0 0
8 2 7 251 9 240 8 77 0 0
8 7 7 251 9 234 8 78 0 0
8 5 7 251 9 241 8 79 0 0
8 3 7 251 9 237 8 80 0 0
8 5 7 250 9 242 8 79 0 0
8 2 7 251 9 243 8 78 0 0
8 4 7 251 9 245 8 78 0 0
8 7 7 251 9 235 8 71 0 0
8 15 7 251 9 236 8 80 0 0
8 6 7 250 9 237 8 80 0 0
8 7 7 250 9 237 8 87 0 0
8 5 7 250 9 245 8 82 0 0
8 5 7 250 9 245 8 82 0 0
8 1 7 250 9 241 8 77 0 0
8 8 7 250 9 241 8 78 0 0
8 6 7 251 9 250 8 78 0 0
8 4 7 250 9 243 8 77 0 0
8 4 7 250 9 243 8 77 0 0
8 10 7 250 9 236 8 80 0 0
8 4 7 250 9 231 8 79 0 0
8 5 7 249 9 244 8 78 0 0
8 6 7 250 9 241 8 79 0 0
8 5 7 250 9 239 8 80 0 0
8 2 7 250 9 241 8 79 0 0
8 7 7 250 9 234 8 77 0 0
8 4 7 250 9 235 8 77 0 0
8 7 7 250 9 232 8 78 0 0
8 4 7 250 9 234 8 78 0 0
8 7 7 250 9 242 8 78 0 0
8 3 7 250 9 231 8 79 0 0
8 6 7 251 9 237 8 79 0 0
8 11 7 250 9 242 8 75 0 0
8 4 7 249 9 241 8 75 0 0
8 6 7 249 9 244 8 82 0 0
8 3 7 249 9 237 8 74 0 0
8 7 7 249 9 235 8 75 0 0
8 3 7 249 9 244 8 76 0 0
8 1 7 250 9 238 8 77 0 0
8 5 7 249 9 238 8 87 0 0
8 3 7 249 9 239 8 77 0 0
8 5 7 248 9 238 8 76 0 0
8 6 7 249 9 239 8 77 0 0
8 7 7 249 9 240 8 78 0 0
8 7 7 249 9 244 8 79 0 0
8 5 7 249 9 246 8 79 0 0
8 10 7 249 9 235 8 76 0 0
8 4 7 249 9 236 8 80 0 0
8 6 7 249 9 237 8 78 0 0
8 6 7 249 9 241 8 78 0 0
8 4 7 249 9 235 8 78 0 0
8 6 7 250 9 241 8 77 0 0
8 5 7 249 9 235 8 78 0 0
8 7 7 250 9 238 8 70 0 0
8 7 7 249 9 236 8 85 0 0
8 6 7 249 9 239 8 87 0 0
8 7 7 249 9 243 8 76 0 0
8 4 7 249 9 238 8 67 0 0
8 6 7 249 9 246 8 77 0 0
8 5 7 249 9 237 8 70 0 0
8 4 7 249 9 244 8 76 0 0
8 8 7 241 9 238 8 79 0 0
8 10 7 242 9 243 8 71 0 0
8 6 7 242 9 235 8 70 0 0
8 9 7 242 9 233 8 70 0 0
8 6 7 242 9 240 8 70 0 0
8 6 7 242 9 238 8 70 0 0
8 5 7 241 9 237 8 70 0 0
8 4 7 243 9 241 8 73 0 0
8 3 7 242 9 237 8 74 0 0
8 4 7 242 9 235 8 73 0 0
8 10 7 243 9 243 8 71 0 0
7 254 7 243 9 241 8 72 0 0
8 7 7 242 9 238 8 71 0 0
8 6 7 244 9 237 8 70 0 0
8 4 7 242 9 236 8 72 0 0
8 6 7 243 9 244 8 72 0 0
8 10 7 243 9 242 8 70 0 0
8 3 7 243 9 235 8 70 0 0
8 7 7 244 9 237 8 71 0 0
8 2 7 243 9 238 8 72 0 0
8 0 7 243 9 236 8 72 0 0
8 2 7 244 9 230 8 72 0 0
8 3 7 244 9 233 8 71 0 0
8 10 7 244 9 235 8 70 0 0
8 1 7 244 9 237 8 69 0 0
8 4 7 244 9 240 8 70 0 0
8 2 7 244 9 241 8 73 0 0
8 4 7 244 9 237 8 74 0 0
8 5 7 245 9 238 8 70 0 0
8 5 7 245 9 238 8 70 0 0
8 6 7 244 9 237 8 71 0 0
8 9 7 244 9 249 8 71 0 0
8 2 7 245 9 239 8 71 0 0
8 12 7 245 9 247 8 71 0 0
8 3 7 244 9 228 8 72 0 0
8 12 7 245 9 244 8 72 0 0
8 9 7 245 9 235 8 69 0 0
8 5 7 245 9 231 8 69 0 0
8 1 7 245 9 240 8 70 0 0
8 2 7 245 9 241 8 71 0 0
8 0 7 245 9 235 8 72 0 0
8 5 7 244 9 233 8 71 0 0
8 8 7 246 9 250 8 71 0 0
8 7 7 246 9 238 8 68 0 0
8 4 7 246 9 235 8 69 0 0
8 7 7 246 9 241 8 71 0 0
8 9 7 246 9 228 8 70 0 0
8 5 7 246 9 226 8 71 0 0
7 244 7 246 9 230 8 70 0 0
8 6 7 246 9 242 8 72 0 0
7 255 7 246 9 239 8 72 0 0
8 7 7 245 9 243 8 72 0 0
8 10 7 246 9 243 8 69 0 0
8 10 7 246 9 243 8 69 0 0
8 1 7 246 9 225 8 72 0 0
8 7 7 246 9 235 8 71 0 0
8 12 7 246 9 231 8 70 0 0
8 6 7 246 9 244 8 71 0 0
8 4 7 247 9 244 8 73 0 0
8 8 7 246 9 238 8 72 0 0
8 4 7 246 9 244 8 71 0 0
8 6 7 246 9 232 8 70 0 0
8 3 7 247 9 240 8 71 0 0
8 0 7 247 9 241 8 69 0 0
8 7 7 247 9 241 8 72 0 0
8 5 7 247 9 235 8 70 0 0
8 1 7 246 9 237 8 71 0 0
8 9 7 246 9 240 8 71 0 0
7 246 7 246 9 244 8 73 0 0
8 12 7 246 10 14 8 74 0 0
8 16 7 246 9 239 8 75 0 0
8 7 7 247 9 236 8 74 0 0
8 5 7 247 9 241 8 73 0 0
8 7 7 246 9 237 8 70 0 0
8 12 7 247 9 237 8 69 0 0
8 0 7 246 9 237 8 70 0 0
8 3 7 246 9 243 8 69 0 0
8 6 7 246 9 233 8 70 0 0
8 6 7 246 9 233 8 68 0 0
8 4 7 247 9 239 8 69 0 0
8 3 7 246 9 244 8 68 0 0
8 9 7 247 9 234 8 68 0 0
8 1 7 247 9 230 8 69 0 0
8 4 7 246 9 240 8 70 0 0
7 254 7 246 9 249 8 70 0 0
8 1 7 247 9 221 8 71 0 0
8 5 7 247 9 239 8 72 0 0
8 1 7 247 9 240 8 73 0 0
8 15 7 246 9 224 8 73 0 0
8 13 7 254 9 242 8 82 0 0
8 8 7 254 9 231 8 79 0 0
8 1 7 254 9 242 8 79 0 0
8 2 7 254 9 234 8 79 0 0
8 3 7 255 9 240 8 75 0 0
8 3 7 254 9 239 8 80 0 0
8 2 7 253 9 237 8 80 0 0
8 9 7 253 9 243 8 78 0 0