8 40 8 14 9 255 8 68 0 0
8 30 8 15 9 231 8 68 0 0
8 33 8 16 9 243 8 67 0 0
8 29 8 14 9 233 8 66 0 0
8 33 8 14 9 222 8 70 0 0
8 47 8 14 9 243 8 69 0 0
8 17 8 14 9 232 8 70 0 0
8 59 8 15 9 227 8 69 0 0
8 31 8 14 9 188 8 70 0 0
8 3 8 14 9 111 8 69 0 0
8 33 8 15 9 232 8 67 0 0
8 19 8 15 9 194 8 67 0 0
8 23 8 15 10 3 8 71 0 0
8 30 8 15 10 14 8 70 0 0
7 233 8 17 9 180 8 69 0 0
8 31 8 17 9 235 8 67 0 0
8 56 8 16 10 0 8 67 0 0
8 29 8 16 9 227 8 64 0 0
8 39 8 16 9 235 8 68 0 0
8 30 8 17 10 3 8 71 0 0
8 30 8 16 10 6 8 69 0 0
8 43 8 16 9 235 8 68 0 0
8 31 8 16 9 233 8 63 0 0
8 54 8 17 9 203 8 66 0 0
7 253 8 17 10 42 8 69 0 0
8 53 8 17 9 213 8 71 0 0
8 52 8 17 9 216 8 68 0 0
8 45 8 17 9 226 8 67 0 0
8 5 8 17 9 236 8 65 0 0
8 31 8 18 9 238 8 66 0 0
8 13 8 17 9 148 8 68 0 0
8 33 8 17 9 231 8 71 0 0
8 26 8 18 9 242 8 70 0 0
8 48 8 17 9 237 8 68 0 0
8 40 8 18 10 35 8 63 0 0
8 70 8 18 10 0 8 65 0 0
8 38 8 18 10 9 8 67 0 0
8 59 8 18 9 237 8 69 0 0
8 40 8 19 10 10 8 68 0 0
8 40 8 18 10 8 8 67 0 0
8 15 8 18 10 17 8 64 0 0
8 43 8 18 9 240 8 64 0 0
8 7 8 19 10 20 8 69 0 0
7 251 8 18 9 141 8 70 0 0
7 223 8 18 9 136 8 65 0 0
8 31 8 19 9 233 8 70 0 0
8 28 8 18 9 226 8 65 0 0
8 34 8 18 9 239 8 65 0 0
8 35 8 18 9 240 8 75 0 0
8 31 8 25 9 229 8 74 0 0
8 26 8 24 9 244 8 74 0 0
8 18 8 24 9 212 8 75 0 0
8 33 8 24 9 231 8 74 0 0
8 25 8 24 9 239 8 74 0 0
8 36 8 24 9 228 8 76 0 0
8 30 8 24 9 241 8 75 0 0
8 25 8 23 9 233 8 76 0 0
8 36 8 23 9 229 8 75 0 0
8 47 8 23 9 150 8 76 0 0
8 85 8 23 9 194 8 73 0 0
8 25 8 23 9 238 8 74 0 0
8 29 8 22 9 235 8 73 0 0
8 32 8 23 9 237 8 71 0 0
8 35 8 23 9 209 8 72 0 0
8 37 8 22 9 231 8 73 0 0
8 42 8 23 9 232 8 74 0 0
8 35 8 22 9 242 8 73 0 0
8 31 8 23 9 240 8 73 0 0
8 33 8 23 9 239 8 75 0 0
8 31 8 23 9 236 8 74 0 0
8 30 8 23 9 239 8 75 0 0
8 31 8 22 9 243 8 74 0 0
8 35 8 23 9 254 8 74 0 0
8 14 8 23 9 119 8 74 0 0
8 62 8 23 9 201 8 73 0 0
8 35 8 22 9 232 8 71 0 0
8 29 8 23 9 231 8 74 0 0
8 36 8 22 9 230 8 75 0 0
8 61 8 23 9 221 8 75 0 0
8 95 8 22 9 216 8 75 0 0
8 33 8 22 9 232 8 74 0 0
8 31 8 22 9 237 8 74 0 0
8 28 8 22 9 231 8 75 0 0
8 35 8 22 9 229 8 76 0 0
8 28 8 22 9 230 8 75 0 0
8 25 8 23 9 214 8 75 0 0
8 20 8 23 10 29 8 74 0 0
8 43 8 22 10 47 8 75 0 0
8 28 8 22 9 232 8 74 0 0
8 29 8 21 9 238 8 73 0 0
8 33 8 21 9 238 8 73 0 0
8 94 8 22 9 132 8 77 0 0
8 18 8 21 10 111 8 76 0 0
8 5 8 21 9 238 8 76 0 0
8 32 8 20 9 231 8 74 0 0
8 34 8 21 9 234 8 75 0 0
8 33 8 21 9 227 8 73 0 0
8 30 8 22 9 229 8 75 0 0
8 35 8 22 9 243 8 74 0 0
8 33 8 22 9 242 8 74 0 0
8 48 8 22 10 80 8 73 0 0
8 97 8 22 9 123 8 73 0 0
8 43 8 21 9 231 8 74 0 0
8 30 8 20 9 235 8 73 0 0
8 34 8 21 9 240 8 75 0 0
8 34 8 21 10 65 8 73 0 0
8 43 8 13 9 230 8 63 0 0
8 31 8 12 9 223 8 68 0 0
8 25 8 13 10 27 8 69 0 0
8 39 8 13 9 215 8 67 0 0
8 5 8 13 10 72 8 67 0 0
8 69 8 14 9 181 8 65 0 0
8 25 8 14 9 211 8 66 0 0
8 43 8 15 9 238 8 71 0 0
8 32 8 15 9 248 8 70 0 0
8 30 8 16 9 237 8 68 0 0
8 60 8 16 9 246 8 68 0 0
8 31 8 15 9 228 8 72 0 0
8 32 8 16 9 246 8 68 0 0
8 35 8 16 9 225 8 66 0 0
8 29 8 16 9 229 8 70 0 0
8 31 8 16 9 224 8 69 0 0
8 32 8 15 9 234 8 69 0 0
8 35 8 16 9 228 8 70 0 0
8 44 8 16 9 167 8 67 0 0
8 48 8 17 9 218 8 67 0 0
8 56 8 17 9 206 8 70 0 0
8 61 8 17 10 81 8 66 0 0
8 32 8 18 9 244 8 68 0 0
8 37 8 19 9 241 8 67 0 0
8 33 8 18 9 236 8 67 0 0
8 33 8 18 9 249 8 68 0 0
8 25 8 18 9 155 8 71 0 0
8 23 8 17 9 226 8 68 0 0
8 32 8 18 9 230 8 69 0 0
8 38 8 18 9 248 8 70 0 0
8 44 8 18 10 25 8 71 0 0
8 33 8 18 9 237 8 69 0 0
8 32 8 18 9 240 8 70 0 0
8 31 8 19 9 243 8 73 0 0
8 26 8 18 9 244 8 65 0 0
8 23 8 18 9 223 8 70 0 0
8 32 8 18 9 241 8 66 0 0
8 29 8 18 9 223 8 69 0 0
8 24 8 18 9 241 8 71 0 0
8 33 8 18 9 238 8 70 0 0
8 46 8 18 10 22 8 72 0 0
8 32 8 17 9 237 8 70 0 0
8 29 8 18 9 243 8 71 0 0
8 29 8 18 9 233 8 66 0 0
8 74 8 19 9 240 8 68 0 0
8 53 8 19 9 240 8 70 0 0
8 23 8 19 10 4 8 68 0 0
8 29 8 19 9 213 8 64 0 0
8 33 8 18 9 225 8 65 0 0
8 33 8 19 9 232 8 69 0 0
8 33 8 19 9 246 8 69 0 0
8 33 8 19 9 238 8 65 0 0
8 35 8 18 9 238 8 69 0 0
8 27 8 19 9 174 8 68 0 0
8 22 8 19 9 239 8 68 0 0
8 30 8 18 9 242 8 67 0 0
8 35 8 19 9 239 8 68 0 0
8 38 8 17 9 238 8 72 0 0
8 36 8 19 9 221 8 71 0 0
8 36 8 19 9 237 8 70 0 0
8 8 8 18 10 7 8 71 0 0
8 36 8 18 10 1 8 68 0 0
8 30 8 18 9 233 8 72 0 0
8 29 8 20 9 233 8 65 0 0
8 27 8 19 9 229 8 67 0 0
8 46 8 25 9 234 8 75 0 0
8 34 8 25 9 243 8 75 0 0
8 30 8 24 9 239 8 73 0 0
8 43 8 25 9 120 8 75 0 0
8 30 8 24 9 240 8 75 0 0
8 29 8 24 9 234 8 77 0 0
8 33 8 23 9 238 8 74 0 0
8 30 8 23 9 232 8 74 0 0
8 35 8 23 9 239 8 75 0 0
8 35 8 23 9 233 8 77 0 0
8 32 8 23 9 235 8 74 0 0
8 31 8 23 9 231 8 75 0 0
8 123 8 23 9 126 8 72 0 0
8 32 8 23 9 217 8 72 0 0
8 31 8 22 9 241 8 75 0 0
8 37 8 22 9 236 8 76 0 0
8 29 8 22 9 230 8 76 0 0
7 237 8 23 9 241 8 74 0 0
8 26 8 22 9 246 8 73 0 0
8 29 8 22 9 230 8 72 0 0
8 35 8 21 9 225 8 76 0 0
8 35 8 21 9 238 8 74 0 0
8 30 8 21 9 238 8 74 0 0
8 37 8 21 9 236 8 75 0 0
8 36 8 21 9 235 8 75 0 0
8 31 8 21 9 236 8 75 0 0
8 34 8 21 9 246 8 75 0 0
7 220 8 21 10 2 8 74 0 0
8 30 8 20 9 238 8 73 0 0
8 36 8 20 9 239 8 73 0 0
8 29 8 20 9 232 8 74 0 0
8 34 8 21 9 162 8 75 0 0
8 117 8 21 9 201 8 74 0 0
8 37 8 20 9 227 8 73 0 0
8 18 8 20 9 212 8 75 0 0
8 13 8 21 9 177 8 74 0 0
8 12 8 20 10 10 8 72 0 0
8 13 8 20 10 4 8 71 0 0
8 31 8 20 9 233 8 74 0 0
8 27 8 20 9 239 8 74 0 0
7 246 8 21 10 60 8 73 0 0
8 24 8 20 9 242 8 73 0 0
7 202 8 18 10 15 8 75 0 0
8 32 8 18 9 235 8 74 0 0
8 38 8 18 9 243 8 73 0 0
8 52 8 18 9 93 8 74 0 0
8 32 8 18 9 237 8 74 0 0
8 34 8 18 9 228 8 74 0 0
8 30 8 19 9 237 8 76 0 0
8 31 8 18 9 230 8 77 0 0
8 35 8 18 9 229 8 74 0 0
8 32 8 19 9 234 8 74 0 0
8 36 8 19 9 237 8 74 0 0
8 28 8 19 9 212 8 73 0 0
7 239 8 19 10 24 8 74 0 0
8 23 8 18 9 240 8 75 0 0
8 34 8 18 9 222 8 75 0 0
8 34 8 17 9 230 8 75 0 0
8 29 8 18 9 227 8 76 0 0
7 228 8 18 9 200 8 71 0 0
8 37 8 17 9 225 8 66 0 0
8 39 8 10 10 55 8 68 0 0
8 18 8 11 10 53 8 67 0 0
8 46 8 12 9 162 8 66 0 0
8 71 8 12 10 78 8 69 0 0
8 80 8 12 10 45 8 69 0 0
7 228 8 12 9 216 8 68 0 0
8 5 8 12 9 212 8 72 0 0
8 26 8 12 9 174 8 69 0 0
8 18 8 12 9 224 8 67 0 0
8 40 8 13 9 248 8 69 0 0
8 29 8 12 9 241 8 68 0 0
8 34 8 13 9 239 8 65 0 0
8 34 8 13 9 233 8 68 0 0
8 42 8 13 9 235 8 65 0 0
8 34 8 13 9 253 8 67 0 0
8 43 8 14 9 205 8 67 0 0
8 67 8 14 9 188 8 69 0 0
7 253 8 14 10 5 8 66 0 0
8 31 8 14 9 165 8 65 0 0
8 0 8 15 10 51 8 68 0 0
8 35 8 15 9 243 8 66 0 0
8 38 8 15 10 27 8 67 0 0
8 27 8 16 10 24 8 70 0 0
8 34 8 15 9 246 8 71 0 0
8 44 8 15 9 248 8 66 0 0
8 48 8 16 10 1 8 67 0 0
8 24 8 15 10 1 8 70 0 0
8 36 8 16 9 194 8 69 0 0
8 34 8 15 9 231 8 67 0 0
8 32 8 15 10 36 8 68 0 0
8 21 8 16 9 238 8 70 0 0
8 43 8 16 9 217 8 70 0 0
8 20 8 16 9 233 8 68 0 0
8 42 8 17 9 145 8 67 0 0
8 28 8 17 9 232 8 64 0 0
7 253 8 16 9 185 8 66 0 0
8 28 8 16 9 229 8 65 0 0
8 40 8 16 9 234 8 68 0 0
8 39 8 17 9 252 8 67 0 0
8 29 8 17 9 237 8 75 0 0
8 24 8 17 9 232 8 67 0 0
8 34 8 16 10 33 8 68 0 0
8 49 8 18 10 33 8 68 0 0
8 23 8 17 9 181 8 69 0 0
8 51 8 18 9 203 8 70 0 0
8 63 8 17 9 187 8 67 0 0
8 19 8 18 10 54 8 70 0 0
8 73 8 18 10 3 8 63 0 0
8 32 8 18 9 223 8 67 0 0
8 50 8 17 10 5 8 65 0 0
8 27 8 17 9 225 8 69 0 0
8 31 8 18 9 243 8 73 0 0
8 23 8 18 9 220 8 67 0 0
8 22 8 18 10 0 8 69 0 0
8 30 8 17 9 244 8 67 0 0
8 28 8 17 9 236 8 66 0 0
8 39 8 18 9 237 8 68 0 0
8 63 8 17 10 43 8 67 0 0
8 78 8 18 9 229 8 66 0 0
8 14 8 18 9 250 8 66 0 0
8 26 8 25 9 239 8 72 0 0
8 19 8 25 9 214 8 74 0 0
8 17 8 24 10 11 8 74 0 0
8 31 8 24 9 229 8 74 0 0
8 29 8 22 9 238 8 74 0 0
8 28 8 22 9 232 8 74 0 0
8 38 8 23 10 150 8 73 0 0
8 2 8 22 10 0 8 72 0 0
8 27 8 22 9 240 8 76 0 0
8 35 8 22 9 235 8 74 0 0
8 39 8 21 9 233 8 76 0 0
8 34 8 21 9 229 8 76 0 0
8 39 8 21 9 230 8 76 0 0
8 34 8 22 9 227 8 77 0 0
8 28 8 21 9 243 8 75 0 0
8 37 8 21 9 226 8 74 0 0
8 32 8 21 9 234 8 74 0 0
8 29 8 21 9 235 8 70 0 0
8 26 8 21 9 228 8 71 0 0
8 56 8 22 9 81 8 73 0 0
8 35 8 21 9 225 8 72 0 0
8 30 8 21 9 231 8 71 0 0
8 37 8 21 9 224 8 74 0 0
8 32 8 21 9 238 8 75 0 0
8 37 8 21 9 236 8 73 0 0
8 39 8 21 9 232 8 75 0 0
8 30 8 21 9 245 8 74 0 0
8 35 8 20 9 248 8 75 0 0
8 11 8 21 9 185 8 76 0 0
7 241 8 20 9 232 8 74 0 0
8 33 8 19 9 238 8 73 0 0
8 27 8 19 9 235 8 75 0 0
8 28 8 19 9 249 8 76 0 0
7 255 8 20 9 252 8 76 0 0
8 16 8 19 9 243 8 76 0 0
8 29 8 19 9 230 8 76 0 0
8 31 8 19 9 239 8 74 0 0
8 36 8 18 9 235 8 73 0 0
8 30 8 18 9 241 8 74 0 0
8 31 8 18 9 229 8 73 0 0
8 35 8 18 9 228 8 71 0 0
8 38 8 18 9 238 8 74 0 0
8 23 8 18 9 211 8 75 0 0
8 68 8 19 9 78 8 77 0 0
8 74 8 18 9 218 8 75 0 0
8 32 8 18 9 230 8 74 0 0
8 30 8 17 9 234 8 72 0 0
8 21 8 17 9 243 8 76 0 0
8 36 8 17 10 125 8 76 0 0
8 33 8 16 9 230 8 75 0 0
8 35 8 16 9 216 8 75 0 0
8 33 8 17 9 227 8 73 0 0
8 34 8 17 9 244 8 76 0 0
8 30 8 17 9 242 8 74 0 0
8 31 8 17 9 231 8 74 0 0
8 25 8 17 9 218 8 74 0 0
8 25 8 17 9 241 8 73 0 0
8 80 8 18 9 58 8 71 0 0
8 38 8 17 9 242 8 73 0 0
8 30 8 17 9 232 8 73 0 0
8 31 8 17 9 238 8 74 0 0
8 31 8 10 9 220 8 67 0 0
8 31 8 11 9 226 8 67 0 0
8 41 8 10 9 225 8 69 0 0
8 26 8 11 10 57 8 72 0 0
8 55 8 11 9 136 8 71 0 0
7 61 8 12 10 46 8 65 0 0
8 67 8 12 10 42 8 67 0 0
8 8 8 13 9 253 8 68 0 0
8 41 8 13 9 236 8 70 0 0
8 37 8 13 9 227 8 71 0 0
8 26 8 13 9 228 8 70 0 0
8 37 8 14 9 233 8 67 0 0
8 31 8 14 9 248 8 67 0 0
8 24 8 14 9 239 8 68 0 0
8 32 8 14 9 249 8 72 0 0
8 31 8 14 9 240 8 70 0 0
8 29 8 14 9 251 8 70 0 0
8 34 8 15 9 236 8 74 0 0
8 37 8 15 9 241 8 75 0 0
8 33 8 15 9 238 8 75 0 0
8 30 8 15 9 233 8 67 0 0
8 27 8 15 9 233 8 74 0 0
8 49 8 15 9 245 8 66 0 0
8 33 8 16 9 237 8 67 0 0
8 28 8 15 9 246 8 69 0 0
8 33 8 15 9 236 8 67 0 0
8 32 8 15 9 228 8 70 0 0
8 41 8 15 9 229 8 69 0 0
7 250 8 15 9 216 8 70 0 0
8 27 8 15 9 231 8 70 0 0
8 35 8 15 9 234 8 69 0 0
8 48 8 15 9 239 8 68 0 0
8 39 8 16 9 208 8 71 0 0
8 26 8 16 9 232 8 70 0 0
8 15 8 16 10 4 8 69 0 0
8 44 8 16 9 246 8 69 0 0
8 39 8 16 9 235 8 68 0 0
8 34 8 17 9 223 8 65 0 0
8 28 8 16 9 234 8 66 0 0
8 33 8 16 9 239 8 66 0 0
8 30 8 16 9 230 8 68 0 0
8 37 8 17 9 151 8 71 0 0
8 31 8 18 9 247 8 70 0 0
8 32 8 17 9 238 8 69 0 0
8 42 8 17 9 237 8 77 0 0
8 31 8 17 9 245 8 69 0 0
8 30 8 17 9 236 8 73 0 0
8 27 8 16 9 240 8 67 0 0
8 34 8 16 9 214 8 68 0 0
8 20 8 17 9 236 8 67 0 0
8 22 8 16 9 129 8 70 0 0
8 26 8 17 9 235 8 70 0 0
8 42 8 16 10 0 8 70 0 0
8 24 8 16 9 228 8 67 0 0
8 35 8 17 9 225 8 66 0 0
8 31 8 17 9 211 8 69 0 0
8 31 8 17 9 234 8 68 0 0
8 49 8 16 9 254 8 68 0 0
8 36 8 17 9 192 8 67 0 0
8 35 8 23 9 239 8 74 0 0
8 30 8 23 9 240 8 72 0 0
8 30 8 23 9 233 8 75 0 0
8 28 8 24 9 231 8 75 0 0
8 30 8 22 9 233 8 72 0 0
8 26 8 22 9 206 8 73 0 0
8 57 8 23 9 98 8 72 0 0
8 89 8 23 9 207 8 73 0 0
8 30 8 22 9 236 8 75 0 0
8 39 8 22 9 232 8 72 0 0
8 32 8 22 9 237 8 73 0 0
8 33 8 22 9 198 8 76 0 0
8 107 8 22 9 187 8 74 0 0
8 30 8 22 9 243 8 74 0 0
8 34 8 23 9 228 8 73 0 0
8 32 8 22 9 235 8 71 0 0
8 31 8 22 9 239 8 73 0 0
8 29 8 22 9 238 8 75 0 0
8 34 8 22 9 228 8 75 0 0
8 27 8 22 9 241 8 72 0 0
8 39 8 22 9 255 8 75 0 0
8 46 8 22 10 116 8 75 0 0
8 28 8 21 9 234 8 75 0 0
8 36 8 21 9 226 8 74 0 0
8 34 8 21 9 232 8 72 0 0
8 33 8 21 9 240 8 74 0 0
8 26 8 21 9 167 8 73 0 0
8 32 8 21 9 226 8 73 0 0
8 31 8 20 9 243 8 74 0 0
8 34 8 21 9 248 8 73 0 0
8 32 8 20 9 243 8 76 0 0
8 29 8 20 9 231 8 76 0 0
8 28 8 20 9 239 8 75 0 0
8 36 8 20 9 233 8 73 0 0
8 32 8 21 9 239 8 74 0 0
8 30 8 21 9 177 8 74 0 0
8 51 8 21 9 220 8 75 0 0
8 33 8 21 9 233 8 75 0 0
8 35 8 20 9 236 8 76 0 0
8 34 8 20 10 2 8 72 0 0
7 238 8 20 10 20 8 71 0 0
7 242 8 20 9 190 8 74 0 0
8 0 8 20 10 29 8 72 0 0
8 30 8 19 9 234 8 72 0 0
8 34 8 19 9 242 8 74 0 0
8 36 8 20 9 238 8 73 0 0
8 35 8 19 9 230 8 73 0 0
8 35 8 19 9 229 8 75 0 0
8 36 8 19 9 228 8 76 0 0
8 46 8 20 9 84 8 76 0 0
8 44 8 20 10 44 8 74 0 0
8 27 8 19 9 236 8 75 0 0
8 27 8 19 9 232 8 74 0 0
8 29 8 19 9 245 8 75 0 0
8 37 8 19 9 233 8 75 0 0
8 38 8 19 9 243 8 76 0 0
8 29 8 19 9 234 8 70 0 0
8 30 8 19 9 234 8 72 0 0
8 30 8 19 9 229 8 76 0 0
8 31 8 19 9 231 8 75 0 0
8 63 8 12 9 216 8 69 0 0
8 52 8 13 10 61 8 68 0 0
8 33 8 13 9 225 8 71 0 0
8 11 8 13 9 184 8 71 0 0
8 31 8 14 9 229 8 65 0 0
8 33 8 13 9 241 8 65 0 0
8 40 8 13 9 252 8 68 0 0
8 4 8 14 9 209 8 66 0 0
8 34 8 13 9 253 8 67 0 0
8 27 8 14 9 244 8 67 0 0
8 33 8 14 9 240 8 69 0 0
8 34 8 14 10 25 8 68 0 0
8 55 8 14 9 218 8 67 0 0
8 28 8 15 9 228 8 68 0 0
8 34 8 16 9 236 8 67 0 0
8 28 8 16 9 228 8 67 0 0
8 30 8 15 9 215 8 68 0 0
8 34 8 16 9 238 8 69 0 0
8 33 8 15 9 240 8 67 0 0
7 232 8 15 9 188 8 68 0 0
8 32 8 16 9 228 8 69 0 0
8 38 8 14 9 224 8 67 0 0
8 36 8 16 9 235 8 67 0 0
8 32 8 16 9 237 8 71 0 0
8 33 8 16 9 236 8 68 0 0
8 32 8 16 9 237 8 68 0 0
8 33 8 16 9 237 8 68 0 0
8 36 8 16 9 246 8 70 0 0
8 31 8 16 9 238 8 70 0 0
8 22 8 16 9 229 8 70 0 0
8 35 8 16 9 241 8 65 0 0
8 28 8 16 9 230 8 68 0 0
8 36 8 16 9 238 8 66 0 0
8 36 8 16 10 5 8 69 0 0
8 61 8 17 9 233 8 69 0 0
8 26 8 16 9 236 8 69 0 0
8 30 8 16 9 245 8 67 0 0
8 29 8 16 9 231 8 69 0 0
8 32 8 16 9 233 8 70 0 0
8 35 8 16 9 242 8 70 0 0
8 19 8 16 10 4 8 73 0 0
8 41 8 17 10 8 8 68 0 0
8 9 8 16 9 235 8 65 0 0
8 39 8 17 9 237 8 68 0 0
8 34 8 18 9 235 8 68 0 0
8 35 8 18 9 235 8 71 0 0
8 32 8 17 9 234 8 71 0 0
8 27 8 17 9 241 8 68 0 0
8 28 8 17 10 23 8 68 0 0
8 17 8 17 9 229 8 69 0 0
8 31 8 17 10 0 8 71 0 0
8 30 8 17 9 242 8 72 0 0
8 33 8 17 9 240 8 69 0 0
8 38 8 17 9 255 8 68 0 0
8 62 8 17 9 184 8 72 0 0
7 250 8 17 10 14 8 68 0 0
8 65 8 17 10 23 8 65 0 0
7 252 8 17 9 133 8 66 0 0
8 30 8 17 9 238 8 65 0 0
8 35 8 17 9 231 8 75 0 0
8 44 8 25 9 242 8 73 0 0
8 36 8 23 9 238 8 73 0 0
8 33 8 24 9 227 8 75 0 0
8 24 8 23 9 238 8 76 0 0
8 22 8 24 9 221 8 75 0 0
8 35 8 23 9 236 8 75 0 0
8 33 8 24 9 228 8 74 0 0
8 37 8 24 9 227 8 75 0 0
8 28 8 24 9 227 8 76 0 0
8 31 8 23 9 237 8 73 0 0
8 28 8 24 9 235 8 74 0 0
8 39 8 24 9 237 8 75 0 0
8 30 8 24 9 230 8 75 0 0
8 26 8 23 10 2 8 73 0 0
8 71 8 24 9 143 8 73 0 0
8 34 8 23 9 239 8 73 0 0
8 31 8 23 9 232 8 75 0 0
8 32 8 22 9 175 8 74 0 0
8 28 8 23 9 231 8 77 0 0
8 89 8 24 9 79 8 72 0 0
8 33 8 22 9 239 8 74 0 0
8 31 8 23 9 222 8 74 0 0
8 36 8 23 9 229 8 74 0 0
8 23 8 21 9 236 8 74 0 0
8 26 8 21 9 242 8 73 0 0
8 26 8 22 9 224 8 75 0 0
8 26 8 22 9 201 8 74 0 0
8 48 8 21 10 8 8 77 0 0
8 8 8 21 9 133 8 73 0 0
8 31 8 20 9 223 8 74 0 0
8 34 8 20 10 2 8 75 0 0
8 89 8 21 10 26 8 76 0 0
8 38 8 19 9 160 8 73 0 0
8 34 8 18 9 236 8 74 0 0
8 35 8 18 9 225 8 74 0 0
8 9 8 19 9 248 8 75 0 0
8 34 8 19 9 204 8 76 0 0
8 35 8 18 9 229 8 75 0 0
8 22 8 18 9 215 8 73 0 0
8 47 8 18 9 201 8 77 0 0
8 11 8 18 9 114 8 74 0 0
7 213 8 18 10 138 8 76 0 0
7 236 8 18 10 0 8 74 0 0
8 34 8 17 9 233 8 73 0 0
8 31 8 17 9 233 8 74 0 0
8 33 8 18 9 240 8 76 0 0
8 31 8 19 10 13 8 74 0 0
8 29 8 18 9 233 8 75 0 0
8 29 8 18 9 236 8 76 0 0
8 54 8 19 9 97 8 72 0 0
8 77 8 19 9 58 8 73 0 0
8 40 8 20 9 238 8 76 0 0
8 31 8 20 9 234 8 76 0 0
7 253 8 18 9 173 8 74 0 0
8 27 8 18 9 104 8 76 0 0
8 77 8 18 10 43 8 74 0 0
8 30 8 18 9 243 8 75 0 0
8 33 8 17 9 233 8 75 0 0
8 30 8 11 9 219 8 69 0 0
8 29 8 11 10 20 8 71 0 0
8 42 8 11 9 242 8 69 0 0
8 23 8 11 9 192 8 67 0 0
8 29 8 11 9 235 8 71 0 0
8 44 8 12 10 67 8 68 0 0
8 75 8 13 10 59 8 68 0 0
8 66 8 14 10 62 8 66 0 0
8 68 8 14 9 190 8 68 0 0
8 32 8 14 9 238 8 72 0 0
8 33 8 15 9 231 8 65 0 0
8 60 8 15 10 0 8 69 0 0
8 24 8 15 9 229 8 69 0 0
8 35 8 14 9 236 8 70 0 0
8 36 8 14 10 0 8 64 0 0
8 31 8 15 9 233 8 70 0 0
8 32 8 15 9 228 8 70 0 0
8 43 8 15 9 246 8 64 0 0
8 23 8 15 9 235 8 63 0 0
8 43 8 15 9 227 8 69 0 0
8 35 8 16 9 237 8 68 0 0
8 24 8 15 9 243 8 65 0 0
8 37 8 15 9 238 8 66 0 0
8 41 8 15 9 249 8 67 0 0
8 33 8 15 9 154 8 69 0 0
8 35 8 16 9 233 8 67 0 0
8 39 8 16 9 230 8 70 0 0
8 31 8 15 9 235 8 66 0 0
8 15 8 16 9 217 8 68 0 0
8 35 8 16 9 232 8 67 0 0
8 6 8 16 9 243 8 68 0 0
8 44 8 16 9 236 8 66 0 0
8 20 8 16 9 251 8 67 0 0
8 38 8 17 9 234 8 64 0 0
8 30 8 17 9 238 8 65 0 0
8 23 8 17 9 220 8 68 0 0
8 33 8 17 9 236 8 69 0 0
8 14 8 17 9 220 8 69 0 0
8 36 8 17 9 223 8 71 0 0
8 52 8 17 9 232 8 68 0 0
8 32 8 16 9 241 8 70 0 0
8 24 8 17 9 229 8 65 0 0
8 32 8 17 9 245 8 67 0 0
8 54 8 17 9 246 8 67 0 0
8 55 8 17 9 141 8 67 0 0
8 29 8 17 10 18 8 68 0 0
8 19 8 17 10 48 8 68 0 0
8 43 8 17 10 19 8 59 0 0
8 34 8 17 9 226 8 69 0 0
8 40 8 17 9 248 8 71 0 0
8 22 8 17 9 252 8 70 0 0
8 34 8 17 9 236 8 69 0 0
8 30 8 18 9 231 8 64 0 0
8 23 8 18 9 232 8 67 0 0
8 35 8 17 9 225 8 67 0 0
8 36 8 17 10 21 8 68 0 0
8 67 8 17 9 221 8 68 0 0
8 11 8 17 9 127 8 65 0 0
8 65 8 17 9 198 8 68 0 0
8 55 8 17 9 185 8 67 0 0
8 53 8 18 10 1 8 65 0 0
8 0 8 17 9 237 8 66 0 0
8 32 8 18 9 245 8 65 0 0
8 16 8 17 9 252 8 67 0 0
8 32 8 17 9 236 8 71 0 0
8 32 8 23 9 232 8 72 0 0
8 36 8 24 9 232 8 74 0 0
8 21 8 23 9 237 8 75 0 0
8 33 8 23 9 235 8 74 0 0
8 31 8 23 9 233 8 74 0 0
8 37 8 24 9 233 8 74 0 0
8 32 8 22 9 235 8 75 0 0
8 30 8 23 9 231 8 75 0 0
8 31 8 22 9 229 8 77 0 0
8 41 8 22 9 236 8 78 0 0
8 16 8 23 9 194 8 76 0 0
8 53 8 23 9 182 8 74 0 0
8 38 8 22 9 228 8 73 0 0
8 35 8 22 9 243 8 74 0 0
8 28 8 23 10 40 8 76 0 0
8 31 8 21 9 232 8 72 0 0
8 109 8 22 9 105 8 73 0 0
8 33 8 21 9 237 8 74 0 0
8 32 8 22 9 235 8 73 0 0
8 36 8 21 9 236 8 75 0 0
8 36 8 22 9 226 8 74 0 0
8 36 8 20 9 233 8 74 0 0
8 34 8 21 9 233 8 76 0 0
8 37 8 21 9 255 8 74 0 0
8 25 8 21 9 81 8 76 0 0
7 230 8 21 10 28 8 75 0 0
8 33 8 20 9 233 8 75 0 0
8 33 8 20 9 237 8 75 0 0
8 23 8 21 9 241 8 77 0 0
8 22 8 21 9 126 8 75 0 0
8 28 8 21 9 248 8 76 0 0
8 67 8 20 10 21 8 74 0 0
8 5 8 21 9 254 8 76 0 0
8 31 8 20 9 242 8 74 0 0
8 31 8 19 9 232 8 73 0 0
8 32 8 19 9 233 8 73 0 0
8 36 8 19 9 232 8 77 0 0
8 26 8 19 9 228 8 75 0 0
8 67 8 20 9 73 8 75 0 0
8 56 8 20 9 240 8 74 0 0
8 31 8 19 9 231 8 74 0 0
8 31 8 19 9 228 8 75 0 0
8 29 8 19 9 237 8 72 0 0
8 8 8 20 10 164 8 74 0 0
8 33 8 18 9 237 8 73 0 0
8 30 8 19 9 242 8 75 0 0
8 32 8 19 9 233 8 75 0 0
8 28 8 19 9 243 8 75 0 0
8 36 8 19 9 222 8 76 0 0
8 30 8 18 9 229 8 75 0 0
8 35 8 19 9 249 8 76 0 0
8 33 8 19 9 220 8 75 0 0
8 122 8 19 9 158 8 75 0 0
8 30 8 18 9 237 8 73 0 0
8 33 8 18 9 234 8 73 0 0
8 37 8 19 9 246 8 73 0 0
8 30 8 11 10 1 8 67 0 0
8 34 8 12 9 235 8 65 0 0
8 32 8 11 9 237 8 66 0 0
8 19 8 12 10 56 8 69 0 0
8 31 8 12 10 62 8 69 0 0
8 69 8 13 9 201 8 68 0 0
8 56 8 13 10 34 8 68 0 0
7 238 8 13 9 156 8 67 0 0
8 26 8 13 9 241 8 69 0 0
8 62 8 14 10 4 8 72 0 0
8 26 8 13 10 30 8 69 0 0
8 46 8 13 9 231 8 69 0 0
8 29 8 14 9 231 8 69 0 0
8 37 8 14 9 246 8 70 0 0
8 55 8 14 9 238 8 67 0 0
8 56 8 14 9 196 8 66 0 0
8 17 8 14 10 66 8 68 0 0
8 39 8 15 9 192 8 67 0 0
8 39 8 15 9 160 8 67 0 0
8 16 8 14 10 4 8 68 0 0
8 18 8 15 10 55 8 68 0 0
8 69 8 15 9 246 8 68 0 0
8 31 8 16 9 232 8 66 0 0
8 28 8 15 9 239 8 65 0 0
8 35 8 15 9 246 8 69 0 0
8 34 8 16 9 240 8 70 0 0
8 21 8 15 10 14 8 69 0 0
8 34 8 15 9 229 8 70 0 0
8 31 8 16 9 232 8 70 0 0
8 26 8 17 9 231 8 71 0 0
8 35 8 16 9 231 8 68 0 0
8 33 8 17 9 234 8 65 0 0
8 29 8 16 9 248 8 70 0 0
8 31 8 17 9 230 8 63 0 0
8 34 8 16 9 236 8 69 0 0
8 33 8 17 9 227 8 70 0 0
8 34 8 17 9 248 8 66 0 0
8 34 8 16 9 236 8 68 0 0
8 30 8 16 9 237 8 69 0 0
8 49 8 17 10 213 8 74 0 0
8 47 8 17 9 221 8 68 0 0
8 33 8 16 9 225 8 69 0 0
8 33 8 16 9 232 8 67 0 0
8 3 8 17 9 254 8 69 0 0
8 43 8 17 9 227 8 69 0 0
8 48 8 17 9 216 8 69 0 0
8 21 8 17 10 13 8 67 0 0
8 21 8 17 9 230 8 66 0 0
8 22 8 17 9 232 8 69 0 0
8 33 8 17 9 228 8 71 0 0
8 32 8 16 9 240 8 72 0 0
8 31 8 16 9 212 8 71 0 0
8 27 8 17 9 234 8 67 0 0
8 36 8 16 9 225 8 67 0 0
8 31 8 17 9 244 8 68 0 0
8 33 8 16 9 249 8 68 0 0
8 31 8 17 9 234 8 68 0 0
8 32 8 16 9 204 8 66 0 0
8 50 8 17 9 212 8 71 0 0
8 31 8 17 9 228 8 64 0 0
8 37 8 17 9 237 8 62 0 0
8 27 8 17 9 228 8 67 0 0
8 36 8 17 9 236 8 72 0 0
8 63 8 23 9 185 8 74 0 0
8 103 8 24 9 190 8 74 0 0
8 35 8 23 9 233 8 74 0 0
8 33 8 23 9 233 8 73 0 0
8 35 8 23 9 241 8 73 0 0
8 31 8 23 9 237 8 73 0 0
8 31 8 23 10 158 8 75 0 0
8 32 8 22 9 233 8 76 0 0
8 26 8 23 9 247 8 74 0 0
8 33 8 22 9 226 8 74 0 0
8 25 8 23 9 232 8 75 0 0
8 39 8 23 9 226 8 74 0 0
8 33 8 22 9 239 8 75 0 0
8 32 8 22 9 240 8 74 0 0
8 29 8 23 9 247 8 74 0 0
8 32 8 22 9 218 8 72 0 0
7 227 8 22 10 90 8 74 0 0
8 12 8 22 9 244 8 74 0 0
8 28 8 21 9 232 8 74 0 0
8 30 8 21 9 234 8 73 0 0
8 31 8 21 9 181 8 74 0 0
8 28 8 21 9 241 8 74 0 0
7 239 8 21 10 171 8 75 0 0
8 33 8 21 9 237 8 74 0 0
8 33 8 21 9 231 8 73 0 0
8 33 8 21 9 239 8 72 0 0
8 32 8 21 9 226 8 74 0 0
8 37 8 21 9 229 8 76 0 0
8 27 8 21 9 227 8 74 0 0
8 35 8 20 9 235 8 74 0 0
8 28 8 21 9 235 8 75 0 0
8 42 8 21 9 252 8 74 0 0
8 40 8 20 9 246 8 73 0 0
8 27 8 20 10 77 8 74 0 0
8 21 8 19 9 244 8 74 0 0
8 32 8 19 9 239 8 73 0 0
8 31 8 19 9 240 8 73 0 0
8 30 8 19 9 232 8 75 0 0
8 10 8 19 10 2 8 72 0 0
8 35 8 19 9 230 8 74 0 0
8 33 8 19 9 230 8 76 0 0
8 30 8 19 9 220 8 76 0 0
8 34 8 19 9 228 8 77 0 0
8 40 8 19 9 217 8 76 0 0
8 37 8 19 9 225 8 75 0 0
8 43 8 19 9 198 8 76 0 0
8 51 8 18 9 219 8 74 0 0
8 34 8 18 9 232 8 72 0 0
8 32 8 18 9 238 8 72 0 0
8 35 8 18 9 232 8 74 0 0
8 30 8 19 9 229 8 72 0 0
8 35 8 19 10 46 8 75 0 0
8 4 8 18 9 249 8 74 0 0
8 32 8 18 9 246 8 76 0 0
8 36 8 18 9 244 8 77 0 0
8 27 8 19 9 231 8 77 0 0
8 34 8 19 9 232 8 77 0 0
8 30 8 18 9 239 8 73 0 0
8 30 8 18 9 238 8 76 0 0
8 30 8 18 9 220 8 73 0 0
8 13 8 18 9 144 8 77 0 0
8 22 8 19 9 105 8 76 0 0
8 35 8 18 9 234 8 75 0 0
8 27 8 18 9 228 8 75 0 0
8 30 8 18 9 193 8 69 0 0
8 31 8 13 9 227 8 67 0 0
8 42 8 13 9 232 8 65 0 0
8 31 8 13 9 231 8 65 0 0
8 41 8 14 9 233 8 69 0 0
8 33 8 14 9 233 8 70 0 0
8 35 8 14 9 235 8 69 0 0
8 30 8 13 9 235 8 70 0 0
8 39 8 13 9 239 8 62 0 0
8 40 8 14 9 253 8 65 0 0
8 32 8 14 9 247 8 68 0 0
8 32 8 15 9 220 8 66 0 0
8 36 8 14 9 244 8 69 0 0
8 35 8 14 9 244 8 67 0 0
8 40 8 15 9 240 8 72 0 0
8 18 8 15 9 224 8 71 0 0
8 30 8 15 9 235 8 70 0 0
8 31 8 15 9 237 8 66 0 0
8 28 8 15 9 181 8 66 0 0
8 23 8 15 9 223 8 70 0 0
8 55 8 15 9 236 8 69 0 0
8 17 8 15 9 229 8 68 0 0
8 27 8 15 10 23 8 70 0 0
8 36 8 16 9 244 8 70 0 0
8 29 8 16 9 249 8 71 0 0
8 33 8 16 9 221 8 71 0 0
8 32 8 16 9 233 8 68 0 0
8 35 8 16 9 243 8 67 0 0
8 29 8 16 9 189 8 72 0 0
8 25 8 17 9 240 8 65 0 0
8 27 8 16 9 238 8 68 0 0
8 34 8 17 9 210 8 71 0 0
8 34 8 17 9 254 8 69 0 0
8 43 8 16 9 230 8 72 0 0
8 30 8 17 9 229 8 68 0 0
8 27 8 16 9 235 8 63 0 0
8 31 8 17 9 239 8 67 0 0
8 36 8 17 9 244 8 68 0 0
8 37 8 17 9 244 8 67 0 0
8 1 8 17 9 215 8 70 0 0
8 37 8 17 9 206 8 69 0 0
8 39 8 17 10 16 8 68 0 0
8 33 8 18 9 236 8 69 0 0
8 44 8 18 9 227 8 64 0 0
8 34 8 17 9 237 8 70 0 0
8 33 8 17 9 232 8 72 0 0
8 10 8 18 10 61 8 70 0 0
8 55 8 18 9 211 8 71 0 0
8 50 8 18 10 10 8 66 0 0
8 30 8 18 9 233 8 65 0 0
8 39 8 18 9 211 8 65 0 0
8 3 8 18 9 210 8 63 0 0
8 32 8 19 9 232 8 67 0 0
8 25 8 18 9 235 8 69 0 0
8 23 8 18 9 230 8 65 0 0
8 36 8 18 9 242 8 65 0 0
8 38 8 17 9 219 8 66 0 0
8 38 8 18 9 238 8 66 0 0
8 10 8 18 9 229 8 68 0 0
8 40 8 19 9 255 8 65 0 0
8 43 8 18 9 228 8 68 0 0
8 33 8 18 9 233 8 68 0 0
8 43 8 19 9 221 8 67 0 0
8 57 8 19 10 1 8 67 0 0
8 34 8 26 9 238 8 74 0 0
8 31 8 26 9 230 8 74 0 0
8 28 8 26 10 18 8 74 0 0
8 74 8 26 9 89 8 73 0 0
8 73 8 25 9 91 8 76 0 0
8 30 8 24 9 230 8 73 0 0
8 33 8 24 9 235 8 74 0 0
7 225 8 25 10 53 8 76 0 0
8 17 8 23 9 222 8 74 0 0
8 32 8 23 9 243 8 74 0 0
8 35 8 23 9 227 8 75 0 0
8 31 8 23 9 235 8 75 0 0
8 28 8 22 9 241 8 76 0 0
8 24 8 22 9 236 8 75 0 0
8 31 8 22 9 236 8 74 0 0
8 20 8 22 9 154 8 76 0 0
8 30 8 23 10 14 8 75 0 0
8 74 8 23 9 218 8 74 0 0
8 36 8 23 9 239 8 75 0 0
8 40 8 23 9 245 8 74 0 0
8 34 8 23 9 237 8 74 0 0
7 230 8 23 10 71 8 75 0 0
8 36 8 22 9 237 8 74 0 0
8 29 8 22 9 227 8 75 0 0
8 31 8 22 9 240 8 75 0 0
8 32 8 22 9 226 8 74 0 0
8 39 8 22 9 237 8 75 0 0
8 35 8 22 9 244 8 76 0 0
8 34 8 21 9 237 8 73 0 0
8 28 8 21 9 216 8 73 0 0
8 44 8 22 10 97 8 74 0 0
7 229 8 21 10 32 8 73 0 0
8 21 8 20 9 248 8 74 0 0
8 32 8 19 9 237 8 74 0 0
8 37 8 21 9 233 8 73 0 0
8 33 8 19 9 239 8 73 0 0
8 15 8 20 9 208 8 74 0 0
8 37 8 20 9 229 8 75 0 0
8 28 8 19 9 238 8 75 0 0
8 39 8 20 9 227 8 74 0 0
8 32 8 20 9 234 8 74 0 0
8 34 8 19 9 243 8 73 0 0
8 32 8 19 9 234 8 74 0 0
8 29 8 19 9 245 8 76 0 0
8 45 8 19 9 192 8 74 0 0
8 29 8 18 10 83 8 75 0 0
7 215 8 18 10 5 8 75 0 0
8 33 8 17 9 236 8 74 0 0
8 35 8 17 9 235 8 74 0 0
8 48 8 18 9 178 8 71 0 0
8 34 8 18 9 157 8 75 0 0
8 29 8 18 9 232 8 75 0 0
8 32 8 18 9 229 8 75 0 0
8 33 8 18 9 236 8 75 0 0
8 36 8 18 9 224 8 74 0 0
8 25 8 18 9 227 8 76 0 0
8 36 8 18 9 235 8 76 0 0
8 28 8 18 9 241 8 73 0 0
8 29 8 19 9 220 8 76 0 0
8 37 8 12 9 231 8 66 0 0
8 30 8 12 9 241 8 66 0 0
8 28 8 11 9 236 8 65 0 0
8 34 8 12 9 247 8 66 0 0
8 32 8 13 9 239 8 69 0 0
8 42 8 13 9 219 8 74 0 0
8 28 8 13 9 225 8 68 0 0
8 38 8 13 9 234 8 68 0 0
8 44 8 13 9 152 8 70 0 0
7 246 8 14 10 40 8 68 0 0
8 38 8 15 9 229 8 69 0 0
8 2 8 14 9 217 8 74 0 0
8 24 8 16 10 39 8 66 0 0
8 32 8 16 9 218 8 62 0 0
8 28 8 15 9 234 8 65 0 0
8 22 8 16 10 10 8 67 0 0
8 26 8 16 9 209 8 69 0 0
8 32 8 15 9 195 8 67 0 0
8 28 8 16 9 224 8 68 0 0
8 42 8 16 9 245 8 65 0 0
8 31 8 16 10 14 8 64 0 0
8 58 8 15 9 142 8 68 0 0
8 29 8 16 9 167 8 67 0 0
8 45 8 16 9 232 8 69 0 0
8 27 8 16 10 53 8 71 0 0
8 48 8 16 9 240 8 69 0 0
8 27 8 17 9 244 8 66 0 0
8 38 8 17 9 221 8 64 0 0
8 40 8 16 9 231 8 66 0 0
8 32 8 16 9 232 8 69 0 0
8 27 8 16 9 239 8 67 0 0
8 26 8 17 10 6 8 70 0 0
8 37 8 17 9 224 8 70 0 0
8 28 8 17 9 241 8 70 0 0
8 33 8 17 9 182 8 68 0 0
8 57 8 17 9 196 8 71 0 0
8 67 8 18 9 192 8 68 0 0
8 9 8 17 9 242 8 66 0 0
7 250 8 17 9 157 8 67 0 0
8 35 8 18 9 233 8 69 0 0
8 30 8 18 9 250 8 67 0 0
8 37 8 17 9 175 8 68 0 0
8 32 8 17 9 244 8 61 0 0
8 39 8 17 9 226 8 67 0 0
8 42 8 18 10 5 8 68 0 0
8 34 8 18 9 235 8 64 0 0
8 35 8 17 9 252 8 65 0 0
8 34 8 17 9 237 8 66 0 0
8 34 8 18 10 182 8 67 0 0
8 50 8 18 10 75 8 69 0 0
8 25 8 18 9 203 8 67 0 0
8 49 8 18 10 32 8 68 0 0
8 69 8 18 10 31 8 62 0 0
8 36 8 19 9 240 8 65 0 0
8 29 8 18 9 246 8 64 0 0
8 24 8 18 9 240 8 67 0 0
8 30 8 18 9 229 8 71 0 0
8 46 8 18 9 240 8 72 0 0
8 26 8 18 9 218 8 68 0 0
7 228 8 25 10 191 8 73 0 0
8 19 8 25 9 249 8 73 0 0
8 34 8 25 9 224 8 72 0 0
8 41 8 25 9 242 8 76 0 0
8 28 8 25 9 226 8 75 0 0
8 28 8 24 9 230 8 74 0 0
8 30 8 24 9 244 8 73 0 0
8 32 8 24 9 228 8 73 0 0
8 32 8 24 9 226 8 74 0 0
7 246 8 25 10 80 8 76 0 0
8 18 8 23 9 150 8 75 0 0
8 42 8 23 9 224 8 73 0 0
8 31 8 23 9 235 8 71 0 0
8 31 8 22 9 240 8 73 0 0
8 25 8 24 9 108 8 74 0 0
8 113 8 22 9 163 8 73 0 0
8 31 8 22 9 236 8 73 0 0
8 31 8 23 9 239 8 73 0 0
8 32 8 23 9 237 8 73 0 0
8 29 8 23 9 234 8 74 0 0
8 29 8 22 9 238 8 71 0 0
8 39 8 22 9 225 8 73 0 0
8 20 8 22 10 40 8 73 0 0
8 6 8 22 10 73 8 74 0 0
8 59 8 22 9 208 8 75 0 0
8 39 8 21 9 233 8 75 0 0
8 36 8 21 9 233 8 75 0 0
8 34 8 22 9 231 8 74 0 0
8 15 8 21 9 250 8 73 0 0
8 25 8 22 9 235 8 72 0 0
8 32 8 21 9 228 8 75 0 0
8 33 8 21 9 243 8 74 0 0
8 31 8 22 9 230 8 74 0 0
8 37 8 22 9 222 8 74 0 0